<<<<<<< HEAD
PCBNEW-LibModule-V1  mar 16 sep 2014 11:04:41 CEST
=======
PCBNEW-LibModule-V1  lun 21 jul 2014 11:01:53 CEST
>>>>>>> 4219f49ae3dd212d86406a6fcca0a88782fa2571
# encoding utf-8
Units mm
$INDEX
CC4V-T1A
SOIC8
WL-SFTW-SMD
$EndINDEX
$MODULE CC4V-T1A
<<<<<<< HEAD
Po 0 0 0 15 5417FC1E 00000000 ~~
=======
Po 0 0 0 15 53C90785 00000000 ~~
>>>>>>> 4219f49ae3dd212d86406a6fcca0a88782fa2571
Li CC4V-T1A
Sc 0
AR 
Op 0 0 0
T0 0 -2.05 1 1 0 0.15 N V 21 N "XTAL"
T1 0.5 2.3 1 1 0 0.15 N V 21 N "VAL**"
<<<<<<< HEAD
DS 0.762 0 0.508 0 0.15 21
DS 0.508 -1.27 0.508 1.27 0.15 21
DS -0.254 -1.27 -0.254 1.27 0.15 21
DS -0.254 1.27 0.254 1.27 0.15 21
DS 0.254 1.27 0.254 -1.27 0.15 21
DS 0.254 -1.27 -0.254 -1.27 0.15 21
DS -0.508 0 -0.508 1.27 0.15 21
DS -0.762 0 -0.508 0 0.15 21
DS -0.508 0 -0.508 -1.27 0.15 21
DS 0.762 0 1.016 0 0.15 21
DS -1.016 0 -0.762 0 0.15 21
=======
DS -0.254 -0.762 0.254 -0.762 0.15 21
DS 0.254 -0.762 0.254 0.762 0.15 21
DS 0.254 0.762 -0.254 0.762 0.15 21
DS -0.254 0.762 -0.254 -0.762 0.15 21
DS 0.508 -0.762 0.508 0.762 0.15 21
DS -0.508 -0.762 -0.508 0.762 0.15 21
DS 1.016 0 0.508 0 0.15 21
DS -1.016 0 -0.508 0 0.15 21
DS -2.54 1.27 -2.54 1.524 0.15 21
DS -2.54 1.524 2.54 1.524 0.15 21
DS 2.54 1.524 2.54 1.27 0.15 21
DS -2.54 -1.27 -2.54 -1.524 0.15 21
DS -2.54 -1.524 2.54 -1.524 0.15 21
DS 2.54 -1.524 2.54 -1.27 0.15 21
>>>>>>> 4219f49ae3dd212d86406a6fcca0a88782fa2571
$PAD
Sh "2" R 1.3 2.2 0 0 0
Dr 0 0 0
At SMD N 00888000
Ne 0 ""
Po 2.1 0
$EndPAD
$PAD
Sh "1" R 1.3 2.2 0 0 0
Dr 0 0 0
At SMD N 00888000
Ne 0 ""
Po -2.1 0
$EndPAD
$EndMODULE CC4V-T1A
$MODULE SOIC8
<<<<<<< HEAD
Po 0 0 0 15 5417FBB5 00000000 ~~
=======
Po 0 0 0 15 53C921D7 00000000 ~~
>>>>>>> 4219f49ae3dd212d86406a6fcca0a88782fa2571
Li SOIC8
Sc 0
AR /53C39F2F
Op 0 0 0
<<<<<<< HEAD
T0 0 5 1.524 1.524 0 0.3048 N V 21 N "U*"
T1 0 -5 1.524 1.524 0 0.3048 N V 21 N "VAL**"
DC -1.778 1.016 -1.778 0.762 0.15 21
=======
T0 4.445 -1.905 1.016 1.016 0 0.254 N V 21 N "U3"
T1 0.635 0 0.762 0.762 0 0.1524 N V 21 N "DS1337S+"
DC -1.778 1.016 -1.524 1.016 0.15 21
>>>>>>> 4219f49ae3dd212d86406a6fcca0a88782fa2571
DS -2.44856 -1.94818 -2.32918 -1.94818 0.24892 21
DS 2.32918 -1.94818 2.44856 -1.94818 0.24892 21
DS 2.44856 -1.94818 2.44856 1.94818 0.24892 21
DS -2.44856 1.94818 -2.32918 1.94818 0.24892 21
DS 2.32918 1.94818 2.44856 1.94818 0.24892 21
DS -2.44856 -1.94818 -2.44856 1.94818 0.24892 21
$PAD
Sh "1" R 0.59944 1.5494 0 0 1800
Dr 0 0 0
At SMD N 00888000
Ne 3 "N-0000026"
Po -1.90246 2.69748
$EndPAD
$PAD
Sh "2" R 0.59944 1.5494 0 0 1800
Dr 0 0 0
At SMD N 00888000
Ne 2 "N-0000025"
Po -0.63246 2.69748
$EndPAD
$PAD
Sh "3" R 0.59944 1.5494 0 0 1800
Dr 0 0 0
At SMD N 00888000
Ne 4 "RTCINT"
Po 0.63246 2.69748
$EndPAD
$PAD
Sh "4" R 0.59944 1.5494 0 0 1800
Dr 0 0 0
At SMD N 00888000
Ne 1 "GND"
Po 1.90246 2.69748
$EndPAD
$PAD
Sh "5" R 0.59944 1.5494 0 0 0
Dr 0 0 0
At SMD N 00888000
Ne 6 "SDA"
Po 1.90246 -2.69748
$EndPAD
$PAD
Sh "6" R 0.59944 1.5494 0 0 0
Dr 0 0 0
At SMD N 00888000
Ne 5 "SCL"
Po 0.63246 -2.69748
$EndPAD
$PAD
Sh "7" R 0.59944 1.5494 0 0 0
Dr 0 0 0
At SMD N 00888000
Ne 0 ""
Po -0.63246 -2.69748
$EndPAD
$PAD
Sh "8" R 0.59944 1.5494 0 0 0
Dr 0 0 0
At SMD N 00888000
Ne 7 "VCC"
Po -1.90246 -2.69748
$EndPAD
$EndMODULE SOIC8
$MODULE WL-SFTW-SMD
<<<<<<< HEAD
Po 0 0 0 15 5417FD25 00000000 ~~
=======
Po 0 0 0 15 53C907F3 00000000 ~~
>>>>>>> 4219f49ae3dd212d86406a6fcca0a88782fa2571
Li WL-SFTW-SMD
Sc 0
AR /53C39C9E
Op 0 0 0
<<<<<<< HEAD
T0 0 -2.54 1 1 0 0.15 N V 21 N "L1"
T1 0.35 2.5 1 1 0 0.15 N V 21 N "RGB_LED"
DS -2.032 -1.524 -1.778 -1.778 0.15 21
DS -1.778 -1.778 2.032 -1.778 0.15 21
DS 2.032 -1.778 2.032 -1.524 0.15 21
DS -2.032 1.524 -2.032 1.778 0.15 21
DS -2.032 1.778 2.032 1.778 0.15 21
DS 2.032 1.778 2.032 1.524 0.15 21
=======
T0 0 -2.54 1 1 0 0.15 N V 21 N "L"
T1 0.254 2.794 1 1 0 0.15 N V 21 N "VAL**"
DC -2.54 -2.159 -2.286 -2.159 0.15 21
DS -2.032 1.524 -2.032 1.778 0.15 21
DS -2.032 1.778 2.032 1.778 0.15 21
DS 2.032 1.778 2.032 1.524 0.15 21
DS -2.032 -1.524 -2.032 -1.778 0.15 21
DS -2.032 -1.778 2.032 -1.778 0.15 21
DS 2.032 -1.778 2.032 -1.524 0.15 21
>>>>>>> 4219f49ae3dd212d86406a6fcca0a88782fa2571
$PAD
Sh "1" R 1.5 0.9 0 0 0
Dr 0 0 0
At SMD N 00888000
Ne 4 "VCC"
Po 1.55 -0.85
$EndPAD
$PAD
Sh "2" R 1.5 0.9 0 0 0
Dr 0 0 0
At SMD N 00888000
Ne 1 "N-0000027"
Po 1.55 0.85
$EndPAD
$PAD
Sh "3" R 1.5 0.9 0 0 0
Dr 0 0 0
At SMD N 00888000
Ne 3 "N-0000029"
Po -1.55 -0.85
$EndPAD
$PAD
Sh "4" R 1.5 0.9 0 0 0
Dr 0 0 0
At SMD N 00888000
Ne 2 "N-0000028"
Po -1.55 0.85
$EndPAD
$EndMODULE WL-SFTW-SMD
$EndLIBRARY
