EESchema Schematic File Version 2
LIBS:power
LIBS:device
LIBS:transistors
LIBS:conn
LIBS:linear
LIBS:regul
LIBS:74xx
LIBS:cmos4000
LIBS:adc-dac
LIBS:memory
LIBS:xilinx
LIBS:special
LIBS:microcontrollers
LIBS:dsp
LIBS:microchip
LIBS:analog_switches
LIBS:motorola
LIBS:texas
LIBS:intel
LIBS:audio
LIBS:interface
LIBS:digital-audio
LIBS:philips
LIBS:display
LIBS:cypress
LIBS:siliconi
LIBS:opto
LIBS:atmel
LIBS:contrib
LIBS:valves
LIBS:acue
LIBS:JST-SH
LIBS:open-project
LIBS:final-cache
EELAYER 25 0
EELAYER END
$Descr A4 11693 8268
encoding utf-8
Sheet 1 2
Title ""
Date "10 nov 2014"
Rev ""
Comp ""
Comment1 ""
Comment2 ""
Comment3 ""
Comment4 ""
$EndDescr
$Comp
L R R1
U 1 1 53C399B8
P 7950 1650
F 0 "R1" V 8030 1650 40  0000 C CNN
F 1 "1K" V 7957 1651 40  0000 C CNN
F 2 "Resistors_SMD:R_0603_HandSoldering" V 7880 1650 30  0000 C CNN
F 3 "~" H 7950 1650 30  0000 C CNN
	1    7950 1650
	1    0    0    -1  
$EndComp
$Comp
L R R2
U 1 1 53C399C7
P 8300 1300
F 0 "R2" V 8380 1300 40  0000 C CNN
F 1 "1K" V 8307 1301 40  0000 C CNN
F 2 "Resistors_SMD:R_0603_HandSoldering" V 8230 1300 30  0000 C CNN
F 3 "~" H 8300 1300 30  0000 C CNN
	1    8300 1300
	0    -1   -1   0   
$EndComp
$Comp
L GND #PWR01
U 1 1 53C399D6
P 7950 2050
F 0 "#PWR01" H 7950 2050 30  0001 C CNN
F 1 "GND" H 7950 1980 30  0001 C CNN
F 2 "" H 7950 2050 60  0000 C CNN
F 3 "" H 7950 2050 60  0000 C CNN
	1    7950 2050
	1    0    0    -1  
$EndComp
Text GLabel 8800 1300 2    60   Input ~ 0
VBATT
Text GLabel 8100 1000 2    60   Output ~ 0
ABATT
Text Notes 7950 800  0    79   ~ 0
BATTERY MONITOR
$Comp
L WL_SFTW_RGB_LED_SMD L1
U 1 1 53C39C9E
P 1250 1250
F 0 "L1" H 1250 900 60  0000 C CNN
F 1 "WL_SFTW_RGB_LED_SMD" H 1300 1600 60  0000 C CNN
F 2 "ACUE:WL-SFTW-SMD" H 1500 1250 60  0000 C CNN
F 3 "~" H 1500 1250 60  0000 C CNN
	1    1250 1250
	1    0    0    -1  
$EndComp
$Comp
L VCC #PWR02
U 1 1 53C39CB7
P 700 1100
F 0 "#PWR02" H 700 1200 30  0001 C CNN
F 1 "VCC" H 700 1200 30  0000 C CNN
F 2 "" H 700 1100 60  0000 C CNN
F 3 "" H 700 1100 60  0000 C CNN
	1    700  1100
	1    0    0    -1  
$EndComp
$Comp
L R R3
U 1 1 53C39CCD
P 2000 1050
F 0 "R3" V 2080 1050 40  0000 C CNN
F 1 "R" V 2007 1051 40  0000 C CNN
F 2 "Resistors_SMD:R_0603_HandSoldering" V 1930 1050 30  0000 C CNN
F 3 "~" H 2000 1050 30  0000 C CNN
	1    2000 1050
	0    1    1    0   
$EndComp
$Comp
L R R4
U 1 1 53C39CDA
P 2000 1250
F 0 "R4" V 2080 1250 40  0000 C CNN
F 1 "R" V 2007 1251 40  0000 C CNN
F 2 "Resistors_SMD:R_0603_HandSoldering" V 1930 1250 30  0000 C CNN
F 3 "~" H 2000 1250 30  0000 C CNN
	1    2000 1250
	0    1    1    0   
$EndComp
$Comp
L R R5
U 1 1 53C39CE0
P 2000 1450
F 0 "R5" V 2080 1450 40  0000 C CNN
F 1 "R" V 2007 1451 40  0000 C CNN
F 2 "Resistors_SMD:R_0603_HandSoldering" V 1930 1450 30  0000 C CNN
F 3 "~" H 2000 1450 30  0000 C CNN
	1    2000 1450
	0    1    1    0   
$EndComp
Text Notes 1600 700  0    79   ~ 0
RGB LED
Text GLabel 2350 1050 2    79   Output ~ 0
LEDG
Text GLabel 2350 1250 2    79   Output ~ 0
LEDR
Text GLabel 2350 1450 2    79   Output ~ 0
LEDB
$Comp
L DS1337S+ U3
U 1 1 53C39F2F
P 4250 1350
F 0 "U3" H 4250 950 60  0000 C CNN
F 1 "DS1337S+" H 4250 1700 60  0000 C CNN
F 2 "SMD_Packages:SOIC-8-N" H 4250 1350 60  0001 C CNN
F 3 "" H 4250 1350 60  0000 C CNN
	1    4250 1350
	1    0    0    -1  
$EndComp
$Comp
L CRYSTAL X1
U 1 1 53C39F3E
P 3300 1200
F 0 "X1" H 3300 1350 60  0000 C CNN
F 1 "32.768KHz" H 3300 1050 60  0000 C CNN
F 2 "ACUE:CC4V-T1A" H 3300 1200 60  0000 C CNN
F 3 "~" H 3300 1200 60  0000 C CNN
	1    3300 1200
	0    -1   -1   0   
$EndComp
$Comp
L GND #PWR03
U 1 1 53C39F71
P 3650 1750
F 0 "#PWR03" H 3650 1750 30  0001 C CNN
F 1 "GND" H 3650 1680 30  0001 C CNN
F 2 "" H 3650 1750 60  0000 C CNN
F 3 "" H 3650 1750 60  0000 C CNN
	1    3650 1750
	1    0    0    -1  
$EndComp
$Comp
L VCC #PWR04
U 1 1 53C39FAF
P 4900 950
F 0 "#PWR04" H 4900 1050 30  0001 C CNN
F 1 "VCC" H 4900 1050 30  0000 C CNN
F 2 "" H 4900 950 60  0000 C CNN
F 3 "" H 4900 950 60  0000 C CNN
	1    4900 950 
	1    0    0    -1  
$EndComp
Text GLabel 4900 1450 2    79   Input ~ 0
SCL
Text GLabel 4900 1600 2    79   BiDi ~ 0
SDA
Text Notes 4150 750  0    79   ~ 0
RTC
$Comp
L GND #PWR05
U 1 1 53C3A118
P 1450 3450
F 0 "#PWR05" H 1450 3450 30  0001 C CNN
F 1 "GND" H 1450 3380 30  0001 C CNN
F 2 "" H 1450 3450 60  0000 C CNN
F 3 "" H 1450 3450 60  0000 C CNN
	1    1450 3450
	1    0    0    -1  
$EndComp
Text GLabel 1550 3050 2    79   Output ~ 0
GSR_IN
$Comp
L ADR3530 U1
U 1 1 53C3A31E
P 1500 2500
F 0 "U1" H 1500 2300 60  0000 C CNN
F 1 "ADR3530" H 1500 2800 60  0000 C CNN
F 2 "SMD_Packages:MSOP-8" H 1300 2500 60  0001 C CNN
F 3 "" H 1300 2500 60  0000 C CNN
	1    1500 2500
	1    0    0    -1  
$EndComp
$Comp
L VCC #PWR06
U 1 1 53C3A32D
P 2750 2000
F 0 "#PWR06" H 2750 2100 30  0001 C CNN
F 1 "VCC" H 2750 2100 30  0000 C CNN
F 2 "" H 2750 2000 60  0000 C CNN
F 3 "" H 2750 2000 60  0000 C CNN
	1    2750 2000
	1    0    0    -1  
$EndComp
$Comp
L GND #PWR07
U 1 1 53C3A3CF
P 700 3000
F 0 "#PWR07" H 700 3000 30  0001 C CNN
F 1 "GND" H 700 2930 30  0001 C CNN
F 2 "" H 700 3000 60  0000 C CNN
F 3 "" H 700 3000 60  0000 C CNN
	1    700  3000
	1    0    0    -1  
$EndComp
$Comp
L C C2
U 1 1 53C3A406
P 2550 2600
F 0 "C2" H 2550 2700 40  0000 L CNN
F 1 "0.1uF" H 2556 2515 40  0000 L CNN
F 2 "Capacitors_SMD:C_0603_HandSoldering" H 2588 2450 30  0000 C CNN
F 3 "~" H 2550 2600 60  0000 C CNN
	1    2550 2600
	-1   0    0    1   
$EndComp
$Comp
L C C3
U 1 1 53C3A413
P 2750 2600
F 0 "C3" H 2750 2700 40  0000 L CNN
F 1 "1uF" H 2756 2515 40  0000 L CNN
F 2 "Capacitors_SMD:C_0805" H 2788 2450 30  0000 C CNN
F 3 "~" H 2750 2600 60  0000 C CNN
	1    2750 2600
	-1   0    0    1   
$EndComp
$Comp
L C C1
U 1 1 53C3A43A
P 2350 3300
F 0 "C1" H 2350 3400 40  0000 L CNN
F 1 "0.1uF" H 2356 3215 40  0000 L CNN
F 2 "Capacitors_SMD:C_0603_HandSoldering" H 2388 3150 30  0000 C CNN
F 3 "~" H 2350 3300 60  0000 C CNN
	1    2350 3300
	-1   0    0    1   
$EndComp
$Comp
L GND #PWR08
U 1 1 53C3A45E
P 2550 2950
F 0 "#PWR08" H 2550 2950 30  0001 C CNN
F 1 "GND" H 2550 2880 30  0001 C CNN
F 2 "" H 2550 2950 60  0000 C CNN
F 3 "" H 2550 2950 60  0000 C CNN
	1    2550 2950
	1    0    0    -1  
$EndComp
$Comp
L GND #PWR09
U 1 1 53C3A650
P 2350 3600
F 0 "#PWR09" H 2350 3600 30  0001 C CNN
F 1 "GND" H 2350 3530 30  0001 C CNN
F 2 "" H 2350 3600 60  0000 C CNN
F 3 "" H 2350 3600 60  0000 C CNN
	1    2350 3600
	1    0    0    -1  
$EndComp
Text Label 2500 3100 0    39   ~ 0
VREF3
$Comp
L R R6
U 1 1 53C3A718
P 3000 3100
F 0 "R6" V 3080 3100 40  0000 C CNN
F 1 "10K" V 3007 3101 40  0000 C CNN
F 2 "Resistors_SMD:R_0603_HandSoldering" V 2930 3100 30  0000 C CNN
F 3 "~" H 3000 3100 30  0000 C CNN
	1    3000 3100
	0    -1   -1   0   
$EndComp
$Comp
L R R7
U 1 1 53C3A72C
P 3400 3400
F 0 "R7" V 3480 3400 40  0000 C CNN
F 1 "1K" V 3407 3401 40  0000 C CNN
F 2 "Resistors_SMD:R_0603_HandSoldering" V 3330 3400 30  0000 C CNN
F 3 "~" H 3400 3400 30  0000 C CNN
	1    3400 3400
	1    0    0    -1  
$EndComp
$Comp
L R R8
U 1 1 53C3A743
P 3400 3950
F 0 "R8" V 3480 3950 40  0000 C CNN
F 1 "1K" V 3407 3951 40  0000 C CNN
F 2 "Resistors_SMD:R_0603_HandSoldering" V 3330 3950 30  0000 C CNN
F 3 "~" H 3400 3950 30  0000 C CNN
	1    3400 3950
	1    0    0    -1  
$EndComp
$Comp
L GND #PWR010
U 1 1 53C3A749
P 3400 4300
F 0 "#PWR010" H 3400 4300 30  0001 C CNN
F 1 "GND" H 3400 4230 30  0001 C CNN
F 2 "" H 3400 4300 60  0000 C CNN
F 3 "" H 3400 4300 60  0000 C CNN
	1    3400 4300
	1    0    0    -1  
$EndComp
$Comp
L OPA340NA U2
U 1 1 53C3A966
P 4750 3150
F 0 "U2" H 4900 2900 60  0000 C CNN
F 1 "OPA340NA" H 5050 3300 60  0000 C CNN
F 2 "SMD_Packages:SOT-23-5" H 4750 3150 60  0001 C CNN
F 3 "" H 4750 3150 60  0000 C CNN
	1    4750 3150
	1    0    0    -1  
$EndComp
Text GLabel 4050 3300 0    79   Input ~ 0
GSR_IN
$Comp
L GND #PWR011
U 1 1 53C3AA03
P 4750 3700
F 0 "#PWR011" H 4750 3700 30  0001 C CNN
F 1 "GND" H 4750 3630 30  0001 C CNN
F 2 "" H 4750 3700 60  0000 C CNN
F 3 "" H 4750 3700 60  0000 C CNN
	1    4750 3700
	1    0    0    -1  
$EndComp
Text Notes 3300 2350 0    79   ~ 0
GSR
$Comp
L VCC #PWR012
U 1 1 53C3AADD
P 4750 2700
F 0 "#PWR012" H 4750 2800 30  0001 C CNN
F 1 "VCC" H 4750 2800 30  0000 C CNN
F 2 "" H 4750 2700 60  0000 C CNN
F 3 "" H 4750 2700 60  0000 C CNN
	1    4750 2700
	1    0    0    -1  
$EndComp
$Comp
L R R9
U 1 1 53C3AB21
P 4750 2100
F 0 "R9" V 4830 2100 40  0000 C CNN
F 1 "100K" V 4757 2101 40  0000 C CNN
F 2 "Resistors_SMD:R_0603_HandSoldering" V 4680 2100 30  0000 C CNN
F 3 "~" H 4750 2100 30  0000 C CNN
	1    4750 2100
	0    -1   -1   0   
$EndComp
$Comp
L C C4
U 1 1 53C3AB30
P 4750 2350
F 0 "C4" H 4750 2450 40  0000 L CNN
F 1 "100n" H 4756 2265 40  0000 L CNN
F 2 "Capacitors_SMD:C_0603_HandSoldering" H 4788 2200 30  0000 C CNN
F 3 "~" H 4750 2350 60  0000 C CNN
	1    4750 2350
	0    -1   -1   0   
$EndComp
Text GLabel 5650 3200 2    79   Output ~ 0
AGSR
$Comp
L GND #PWR013
U 1 1 53C62A2F
P 10150 3200
F 0 "#PWR013" H 10150 3200 30  0001 C CNN
F 1 "GND" H 10150 3130 30  0001 C CNN
F 2 "" H 10150 3200 60  0000 C CNN
F 3 "" H 10150 3200 60  0000 C CNN
	1    10150 3200
	0    1    1    0   
$EndComp
Text GLabel 10150 3500 0    47   Output ~ 0
RX
Text GLabel 10150 3600 0    47   Input ~ 0
TX
Text GLabel 10150 3700 0    47   Output ~ 0
DTR
$Comp
L VCC #PWR014
U 1 1 53C62BBA
P 9300 3200
F 0 "#PWR014" H 9300 3300 30  0001 C CNN
F 1 "VCC" H 9300 3300 30  0000 C CNN
F 2 "" H 9300 3200 60  0000 C CNN
F 3 "" H 9300 3200 60  0000 C CNN
	1    9300 3200
	1    0    0    -1  
$EndComp
$Comp
L GND #PWR015
U 1 1 53C62C5D
P 10150 4750
F 0 "#PWR015" H 10150 4750 30  0001 C CNN
F 1 "GND" H 10150 4680 30  0001 C CNN
F 2 "" H 10150 4750 60  0000 C CNN
F 3 "" H 10150 4750 60  0000 C CNN
	1    10150 4750
	1    0    0    -1  
$EndComp
Text GLabel 10150 4400 0    60   Output ~ 0
VBATT
Text GLabel 3450 1650 0    59   Input ~ 0
RTCINT
$Comp
L GND #PWR016
U 1 1 53C65718
P 10150 5350
F 0 "#PWR016" H 10150 5350 30  0001 C CNN
F 1 "GND" H 10150 5280 30  0001 C CNN
F 2 "" H 10150 5350 60  0000 C CNN
F 3 "" H 10150 5350 60  0000 C CNN
	1    10150 5350
	1    0    0    -1  
$EndComp
$Comp
L VCC #PWR017
U 1 1 53C6571E
P 10150 5000
F 0 "#PWR017" H 10150 5100 30  0001 C CNN
F 1 "VCC" H 10150 5100 30  0000 C CNN
F 2 "" H 10150 5000 60  0000 C CNN
F 3 "" H 10150 5000 60  0000 C CNN
	1    10150 5000
	1    0    0    -1  
$EndComp
Text GLabel 10050 5050 0    59   Input ~ 0
HRM
$Comp
L ATMEGA328P-M IC1
U 1 1 54169A1F
P 2700 6000
F 0 "IC1" H 1950 7250 40  0000 L BNN
F 1 "ATMEGA328P-M" H 3100 4600 40  0000 L BNN
F 2 "SMD_Packages:QFN-32-1EP" H 2700 6000 30  0000 C CIN
F 3 "" H 2700 6000 60  0000 C CNN
	1    2700 6000
	1    0    0    -1  
$EndComp
$Comp
L GND #PWR018
U 1 1 54169A2C
P 1550 7500
F 0 "#PWR018" H 1550 7500 30  0001 C CNN
F 1 "GND" H 1550 7430 30  0001 C CNN
F 2 "" H 1550 7500 60  0000 C CNN
F 3 "" H 1550 7500 60  0000 C CNN
	1    1550 7500
	1    0    0    -1  
$EndComp
$Comp
L VCC #PWR019
U 1 1 54169B8B
P 1600 4750
F 0 "#PWR019" H 1600 4850 30  0001 C CNN
F 1 "VCC" H 1600 4850 30  0000 C CNN
F 2 "" H 1600 4750 60  0000 C CNN
F 3 "" H 1600 4750 60  0000 C CNN
	1    1600 4750
	1    0    0    -1  
$EndComp
$Comp
L VCC #PWR020
U 1 1 54169D79
P 1300 4750
F 0 "#PWR020" H 1300 4850 30  0001 C CNN
F 1 "VCC" H 1300 4850 30  0000 C CNN
F 2 "" H 1300 4750 60  0000 C CNN
F 3 "" H 1300 4750 60  0000 C CNN
	1    1300 4750
	1    0    0    -1  
$EndComp
$Comp
L C C6
U 1 1 54169D7F
P 1300 5050
F 0 "C6" H 1300 5150 40  0000 L CNN
F 1 "0.1uF" H 1306 4965 40  0000 L CNN
F 2 "Capacitors_SMD:C_0603_HandSoldering" H 1338 4900 30  0000 C CNN
F 3 "~" H 1300 5050 60  0000 C CNN
	1    1300 5050
	-1   0    0    1   
$EndComp
$Comp
L GND #PWR021
U 1 1 54169D85
P 1300 5350
F 0 "#PWR021" H 1300 5350 30  0001 C CNN
F 1 "GND" H 1300 5280 30  0001 C CNN
F 2 "" H 1300 5350 60  0000 C CNN
F 3 "" H 1300 5350 60  0000 C CNN
	1    1300 5350
	1    0    0    -1  
$EndComp
$Comp
L VCC #PWR022
U 1 1 54169E8A
P 1050 4750
F 0 "#PWR022" H 1050 4850 30  0001 C CNN
F 1 "VCC" H 1050 4850 30  0000 C CNN
F 2 "" H 1050 4750 60  0000 C CNN
F 3 "" H 1050 4750 60  0000 C CNN
	1    1050 4750
	1    0    0    -1  
$EndComp
$Comp
L C C5
U 1 1 54169E90
P 1050 5050
F 0 "C5" H 1050 5150 40  0000 L CNN
F 1 "0.1uF" H 1056 4965 40  0000 L CNN
F 2 "Capacitors_SMD:C_0603_HandSoldering" H 1088 4900 30  0000 C CNN
F 3 "~" H 1050 5050 60  0000 C CNN
	1    1050 5050
	-1   0    0    1   
$EndComp
$Comp
L GND #PWR023
U 1 1 54169E96
P 1050 5350
F 0 "#PWR023" H 1050 5350 30  0001 C CNN
F 1 "GND" H 1050 5280 30  0001 C CNN
F 2 "" H 1050 5350 60  0000 C CNN
F 3 "" H 1050 5350 60  0000 C CNN
	1    1050 5350
	1    0    0    -1  
$EndComp
Text Notes 6150 750  0    79   ~ 0
BATTERY CHG\n
$Comp
L MAX1555 U4
U 1 1 5416A054
P 6550 1150
F 0 "U4" H 6600 950 60  0000 C CNN
F 1 "MAX1555" H 6550 1350 60  0000 C CNN
F 2 "SMD_Packages:SOT-23-5" H 6450 1150 60  0001 C CNN
F 3 "" H 6450 1150 60  0000 C CNN
	1    6550 1150
	1    0    0    -1  
$EndComp
$Comp
L +5V #PWR024
U 1 1 5416A063
P 5700 850
F 0 "#PWR024" H 5700 940 20  0001 C CNN
F 1 "+5V" H 5700 940 30  0000 C CNN
F 2 "" H 5700 850 60  0000 C CNN
F 3 "" H 5700 850 60  0000 C CNN
	1    5700 850 
	1    0    0    -1  
$EndComp
$Comp
L GND #PWR025
U 1 1 5416A0F3
P 5900 1400
F 0 "#PWR025" H 5900 1400 30  0001 C CNN
F 1 "GND" H 5900 1330 30  0001 C CNN
F 2 "" H 5900 1400 60  0000 C CNN
F 3 "" H 5900 1400 60  0000 C CNN
	1    5900 1400
	1    0    0    -1  
$EndComp
$Comp
L C C11
U 1 1 5416A180
P 7250 1300
F 0 "C11" H 7250 1400 40  0000 L CNN
F 1 "1uF" H 7256 1215 40  0000 L CNN
F 2 "Capacitors_SMD:C_0805" H 7288 1150 30  0000 C CNN
F 3 "~" H 7250 1300 60  0000 C CNN
	1    7250 1300
	1    0    0    -1  
$EndComp
Text GLabel 7450 1050 2    60   Output ~ 0
VBATT
$Comp
L GND #PWR026
U 1 1 5416A29D
P 7250 1600
F 0 "#PWR026" H 7250 1600 30  0001 C CNN
F 1 "GND" H 7250 1530 30  0001 C CNN
F 2 "" H 7250 1600 60  0000 C CNN
F 3 "" H 7250 1600 60  0000 C CNN
	1    7250 1600
	1    0    0    -1  
$EndComp
$Comp
L C C10
U 1 1 5416A348
P 5700 1350
F 0 "C10" H 5700 1450 40  0000 L CNN
F 1 "1uF" H 5706 1265 40  0000 L CNN
F 2 "Capacitors_SMD:C_0805" H 5738 1200 30  0000 C CNN
F 3 "~" H 5700 1350 60  0000 C CNN
	1    5700 1350
	1    0    0    -1  
$EndComp
$Comp
L GND #PWR027
U 1 1 5416A487
P 5700 1650
F 0 "#PWR027" H 5700 1650 30  0001 C CNN
F 1 "GND" H 5700 1580 30  0001 C CNN
F 2 "" H 5700 1650 60  0000 C CNN
F 3 "" H 5700 1650 60  0000 C CNN
	1    5700 1650
	1    0    0    -1  
$EndComp
Text Notes 2750 1300 0    60   ~ 0
D5
Text Notes 2750 1100 0    60   ~ 0
D6
Text Notes 2750 1500 0    60   ~ 0
D9
Text Notes 8450 1050 0    60   ~ 0
A0
Text Notes 9650 5100 0    60   ~ 0
A1
Text Notes 6050 3250 0    60   ~ 0
A2
Text GLabel 4300 6250 2    39   Output ~ 0
SCL
Text GLabel 4300 6150 2    39   BiDi ~ 0
SDA
$Comp
L R R11
U 1 1 5416A7F9
P 6000 1600
F 0 "R11" V 6080 1600 40  0000 C CNN
F 1 "1K" V 6007 1601 40  0000 C CNN
F 2 "Resistors_SMD:R_0603_HandSoldering" V 5930 1600 30  0000 C CNN
F 3 "~" H 6000 1600 30  0000 C CNN
	1    6000 1600
	1    0    0    -1  
$EndComp
$Comp
L LED D1
U 1 1 5416A8B6
P 6300 1850
F 0 "D1" H 6300 1950 50  0000 C CNN
F 1 "LED_CHG" H 6300 1750 50  0000 C CNN
F 2 "LEDs:LED-0603" H 6300 1850 60  0000 C CNN
F 3 "~" H 6300 1850 60  0000 C CNN
	1    6300 1850
	-1   0    0    1   
$EndComp
Text GLabel 6650 1850 2    60   Input ~ 0
VBATT
Text Notes 2600 4650 0    79   ~ 0
MCU
Text GLabel 4300 5750 2    39   Input ~ 0
ABATT
Text GLabel 4300 5850 2    39   Input ~ 0
HRM
Text GLabel 4300 5950 2    39   Input ~ 0
AGSR
Text GLabel 10000 1750 0    39   Input ~ 0
TX
Text GLabel 10000 1650 0    39   Output ~ 0
RX
$Comp
L GND #PWR028
U 1 1 5416C4A9
P 10050 2150
F 0 "#PWR028" H 10050 2150 30  0001 C CNN
F 1 "GND" H 10050 2080 30  0001 C CNN
F 2 "" H 10050 2150 60  0000 C CNN
F 3 "" H 10050 2150 60  0000 C CNN
	1    10050 2150
	1    0    0    -1  
$EndComp
$Comp
L VCC #PWR029
U 1 1 5416C4AF
P 10050 1550
F 0 "#PWR029" H 10050 1650 30  0001 C CNN
F 1 "VCC" H 10050 1650 30  0000 C CNN
F 2 "" H 10050 1550 60  0000 C CNN
F 3 "" H 10050 1550 60  0000 C CNN
	1    10050 1550
	1    0    0    -1  
$EndComp
Wire Wire Line
	8800 1300 8550 1300
Wire Wire Line
	7950 1900 7950 2050
Wire Wire Line
	7950 1000 7950 1400
Wire Wire Line
	7950 1300 8050 1300
Wire Wire Line
	7950 1000 8100 1000
Connection ~ 7950 1300
Wire Wire Line
	700  1100 700  1250
Wire Wire Line
	1650 1050 1750 1050
Wire Wire Line
	1650 1250 1750 1250
Wire Wire Line
	1650 1450 1750 1450
Wire Wire Line
	2250 1050 2350 1050
Wire Wire Line
	2250 1250 2350 1250
Wire Wire Line
	2250 1450 2350 1450
Wire Wire Line
	3300 900  3550 900 
Wire Wire Line
	3550 900  3550 1150
Wire Wire Line
	3550 1150 3700 1150
Wire Wire Line
	3300 1500 3550 1500
Wire Wire Line
	3550 1500 3550 1300
Wire Wire Line
	3550 1300 3700 1300
Wire Wire Line
	3700 1600 3650 1600
Wire Wire Line
	3650 1600 3650 1750
Wire Wire Line
	4800 1150 4900 1150
Wire Wire Line
	4900 1150 4900 950 
Wire Wire Line
	4900 1450 4800 1450
Wire Wire Line
	4900 1600 4800 1600
Wire Wire Line
	1350 3150 1450 3150
Wire Wire Line
	1450 3150 1450 3450
Wire Wire Line
	1350 3050 1550 3050
Wire Wire Line
	2750 2000 2750 2400
Wire Wire Line
	2250 2300 2750 2300
Wire Wire Line
	800  2300 700  2300
Wire Wire Line
	700  2300 700  2100
Wire Wire Line
	700  2100 2750 2100
Wire Wire Line
	800  2400 700  2400
Wire Wire Line
	700  2400 700  3000
Wire Wire Line
	800  2500 700  2500
Connection ~ 700  2500
Connection ~ 2750 2100
Connection ~ 2750 2300
Wire Wire Line
	2550 2400 2550 2300
Connection ~ 2550 2300
Wire Wire Line
	2550 2800 2550 2950
Wire Wire Line
	2750 2800 2750 2850
Wire Wire Line
	2750 2850 2550 2850
Connection ~ 2550 2850
Wire Wire Line
	2250 2500 2350 2500
Wire Wire Line
	2250 2400 2350 2400
Connection ~ 2350 2500
Wire Wire Line
	2350 2400 2350 3100
Wire Wire Line
	2350 3100 2750 3100
Wire Wire Line
	2350 3500 2350 3600
Wire Wire Line
	3400 4200 3400 4300
Wire Wire Line
	3400 3650 3400 3700
Wire Wire Line
	3250 3100 4400 3100
Wire Wire Line
	3400 3150 3400 3100
Connection ~ 3400 3100
Wire Wire Line
	4050 3300 4400 3300
Wire Wire Line
	4750 3550 4750 3700
Wire Wire Line
	4750 2850 4750 2700
Wire Wire Line
	5150 3200 5650 3200
Wire Wire Line
	5450 2100 5450 3200
Wire Wire Line
	5450 2100 5000 2100
Connection ~ 5450 3200
Wire Wire Line
	4500 2100 4200 2100
Wire Wire Line
	4200 2100 4200 3300
Connection ~ 4200 3300
Wire Wire Line
	4950 2350 5450 2350
Connection ~ 5450 2350
Wire Wire Line
	4550 2350 4200 2350
Connection ~ 4200 2350
Wire Wire Line
	10250 3200 10150 3200
Wire Wire Line
	10150 3500 10250 3500
Wire Wire Line
	10150 3600 10250 3600
Wire Wire Line
	10150 3700 10250 3700
Wire Wire Line
	10150 3400 10250 3400
Wire Wire Line
	10250 4500 10150 4500
Wire Wire Line
	10150 4500 10150 4750
Wire Wire Line
	10150 4400 10250 4400
Wire Wire Line
	3450 1650 3600 1650
Wire Wire Line
	3600 1650 3600 1450
Wire Wire Line
	3600 1450 3700 1450
Wire Wire Line
	10250 5150 10150 5150
Wire Wire Line
	10150 5150 10150 5000
Wire Wire Line
	10250 5250 10150 5250
Wire Wire Line
	10150 5250 10150 5350
Wire Wire Line
	10050 5050 10250 5050
Wire Wire Line
	1800 7000 1550 7000
Wire Wire Line
	1550 6900 1550 7500
Wire Wire Line
	1800 7100 1550 7100
Connection ~ 1550 7100
Wire Wire Line
	1800 7200 1550 7200
Connection ~ 1550 7200
Wire Wire Line
	1600 4750 1600 5500
Wire Wire Line
	1600 5500 1800 5500
Wire Wire Line
	1800 5200 1600 5200
Connection ~ 1600 5200
Wire Wire Line
	1800 5000 1600 5000
Connection ~ 1600 5000
Wire Wire Line
	1800 4900 1600 4900
Connection ~ 1600 4900
Wire Wire Line
	1300 4750 1300 4850
Wire Wire Line
	1300 5250 1300 5350
Wire Wire Line
	1050 4750 1050 4850
Wire Wire Line
	1050 5250 1050 5350
Wire Wire Line
	5700 1050 6000 1050
Wire Wire Line
	6000 1150 5900 1150
Wire Wire Line
	5900 1150 5900 1400
Wire Wire Line
	7050 1050 7450 1050
Wire Wire Line
	7250 1100 7250 1050
Connection ~ 7250 1050
Wire Wire Line
	7250 1500 7250 1600
Wire Wire Line
	5700 850  5700 1150
Connection ~ 5700 1050
Wire Wire Line
	5700 1550 5700 1650
Wire Wire Line
	700  1250 800  1250
Wire Wire Line
	3700 6250 4300 6250
Wire Wire Line
	3700 6150 4300 6150
Wire Wire Line
	6000 1250 6000 1350
Wire Wire Line
	6650 1850 6500 1850
Wire Wire Line
	6100 1850 6000 1850
Wire Wire Line
	4300 5750 3700 5750
Wire Wire Line
	4300 5850 3700 5850
Wire Wire Line
	4300 5950 3700 5950
Text GLabel 4300 6700 2    39   Input ~ 0
IMUINT
Wire Wire Line
	3700 6700 4300 6700
Text GLabel 4300 6800 2    39   Input ~ 0
RTCINT
Wire Wire Line
	3700 6800 4300 6800
$Comp
L ADP124ARHZ-3.3 U5
U 1 1 543D04EE
P 8400 2700
F 0 "U5" H 8350 2500 60  0000 C CNN
F 1 "ADP124ARHZ-3.3" H 8350 3000 60  0000 C CNN
F 2 "SMD_Packages:MSOP-8" H 8250 2700 60  0001 C CNN
F 3 "" H 8250 2700 60  0000 C CNN
	1    8400 2700
	1    0    0    -1  
$EndComp
Text Notes 8150 2250 0    79   ~ 0
POWER
$Comp
L VCC #PWR030
U 1 1 543D0512
P 7450 2300
F 0 "#PWR030" H 7450 2400 30  0001 C CNN
F 1 "VCC" H 7450 2400 30  0000 C CNN
F 2 "" H 7450 2300 60  0000 C CNN
F 3 "" H 7450 2300 60  0000 C CNN
	1    7450 2300
	1    0    0    -1  
$EndComp
Text GLabel 9650 2550 2    60   Input ~ 0
VBATT
Wire Wire Line
	8950 2600 9100 2600
Wire Wire Line
	9100 2500 9100 2650
Wire Wire Line
	7700 2500 7450 2500
Wire Wire Line
	7450 2300 7450 2650
Wire Wire Line
	7450 2600 7700 2600
Connection ~ 7450 2500
Wire Wire Line
	7700 2700 7550 2700
Wire Wire Line
	7550 2700 7550 2600
Connection ~ 7550 2600
$Comp
L GND #PWR031
U 1 1 543D07FB
P 7450 3150
F 0 "#PWR031" H 7450 3150 30  0001 C CNN
F 1 "GND" H 7450 3080 30  0001 C CNN
F 2 "" H 7450 3150 60  0000 C CNN
F 3 "" H 7450 3150 60  0000 C CNN
	1    7450 3150
	1    0    0    -1  
$EndComp
$Comp
L C C12
U 1 1 543D0801
P 7450 2850
F 0 "C12" H 7450 2950 40  0000 L CNN
F 1 "1uF" H 7456 2765 40  0000 L CNN
F 2 "Capacitors_SMD:C_0805" H 7488 2700 30  0000 C CNN
F 3 "~" H 7450 2850 60  0000 C CNN
	1    7450 2850
	1    0    0    -1  
$EndComp
Connection ~ 7450 2600
Wire Wire Line
	7450 3050 7450 3150
Wire Wire Line
	7700 2800 7700 3100
Wire Wire Line
	7700 3100 7450 3100
Connection ~ 7450 3100
$Comp
L C C13
U 1 1 543D09ED
P 9100 2850
F 0 "C13" H 9100 2950 40  0000 L CNN
F 1 "1uF" H 9106 2765 40  0000 L CNN
F 2 "Capacitors_SMD:C_0805" H 9138 2700 30  0000 C CNN
F 3 "~" H 9100 2850 60  0000 C CNN
	1    9100 2850
	1    0    0    -1  
$EndComp
$Comp
L GND #PWR032
U 1 1 543D09F3
P 9100 3150
F 0 "#PWR032" H 9100 3150 30  0001 C CNN
F 1 "GND" H 9100 3080 30  0001 C CNN
F 2 "" H 9100 3150 60  0000 C CNN
F 3 "" H 9100 3150 60  0000 C CNN
	1    9100 3150
	1    0    0    -1  
$EndComp
Wire Wire Line
	9100 3150 9100 3050
Connection ~ 9100 2600
Wire Wire Line
	8950 2800 9000 2800
Wire Wire Line
	9000 2800 9000 2600
Connection ~ 9000 2600
Text GLabel 10000 3150 1    60   Output ~ 0
SER_VCC
Wire Wire Line
	10000 3300 10000 3150
Connection ~ 10000 3300
Text Notes 8100 3350 0    79   ~ 0
SERIAL DETECT
$Comp
L BSS138 Q1
U 1 1 543E24B3
P 8950 3900
F 0 "Q1" H 8950 3751 40  0000 R CNN
F 1 "BSS138" H 8950 4050 40  0000 R CNN
F 2 "SMD_Packages:SOT-23" H 8820 4002 29  0000 C CNN
F 3 "" H 8950 3900 60  0000 C CNN
	1    8950 3900
	1    0    0    -1  
$EndComp
$Comp
L R R12
U 1 1 543E24C2
P 8400 3950
F 0 "R12" V 8480 3950 40  0000 C CNN
F 1 "2K2" V 8407 3951 40  0000 C CNN
F 2 "Resistors_SMD:R_0603_HandSoldering" V 8330 3950 30  0000 C CNN
F 3 "~" H 8400 3950 30  0000 C CNN
	1    8400 3950
	0    -1   -1   0   
$EndComp
$Comp
L R R13
U 1 1 543E24CF
P 8700 4250
F 0 "R13" V 8780 4250 40  0000 C CNN
F 1 "10K" V 8707 4251 40  0000 C CNN
F 2 "Resistors_SMD:R_0603_HandSoldering" V 8630 4250 30  0000 C CNN
F 3 "~" H 8700 4250 30  0000 C CNN
	1    8700 4250
	-1   0    0    1   
$EndComp
$Comp
L GND #PWR033
U 1 1 543E24D5
P 9050 4600
F 0 "#PWR033" H 9050 4600 30  0001 C CNN
F 1 "GND" H 9050 4530 30  0001 C CNN
F 2 "" H 9050 4600 60  0000 C CNN
F 3 "" H 9050 4600 60  0000 C CNN
	1    9050 4600
	1    0    0    -1  
$EndComp
$Comp
L GND #PWR034
U 1 1 543E24DB
P 8700 4600
F 0 "#PWR034" H 8700 4600 30  0001 C CNN
F 1 "GND" H 8700 4530 30  0001 C CNN
F 2 "" H 8700 4600 60  0000 C CNN
F 3 "" H 8700 4600 60  0000 C CNN
	1    8700 4600
	1    0    0    -1  
$EndComp
Wire Wire Line
	8650 3950 8750 3950
Wire Wire Line
	8700 4000 8700 3950
Connection ~ 8700 3950
Wire Wire Line
	9050 4100 9050 4600
Wire Wire Line
	8700 4500 8700 4600
Text GLabel 8000 3950 0    60   Input ~ 0
SER_VCC
Wire Wire Line
	8000 3950 8150 3950
Text GLabel 8950 3550 0    60   Input ~ 0
BT_RESET
Wire Wire Line
	8950 3550 9050 3550
Wire Wire Line
	9050 3550 9050 3700
Text GLabel 10000 1850 0    39   Input ~ 0
BT_RESET
Wire Wire Line
	10000 1850 10150 1850
$Comp
L HC-06 BT1
U 1 1 543E3B9E
P 10500 1950
F 0 "BT1" H 10550 1750 60  0000 C CNN
F 1 "HC-06" H 10600 2350 60  0000 C CNN
F 2 "ACUE:HC-06" H 10500 1950 60  0001 C CNN
F 3 "" H 10500 1950 60  0000 C CNN
	1    10500 1950
	1    0    0    -1  
$EndComp
Wire Wire Line
	10050 1550 10050 1950
Wire Wire Line
	10050 1950 10150 1950
Wire Wire Line
	10150 2050 10050 2050
Wire Wire Line
	10050 2050 10050 2150
$Comp
L CRYSTAL X2
U 1 1 5440F1FA
P 4500 5300
F 0 "X2" H 4500 5450 60  0000 C CNN
F 1 "8MHz" H 4500 5150 60  0000 C CNN
F 2 "ACUE:ABM3-XTAL" H 4500 5300 60  0001 C CNN
F 3 "~" H 4500 5300 60  0000 C CNN
	1    4500 5300
	0    -1   -1   0   
$EndComp
Wire Wire Line
	4250 5500 3700 5500
Wire Wire Line
	4250 5000 4250 5500
Wire Wire Line
	4250 5000 4700 5000
Wire Wire Line
	3700 5600 4700 5600
$Comp
L C C7
U 1 1 5440F386
P 4900 5000
F 0 "C7" H 4900 5100 40  0000 L CNN
F 1 "18pF" H 4906 4915 40  0000 L CNN
F 2 "Capacitors_SMD:C_0603_HandSoldering" H 4938 4850 30  0000 C CNN
F 3 "~" H 4900 5000 60  0000 C CNN
	1    4900 5000
	0    -1   -1   0   
$EndComp
$Comp
L C C8
U 1 1 5440F398
P 4900 5600
F 0 "C8" H 4900 5700 40  0000 L CNN
F 1 "18pF" H 4906 5515 40  0000 L CNN
F 2 "Capacitors_SMD:C_0603_HandSoldering" H 4938 5450 30  0000 C CNN
F 3 "~" H 4900 5600 60  0000 C CNN
	1    4900 5600
	0    -1   -1   0   
$EndComp
$Comp
L GND #PWR035
U 1 1 5440F39E
P 5250 5000
F 0 "#PWR035" H 5250 5000 30  0001 C CNN
F 1 "GND" H 5250 4930 30  0001 C CNN
F 2 "" H 5250 5000 60  0000 C CNN
F 3 "" H 5250 5000 60  0000 C CNN
	1    5250 5000
	0    -1   -1   0   
$EndComp
$Comp
L GND #PWR036
U 1 1 5440F3A4
P 5250 5600
F 0 "#PWR036" H 5250 5600 30  0001 C CNN
F 1 "GND" H 5250 5530 30  0001 C CNN
F 2 "" H 5250 5600 60  0000 C CNN
F 3 "" H 5250 5600 60  0000 C CNN
	1    5250 5600
	0    -1   -1   0   
$EndComp
Wire Wire Line
	5250 5600 5100 5600
Connection ~ 4500 5600
Connection ~ 4500 5000
Wire Wire Line
	5100 5000 5250 5000
Text GLabel 3800 5200 2    47   Output ~ 0
MOSI
Text GLabel 3800 5300 2    47   Input ~ 0
MISO
Text GLabel 3800 5400 2    47   Output ~ 0
SCK
Wire Wire Line
	3700 5400 3800 5400
Wire Wire Line
	3700 5300 3800 5300
Wire Wire Line
	3700 5200 3800 5200
Text GLabel 5700 6350 2    47   Input ~ 0
RESET
Wire Wire Line
	3700 6350 5700 6350
Wire Wire Line
	10000 1650 10150 1650
Wire Wire Line
	10000 1750 10150 1750
Text GLabel 10100 5750 0    47   Output ~ 0
RESET
$Comp
L VCC #PWR037
U 1 1 5440FBCC
P 10150 5600
F 0 "#PWR037" H 10150 5700 30  0001 C CNN
F 1 "VCC" H 10150 5700 30  0000 C CNN
F 2 "" H 10150 5600 60  0000 C CNN
F 3 "" H 10150 5600 60  0000 C CNN
	1    10150 5600
	1    0    0    -1  
$EndComp
$Comp
L GND #PWR038
U 1 1 5440FBD2
P 10150 6350
F 0 "#PWR038" H 10150 6350 30  0001 C CNN
F 1 "GND" H 10150 6280 30  0001 C CNN
F 2 "" H 10150 6350 60  0000 C CNN
F 3 "" H 10150 6350 60  0000 C CNN
	1    10150 6350
	1    0    0    -1  
$EndComp
Wire Wire Line
	10100 5750 10250 5750
Wire Wire Line
	10150 5600 10150 5850
Wire Wire Line
	10150 5850 10250 5850
Wire Wire Line
	10150 6350 10150 5950
Wire Wire Line
	10150 5950 10250 5950
Text GLabel 10100 6050 0    47   Output ~ 0
SCK
Text GLabel 10100 6150 0    47   Input ~ 0
MISO
Text GLabel 10100 6250 0    47   Output ~ 0
MOSI
Wire Wire Line
	10100 6050 10250 6050
Wire Wire Line
	10100 6150 10250 6150
Wire Wire Line
	10100 6250 10250 6250
$Sheet
S 7700 5500 1550 900 
U 5444C772
F0 "HRM" 50
F1 "hrm.sch" 50
$EndSheet
Text Notes 8350 5450 0    79   ~ 0
HRM\n
$Comp
L R R10
U 1 1 5444CB85
P 5050 6050
F 0 "R10" V 5130 6050 40  0000 C CNN
F 1 "10K" V 5057 6051 40  0000 C CNN
F 2 "Resistors_SMD:R_0603_HandSoldering" V 4980 6050 30  0000 C CNN
F 3 "~" H 5050 6050 30  0000 C CNN
	1    5050 6050
	-1   0    0    1   
$EndComp
Wire Wire Line
	5050 6300 5050 6450
Connection ~ 5050 6350
$Comp
L VCC #PWR039
U 1 1 5444CC6D
P 5050 5750
F 0 "#PWR039" H 5050 5850 30  0001 C CNN
F 1 "VCC" H 5050 5850 30  0000 C CNN
F 2 "" H 5050 5750 60  0000 C CNN
F 3 "" H 5050 5750 60  0000 C CNN
	1    5050 5750
	1    0    0    -1  
$EndComp
Wire Wire Line
	5050 5750 5050 5800
$Comp
L C C9
U 1 1 5444CDFF
P 5050 6650
F 0 "C9" H 5050 6750 40  0000 L CNN
F 1 "0.1uF" H 5056 6565 40  0000 L CNN
F 2 "Capacitors_SMD:C_0603_HandSoldering" H 5088 6500 30  0000 C CNN
F 3 "~" H 5050 6650 60  0000 C CNN
	1    5050 6650
	-1   0    0    1   
$EndComp
$Comp
L GND #PWR040
U 1 1 5444CECA
P 5050 6950
F 0 "#PWR040" H 5050 6950 30  0001 C CNN
F 1 "GND" H 5050 6880 30  0001 C CNN
F 2 "" H 5050 6950 60  0000 C CNN
F 3 "" H 5050 6950 60  0000 C CNN
	1    5050 6950
	1    0    0    -1  
$EndComp
Wire Wire Line
	5050 6850 5050 6950
$Comp
L BAT54 D2
U 1 1 543E2285
P 9600 3300
F 0 "D2" H 9600 3400 40  0000 C CNN
F 1 "BAT54LT1G" H 9600 3200 40  0000 C CNN
F 2 "Diodes_SMD:Diode_SOT23" H 9600 3300 60  0001 C CNN
F 3 "~" H 9600 3300 60  0000 C CNN
	1    9600 3300
	-1   0    0    1   
$EndComp
Wire Wire Line
	9300 3200 9300 3300
$Comp
L JST_SH_02 J3
U 1 1 54633652
P 10600 4450
F 0 "J3" V 10600 4450 60  0000 C CNN
F 1 "BATT" V 10800 4450 60  0000 C CNN
F 2 "JST-SH:JST-SM-02B-SRSS-TB" H 10600 4450 60  0001 C CNN
F 3 "" H 10600 4450 60  0000 C CNN
	1    10600 4450
	1    0    0    -1  
$EndComp
$Comp
L JST_SH_06 J2
U 1 1 546339B1
P 10600 3450
F 0 "J2" V 10550 3450 60  0000 C CNN
F 1 "SERIAL" V 10650 3450 60  0000 C CNN
F 2 "JST-SH:JST-SM-06B-SRSS-TB" H 10600 3450 60  0001 C CNN
F 3 "" H 10600 3450 60  0000 C CNN
	1    10600 3450
	1    0    0    -1  
$EndComp
$Comp
L JST_SH_06 J5
U 1 1 54633B79
P 10600 6000
F 0 "J5" V 10550 6000 60  0000 C CNN
F 1 "ISP" V 10650 6000 60  0000 C CNN
F 2 "JST-SH:JST-SM-06B-SRSS-TB" H 10600 6000 60  0001 C CNN
F 3 "" H 10600 6000 60  0000 C CNN
	1    10600 6000
	1    0    0    -1  
$EndComp
$Comp
L JST_SH_03 J4
U 1 1 54634524
P 10600 5150
F 0 "J4" V 10600 5150 60  0000 C CNN
F 1 "HRM" V 10800 5150 60  0000 C CNN
F 2 "JST-SH:JST-SM-03B-SRSS-TB" H 10600 5150 60  0001 C CNN
F 3 "" H 10600 5150 60  0000 C CNN
	1    10600 5150
	1    0    0    -1  
$EndComp
$Comp
L JST_SH_02 J6
U 1 1 54633A02
P 1000 3100
F 0 "J6" V 1000 3100 60  0000 C CNN
F 1 "GSR" V 1200 3100 60  0000 C CNN
F 2 "JST-SH:JST-SM-02B-SRSS-TB" H 1000 3100 60  0001 C CNN
F 3 "" H 1000 3100 60  0000 C CNN
	1    1000 3100
	-1   0    0    -1  
$EndComp
Text GLabel 4300 7000 2    39   Output ~ 0
LEDR
Text GLabel 4300 7100 2    39   Output ~ 0
LEDG
Text GLabel 3800 5000 2    39   Output ~ 0
LEDB
Wire Wire Line
	3800 5000 3700 5000
Wire Wire Line
	4300 7000 3700 7000
Wire Wire Line
	4300 7100 3700 7100
$Comp
L C C19
U 1 1 5463C5AD
P 5550 6100
F 0 "C19" H 5550 6200 40  0000 L CNN
F 1 "0.1uF" H 5556 6015 40  0000 L CNN
F 2 "Capacitors_SMD:C_0603_HandSoldering" H 5588 5950 30  0000 C CNN
F 3 "~" H 5550 6100 60  0000 C CNN
	1    5550 6100
	-1   0    0    1   
$EndComp
Wire Wire Line
	5550 6300 5550 6350
Connection ~ 5550 6350
Text GLabel 5850 5750 2    47   Input ~ 0
DTR
Wire Wire Line
	5850 5750 5550 5750
Wire Wire Line
	5550 5750 5550 5900
Text GLabel 4300 6500 2    39   Input ~ 0
RX
Text GLabel 4300 6600 2    39   Output ~ 0
TX
Wire Wire Line
	4300 6500 3700 6500
Wire Wire Line
	4300 6600 3700 6600
$Comp
L MICRO-B_USB U8
U 1 1 5471C5A8
P 10500 1000
F 0 "U8" H 10500 700 50  0000 C CNN
F 1 "MICRO-B_USB" H 10500 1300 50  0000 C CNN
F 2 "pc-conn:conn_usb_B_micro_smd" H 10500 1000 60  0001 C CNN
F 3 "" H 10500 1000 60  0000 C CNN
	1    10500 1000
	-1   0    0    -1  
$EndComp
$Comp
L GND #PWR041
U 1 1 5471CD36
P 10150 1300
F 0 "#PWR041" H 10150 1300 30  0001 C CNN
F 1 "GND" H 10150 1230 30  0001 C CNN
F 2 "" H 10150 1300 60  0000 C CNN
F 3 "" H 10150 1300 60  0000 C CNN
	1    10150 1300
	1    0    0    -1  
$EndComp
$Comp
L +5V #PWR042
U 1 1 5471CE27
P 10150 750
F 0 "#PWR042" H 10150 840 20  0001 C CNN
F 1 "+5V" H 10150 840 30  0000 C CNN
F 2 "" H 10150 750 60  0000 C CNN
F 3 "" H 10150 750 60  0000 C CNN
	1    10150 750 
	1    0    0    -1  
$EndComp
Wire Wire Line
	10150 750  10150 800 
Wire Wire Line
	10150 800  10300 800 
Wire Wire Line
	10150 1300 10150 1200
Wire Wire Line
	10150 1200 10300 1200
Wire Wire Line
	1750 6900 1550 6900
Connection ~ 1550 7000
Wire Wire Line
	10150 3400 10150 3300
Wire Wire Line
	10150 3300 10000 3300
Wire Wire Line
	8950 2500 9250 2500
Connection ~ 9100 2500
$Comp
L JS102011SAQN SW1
U 1 1 547EDB95
P 9450 2550
F 0 "SW1" H 9425 2425 60  0000 C CNN
F 1 "JS102011SAQN" H 9450 2725 60  0000 C CNN
F 2 "ACUE:JS102011SAQN" H 9450 2550 60  0001 C CNN
F 3 "" H 9450 2550 60  0000 C CNN
	1    9450 2550
	1    0    0    -1  
$EndComp
Wire Wire Line
	9650 2550 9600 2550
$EndSCHEMATC
