%!PS-Adobe-3.0
%%Creator: PCBNEW
%%CreationDate: Mon Dec  1 11:27:16 2014
%%Title: /home/zako/Documentos/FabLAB/2014/ACUE/hardware/final-B_SilkS.ps
%%Pages: 1
%%PageOrder: Ascend
%%BoundingBox: 0 0 596 842
%%DocumentMedia: A4 595 842 0 () ()
%%Orientation: Landscape
%%EndComments
%%BeginProlog
/line { newpath moveto lineto stroke } bind def
/cir0 { newpath 0 360 arc stroke } bind def
/cir1 { newpath 0 360 arc gsave fill grestore stroke } bind def
/cir2 { newpath 0 360 arc gsave fill grestore stroke } bind def
/arc0 { newpath arc stroke } bind def
/arc1 { newpath 4 index 4 index moveto arc closepath gsave fill
    grestore stroke } bind def
/arc2 { newpath 4 index 4 index moveto arc closepath gsave fill
    grestore stroke } bind def
/poly0 { stroke } bind def
/poly1 { closepath gsave fill grestore stroke } bind def
/poly2 { closepath gsave fill grestore stroke } bind def
/rect0 { rectstroke } bind def
/rect1 { rectfill } bind def
/rect2 { rectfill } bind def
/linemode0 { 0 setlinecap 0 setlinejoin 0 setlinewidth } bind def
/linemode1 { 1 setlinecap 1 setlinejoin } bind def
/dashedline { [200] 100 setdash } bind def
/solidline { [] 0 setdash } bind def
/phantomshow { moveto
    /KicadFont findfont 0.000001 scalefont setfont
    show } bind def
/textshow { gsave
    findfont exch scalefont setfont concat 1 scale 0 0 moveto show
    } bind def
/reencodefont {
  findfont dup length dict begin
  { 1 index /FID ne
    { def }
    { pop pop } ifelse
  } forall
  /Encoding ISOLatin1Encoding def
  currentdict
  end } bind def
/KicadFont /Helvetica reencodefont definefont pop
/KicadFont-Bold /Helvetica-Bold reencodefont definefont pop
/KicadFont-Oblique /Helvetica-Oblique reencodefont definefont pop
/KicadFont-BoldOblique /Helvetica-BoldOblique reencodefont definefont pop
%%EndProlog
%%Page: 1 1
%%BeginPageSetup
gsave
0.0072 0.0072 scale
linemode1
82680 0 translate 90 rotate
39.3701 setlinewidth
%%EndPageSetup
0 0 0 setrgbcolor
0 0 0 setrgbcolor
59.0551 setlinewidth
newpath
74448.5 63306.5 moveto
74448.5 64290.7 lineto
stroke
0 0 0 setrgbcolor
newpath
70314.6 55629.3 moveto
70314.6 56613.5 lineto
stroke
0 0 0 setrgbcolor
newpath
74054.8 54841.9 moveto
74054.8 54251.3 lineto
stroke
0 0 0 setrgbcolor
newpath
74054.8 54251.3 moveto
73661.1 54251.3 lineto
stroke
0 0 0 setrgbcolor
newpath
73661.1 54251.3 moveto
73661.1 54841.9 lineto
stroke
0 0 0 setrgbcolor
newpath
73661.1 54841.9 moveto
73267.4 54841.9 lineto
stroke
0 0 0 setrgbcolor
newpath
73267.4 54841.9 moveto
73267.4 54251.3 lineto
stroke
0 0 0 setrgbcolor
newpath
73267.4 54251.3 moveto
72873.7 54251.3 lineto
stroke
0 0 0 setrgbcolor
newpath
72873.7 54251.3 moveto
72873.7 54841.9 lineto
stroke
0 0 0 setrgbcolor
newpath
72873.7 54841.9 moveto
72480 54841.9 lineto
stroke
0 0 0 setrgbcolor
newpath
72480 54841.9 moveto
72480 54251.3 lineto
stroke
0 0 0 setrgbcolor
newpath
72480 54251.3 moveto
72086.3 54251.3 lineto
stroke
0 0 0 setrgbcolor
newpath
72086.3 54251.3 moveto
72086.3 54841.9 lineto
stroke
0 0 0 setrgbcolor
newpath
72086.3 54841.9 moveto
71692.6 54841.9 lineto
stroke
0 0 0 setrgbcolor
newpath
71692.6 54841.9 moveto
71692.6 54251.3 lineto
stroke
0 0 0 setrgbcolor
newpath
71692.6 54251.3 moveto
71298.9 54251.3 lineto
stroke
0 0 0 setrgbcolor
newpath
71298.9 54251.3 moveto
71298.9 54841.9 lineto
stroke
0 0 0 setrgbcolor
newpath
71298.9 54841.9 moveto
70511.5 54841.9 lineto
stroke
0 0 0 setrgbcolor
newpath
70314.6 56810.4 moveto
70314.6 56613.5 lineto
stroke
0 0 0 setrgbcolor
newpath
70314.6 56810.4 moveto
70314.6 64290.7 lineto
stroke
0 0 0 setrgbcolor
newpath
70314.6 64290.7 moveto
74448.5 64290.7 lineto
stroke
0 0 0 setrgbcolor
newpath
74448.5 63306.5 moveto
74448.5 54054.5 lineto
stroke
0 0 0 setrgbcolor
newpath
74448.5 54054.5 moveto
70314.6 54054.5 lineto
stroke
0 0 0 setrgbcolor
newpath
70314.6 54054.5 moveto
70314.6 55629.3 lineto
stroke
0 0 0 setrgbcolor
150 setlinewidth
newpath
75786 53111 moveto
76574 53111 lineto
stroke
0 0 0 setrgbcolor
118 setlinewidth
newpath
75708 54175 moveto
75708 53820 lineto
stroke
0 0 0 setrgbcolor
newpath
76653 54174 moveto
76653 53819 lineto
stroke
0 0 0 setrgbcolor
59.0551 setlinewidth
newpath
75860 55620 moveto
75960 55520 lineto
stroke
0 0 0 setrgbcolor
newpath
75960 55520 moveto
77460 55520 lineto
stroke
0 0 0 setrgbcolor
newpath
77460 55520 moveto
77460 55620 lineto
stroke
0 0 0 setrgbcolor
newpath
75860 56820 moveto
75860 56920 lineto
stroke
0 0 0 setrgbcolor
newpath
75860 56920 moveto
77460 56920 lineto
stroke
0 0 0 setrgbcolor
newpath
77460 56920 moveto
77460 56820 lineto
stroke
0 0 0 setrgbcolor
newpath
66183.8 59648.1 moveto
66183.8 59372.5 lineto
stroke
0 0 0 setrgbcolor
newpath
66656.2 59648.1 moveto
66656.2 59372.5 lineto
stroke
0 0 0 setrgbcolor
66420 58900.1 39.3701 cir0
0 0 0 setrgbcolor
66420 58900.1 88.0343 cir0
0 0 0 setrgbcolor
29.5276 setlinewidth
newpath
66729.6 63148.5 moveto
66729.6 62967.4 lineto
stroke
0 0 0 setrgbcolor
newpath
66694.2 63148.5 moveto
66674.5 63148.5 lineto
stroke
0 0 0 setrgbcolor
newpath
66713.9 63136.7 moveto
66694.2 63148.5 lineto
stroke
0 0 0 setrgbcolor
newpath
66721.7 63128.8 moveto
66713.9 63136.7 lineto
stroke
0 0 0 setrgbcolor
newpath
66729.6 63101.3 moveto
66721.7 63128.8 lineto
stroke
0 0 0 setrgbcolor
newpath
66556.4 62967.4 moveto
66536.7 62979.2 lineto
stroke
0 0 0 setrgbcolor
newpath
66595.7 62967.4 moveto
66556.4 62967.4 lineto
stroke
0 0 0 setrgbcolor
newpath
66611.5 62979.2 moveto
66595.7 62967.4 lineto
stroke
0 0 0 setrgbcolor
newpath
66619.4 63006.8 moveto
66611.5 62979.2 lineto
stroke
0 0 0 setrgbcolor
newpath
66619.4 63113.1 moveto
66619.4 63006.8 lineto
stroke
0 0 0 setrgbcolor
newpath
66607.6 63136.7 moveto
66619.4 63113.1 lineto
stroke
0 0 0 setrgbcolor
newpath
66591.8 63148.5 moveto
66607.6 63136.7 lineto
stroke
0 0 0 setrgbcolor
newpath
66552.4 63148.5 moveto
66591.8 63148.5 lineto
stroke
0 0 0 setrgbcolor
newpath
66536.7 63132.8 moveto
66552.4 63148.5 lineto
stroke
0 0 0 setrgbcolor
newpath
66528.8 63105.2 moveto
66536.7 63132.8 lineto
stroke
0 0 0 setrgbcolor
newpath
66528.8 63058 moveto
66528.8 63105.2 lineto
stroke
0 0 0 setrgbcolor
newpath
66528.8 63058 moveto
66619.4 63058 lineto
stroke
0 0 0 setrgbcolor
newpath
66824.1 63113.1 moveto
66824.1 62967.4 lineto
stroke
0 0 0 setrgbcolor
newpath
66835.9 63136.7 moveto
66824.1 63113.1 lineto
stroke
0 0 0 setrgbcolor
newpath
66851.7 63148.5 moveto
66835.9 63136.7 lineto
stroke
0 0 0 setrgbcolor
newpath
66891 63148.5 moveto
66851.7 63148.5 lineto
stroke
0 0 0 setrgbcolor
newpath
66910.7 63136.7 moveto
66891 63148.5 lineto
stroke
0 0 0 setrgbcolor
newpath
66887.1 63073.7 moveto
66906.8 63061.9 lineto
stroke
0 0 0 setrgbcolor
newpath
66839.8 63073.7 moveto
66887.1 63073.7 lineto
stroke
0 0 0 setrgbcolor
newpath
66824.1 63085.5 moveto
66839.8 63073.7 lineto
stroke
0 0 0 setrgbcolor
newpath
66843.8 62967.4 moveto
66824.1 62983.1 lineto
stroke
0 0 0 setrgbcolor
newpath
66891 62967.4 moveto
66843.8 62967.4 lineto
stroke
0 0 0 setrgbcolor
newpath
66910.7 62983.1 moveto
66891 62967.4 lineto
stroke
0 0 0 setrgbcolor
newpath
66918.6 63006.8 moveto
66910.7 62983.1 lineto
stroke
0 0 0 setrgbcolor
newpath
66918.6 63034.3 moveto
66918.6 63006.8 lineto
stroke
0 0 0 setrgbcolor
newpath
66906.8 63061.9 moveto
66918.6 63034.3 lineto
stroke
0 0 0 setrgbcolor
newpath
67135.1 63148.5 moveto
67095.7 62967.4 lineto
stroke
0 0 0 setrgbcolor
newpath
67095.7 62967.4 moveto
67060.3 63101.3 lineto
stroke
0 0 0 setrgbcolor
newpath
67060.3 63101.3 moveto
67020.9 62967.4 lineto
stroke
0 0 0 setrgbcolor
newpath
67020.9 62967.4 moveto
66981.6 63148.5 lineto
stroke
0 0 0 setrgbcolor
newpath
67209.9 62979.2 moveto
67225.7 62967.4 lineto
stroke
0 0 0 setrgbcolor
newpath
67225.7 62967.4 moveto
67269 62967.4 lineto
stroke
0 0 0 setrgbcolor
newpath
67269 62967.4 moveto
67284.7 62979.2 lineto
stroke
0 0 0 setrgbcolor
newpath
67284.7 62979.2 moveto
67292.6 62991 lineto
stroke
0 0 0 setrgbcolor
newpath
67292.6 62991 moveto
67304.4 63018.6 lineto
stroke
0 0 0 setrgbcolor
newpath
67304.4 63018.6 moveto
67304.4 63097.3 lineto
stroke
0 0 0 setrgbcolor
newpath
67304.4 63097.3 moveto
67292.6 63124.9 lineto
stroke
0 0 0 setrgbcolor
newpath
67292.6 63124.9 moveto
67284.7 63136.7 lineto
stroke
0 0 0 setrgbcolor
newpath
67284.7 63136.7 moveto
67261.1 63152.4 lineto
stroke
0 0 0 setrgbcolor
newpath
67261.1 63152.4 moveto
67233.5 63152.4 lineto
stroke
0 0 0 setrgbcolor
newpath
67233.5 63152.4 moveto
67209.9 63136.7 lineto
stroke
0 0 0 setrgbcolor
newpath
67209.9 63243 moveto
67209.9 62967.4 lineto
stroke
0 0 0 setrgbcolor
newpath
67414.6 63101.3 moveto
67406.8 63128.8 lineto
stroke
0 0 0 setrgbcolor
newpath
67406.8 63128.8 moveto
67398.9 63136.7 lineto
stroke
0 0 0 setrgbcolor
newpath
67398.9 63136.7 moveto
67379.2 63148.5 lineto
stroke
0 0 0 setrgbcolor
newpath
67379.2 63148.5 moveto
67359.5 63148.5 lineto
stroke
0 0 0 setrgbcolor
newpath
67414.6 63148.5 moveto
67414.6 62967.4 lineto
stroke
0 0 0 setrgbcolor
newpath
67591.8 63061.9 moveto
67603.6 63034.3 lineto
stroke
0 0 0 setrgbcolor
newpath
67603.6 63034.3 moveto
67603.6 63006.8 lineto
stroke
0 0 0 setrgbcolor
newpath
67603.6 63006.8 moveto
67595.7 62983.1 lineto
stroke
0 0 0 setrgbcolor
newpath
67595.7 62983.1 moveto
67576.1 62967.4 lineto
stroke
0 0 0 setrgbcolor
newpath
67576.1 62967.4 moveto
67528.8 62967.4 lineto
stroke
0 0 0 setrgbcolor
newpath
67528.8 62967.4 moveto
67509.1 62983.1 lineto
stroke
0 0 0 setrgbcolor
newpath
67509.1 63085.5 moveto
67524.9 63073.7 lineto
stroke
0 0 0 setrgbcolor
newpath
67524.9 63073.7 moveto
67572.1 63073.7 lineto
stroke
0 0 0 setrgbcolor
newpath
67572.1 63073.7 moveto
67591.8 63061.9 lineto
stroke
0 0 0 setrgbcolor
newpath
67595.7 63136.7 moveto
67576.1 63148.5 lineto
stroke
0 0 0 setrgbcolor
newpath
67576.1 63148.5 moveto
67536.7 63148.5 lineto
stroke
0 0 0 setrgbcolor
newpath
67536.7 63148.5 moveto
67520.9 63136.7 lineto
stroke
0 0 0 setrgbcolor
newpath
67520.9 63136.7 moveto
67509.1 63113.1 lineto
stroke
0 0 0 setrgbcolor
newpath
67509.1 63113.1 moveto
67509.1 62967.4 lineto
stroke
0 0 0 setrgbcolor
newpath
67772.9 63120.9 moveto
67765 63136.7 lineto
stroke
0 0 0 setrgbcolor
newpath
67765 63136.7 moveto
67745.4 63148.5 lineto
stroke
0 0 0 setrgbcolor
newpath
67745.4 63148.5 moveto
67713.9 63148.5 lineto
stroke
0 0 0 setrgbcolor
newpath
67713.9 63148.5 moveto
67698.1 63136.7 lineto
stroke
0 0 0 setrgbcolor
newpath
67698.1 63136.7 moveto
67690.2 63113.1 lineto
stroke
0 0 0 setrgbcolor
newpath
67690.2 63113.1 moveto
67690.2 62967.4 lineto
stroke
0 0 0 setrgbcolor
newpath
67772.9 63243 moveto
67772.9 62967.4 lineto
stroke
0 0 0 setrgbcolor
newpath
68186.3 63058 moveto
68276.9 63058 lineto
stroke
0 0 0 setrgbcolor
newpath
68099.7 63124.9 moveto
68091.8 63136.7 lineto
stroke
0 0 0 setrgbcolor
newpath
68091.8 63136.7 moveto
68076.1 63148.5 lineto
stroke
0 0 0 setrgbcolor
newpath
68076.1 63148.5 moveto
68040.6 63148.5 lineto
stroke
0 0 0 setrgbcolor
newpath
68040.6 63148.5 moveto
68024.9 63136.7 lineto
stroke
0 0 0 setrgbcolor
newpath
68024.9 63136.7 moveto
68017 63113.1 lineto
stroke
0 0 0 setrgbcolor
newpath
68017 63113.1 moveto
68017 62967.4 lineto
stroke
0 0 0 setrgbcolor
newpath
68099.7 63148.5 moveto
68099.7 62967.4 lineto
stroke
0 0 0 setrgbcolor
newpath
68186.3 63058 moveto
68186.3 63105.2 lineto
stroke
0 0 0 setrgbcolor
newpath
68186.3 63105.2 moveto
68194.2 63132.8 lineto
stroke
0 0 0 setrgbcolor
newpath
68194.2 63132.8 moveto
68209.9 63148.5 lineto
stroke
0 0 0 setrgbcolor
newpath
68209.9 63148.5 moveto
68249.3 63148.5 lineto
stroke
0 0 0 setrgbcolor
newpath
68249.3 63148.5 moveto
68265 63136.7 lineto
stroke
0 0 0 setrgbcolor
newpath
68265 63136.7 moveto
68276.9 63113.1 lineto
stroke
0 0 0 setrgbcolor
newpath
68276.9 63113.1 moveto
68276.9 63006.8 lineto
stroke
0 0 0 setrgbcolor
newpath
68276.9 63006.8 moveto
68269 62979.2 lineto
stroke
0 0 0 setrgbcolor
newpath
68269 62979.2 moveto
68253.2 62967.4 lineto
stroke
0 0 0 setrgbcolor
newpath
68253.2 62967.4 moveto
68213.9 62967.4 lineto
stroke
0 0 0 setrgbcolor
newpath
68213.9 62967.4 moveto
68194.2 62979.2 lineto
stroke
0 0 0 setrgbcolor
newpath
68446.1 63136.7 moveto
68430.4 63148.5 lineto
stroke
0 0 0 setrgbcolor
newpath
68430.4 63148.5 moveto
68391 63148.5 lineto
stroke
0 0 0 setrgbcolor
newpath
68391 63148.5 moveto
68375.3 63136.7 lineto
stroke
0 0 0 setrgbcolor
newpath
68375.3 63136.7 moveto
68363.5 63124.9 lineto
stroke
0 0 0 setrgbcolor
newpath
68363.5 63124.9 moveto
68355.6 63101.3 lineto
stroke
0 0 0 setrgbcolor
newpath
68355.6 63101.3 moveto
68355.6 63014.6 lineto
stroke
0 0 0 setrgbcolor
newpath
68355.6 63014.6 moveto
68363.5 62991 lineto
stroke
0 0 0 setrgbcolor
newpath
68363.5 62991 moveto
68371.3 62979.2 lineto
stroke
0 0 0 setrgbcolor
newpath
68371.3 62979.2 moveto
68387.1 62967.4 lineto
stroke
0 0 0 setrgbcolor
newpath
68387.1 62967.4 moveto
68426.5 62967.4 lineto
stroke
0 0 0 setrgbcolor
newpath
68426.5 62967.4 moveto
68446.1 62979.2 lineto
stroke
0 0 0 setrgbcolor
newpath
68446.1 62872.9 moveto
68446.1 63148.5 lineto
stroke
0 0 0 setrgbcolor
newpath
68568.2 63148.5 moveto
68599.7 63148.5 lineto
stroke
0 0 0 setrgbcolor
newpath
68599.7 63148.5 moveto
68615.4 63136.7 lineto
stroke
0 0 0 setrgbcolor
newpath
68615.4 63136.7 moveto
68623.3 63124.9 lineto
stroke
0 0 0 setrgbcolor
newpath
68623.3 63124.9 moveto
68635.1 63097.3 lineto
stroke
0 0 0 setrgbcolor
newpath
68599.7 62967.4 moveto
68568.2 62967.4 lineto
stroke
0 0 0 setrgbcolor
newpath
68568.2 62967.4 moveto
68548.5 62979.2 lineto
stroke
0 0 0 setrgbcolor
newpath
68548.5 62979.2 moveto
68540.6 62991 lineto
stroke
0 0 0 setrgbcolor
newpath
68540.6 62991 moveto
68532.8 63018.6 lineto
stroke
0 0 0 setrgbcolor
newpath
68532.8 63018.6 moveto
68532.8 63097.3 lineto
stroke
0 0 0 setrgbcolor
newpath
68532.8 63097.3 moveto
68540.6 63120.9 lineto
stroke
0 0 0 setrgbcolor
newpath
68540.6 63120.9 moveto
68548.5 63132.8 lineto
stroke
0 0 0 setrgbcolor
newpath
68548.5 63132.8 moveto
68568.2 63148.5 lineto
stroke
0 0 0 setrgbcolor
newpath
68635.1 63097.3 moveto
68635.1 63018.6 lineto
stroke
0 0 0 setrgbcolor
newpath
68635.1 63018.6 moveto
68627.2 62995 lineto
stroke
0 0 0 setrgbcolor
newpath
68627.2 62995 moveto
68619.4 62983.1 lineto
stroke
0 0 0 setrgbcolor
newpath
68619.4 62983.1 moveto
68599.7 62967.4 lineto
stroke
0 0 0 setrgbcolor
1 setlinewidth
newpath
68176 63296 moveto
68166 63302 lineto
68143 63316 lineto
68110 63338 lineto
68071 63364 lineto
68032 63390 lineto
68000 63411 lineto
67978 63426 lineto
67968 63431 lineto
67963 63429 lineto
67945 63420 lineto
67918 63406 lineto
67902 63398 lineto
67878 63388 lineto
67865 63385 lineto
67863 63389 lineto
67854 63408 lineto
67840 63440 lineto
67822 63483 lineto
67800 63533 lineto
67778 63586 lineto
67755 63641 lineto
67733 63694 lineto
67714 63741 lineto
67698 63779 lineto
67688 63806 lineto
67684 63817 lineto
67685 63820 lineto
67698 63832 lineto
67719 63848 lineto
67766 63886 lineto
67812 63943 lineto
67840 64008 lineto
67849 64081 lineto
67841 64148 lineto
67815 64212 lineto
67770 64270 lineto
67715 64313 lineto
67651 64340 lineto
67580 64349 lineto
67512 64341 lineto
67446 64315 lineto
67388 64271 lineto
67363 64243 lineto
67329 64184 lineto
67310 64122 lineto
67308 64106 lineto
67311 64037 lineto
67331 63970 lineto
67368 63911 lineto
67419 63862 lineto
67425 63858 lineto
67448 63840 lineto
67464 63828 lineto
67476 63818 lineto
67388 63606 lineto
67374 63573 lineto
67350 63515 lineto
67329 63465 lineto
67312 63425 lineto
67300 63399 lineto
67295 63388 lineto
67295 63387 lineto
67287 63386 lineto
67271 63392 lineto
67241 63406 lineto
67222 63416 lineto
67199 63427 lineto
67189 63431 lineto
67180 63426 lineto
67159 63412 lineto
67127 63391 lineto
67089 63366 lineto
67053 63341 lineto
67020 63319 lineto
66996 63304 lineto
66984 63297 lineto
66982 63297 lineto
66972 63303 lineto
66953 63319 lineto
66924 63346 lineto
66883 63387 lineto
66877 63393 lineto
66843 63427 lineto
66816 63456 lineto
66798 63476 lineto
66791 63485 lineto
66791 63485 lineto
66797 63497 lineto
66812 63521 lineto
66834 63555 lineto
66861 63594 lineto
66931 63696 lineto
66893 63792 lineto
66881 63822 lineto
66866 63857 lineto
66855 63883 lineto
66849 63894 lineto
66839 63898 lineto
66812 63904 lineto
66774 63912 lineto
66729 63920 lineto
66685 63928 lineto
66646 63936 lineto
66618 63941 lineto
66605 63944 lineto
66602 63946 lineto
66599 63952 lineto
66598 63965 lineto
66597 63989 lineto
66596 64026 lineto
66596 64081 lineto
66596 64087 lineto
66597 64138 lineto
66598 64180 lineto
66599 64206 lineto
66601 64217 lineto
66601 64217 lineto
66613 64220 lineto
66641 64226 lineto
66680 64233 lineto
66727 64242 lineto
66730 64243 lineto
66776 64252 lineto
66815 64260 lineto
66843 64266 lineto
66854 64270 lineto
66857 64273 lineto
66866 64291 lineto
66879 64320 lineto
66895 64355 lineto
66910 64392 lineto
66923 64425 lineto
66932 64449 lineto
66935 64460 lineto
66934 64461 lineto
66927 64472 lineto
66911 64496 lineto
66889 64529 lineto
66862 64569 lineto
66860 64572 lineto
66833 64611 lineto
66811 64645 lineto
66797 64668 lineto
66791 64679 lineto
66791 64680 lineto
66800 64692 lineto
66820 64714 lineto
66849 64744 lineto
66883 64779 lineto
66894 64789 lineto
66933 64827 lineto
66959 64851 lineto
66976 64864 lineto
66984 64867 lineto
66984 64867 lineto
66996 64860 lineto
67021 64844 lineto
67054 64821 lineto
67094 64794 lineto
67097 64792 lineto
67136 64765 lineto
67169 64743 lineto
67192 64727 lineto
67203 64721 lineto
67204 64721 lineto
67220 64726 lineto
67248 64736 lineto
67283 64749 lineto
67319 64764 lineto
67352 64778 lineto
67377 64789 lineto
67389 64796 lineto
67389 64796 lineto
67393 64810 lineto
67400 64840 lineto
67408 64880 lineto
67418 64928 lineto
67419 64936 lineto
67428 64983 lineto
67435 65022 lineto
67441 65049 lineto
67444 65060 lineto
67450 65061 lineto
67473 65063 lineto
67508 65064 lineto
67551 65064 lineto
67595 65064 lineto
67638 65063 lineto
67675 65062 lineto
67702 65060 lineto
67713 65058 lineto
67713 65057 lineto
67717 65042 lineto
67724 65013 lineto
67732 64972 lineto
67741 64924 lineto
67743 64915 lineto
67752 64869 lineto
67760 64830 lineto
67765 64804 lineto
67768 64793 lineto
67773 64791 lineto
67792 64783 lineto
67823 64770 lineto
67862 64754 lineto
67952 64718 lineto
68063 64793 lineto
68073 64800 lineto
68113 64827 lineto
68145 64849 lineto
68168 64864 lineto
68177 64869 lineto
68178 64869 lineto
68189 64859 lineto
68211 64838 lineto
68241 64809 lineto
68276 64775 lineto
68301 64749 lineto
68332 64718 lineto
68351 64697 lineto
68362 64684 lineto
68365 64676 lineto
68364 64670 lineto
68357 64659 lineto
68341 64635 lineto
68318 64601 lineto
68291 64562 lineto
68269 64529 lineto
68245 64492 lineto
68230 64466 lineto
68224 64453 lineto
68226 64448 lineto
68233 64426 lineto
68247 64393 lineto
68263 64354 lineto
68302 64267 lineto
68359 64256 lineto
68394 64249 lineto
68442 64240 lineto
68489 64231 lineto
68561 64217 lineto
68564 63951 lineto
68553 63946 lineto
68542 63943 lineto
68515 63937 lineto
68477 63929 lineto
68431 63921 lineto
68393 63914 lineto
68354 63906 lineto
68326 63901 lineto
68314 63898 lineto
68310 63894 lineto
68301 63875 lineto
68287 63845 lineto
68271 63809 lineto
68256 63772 lineto
68242 63737 lineto
68233 63711 lineto
68229 63698 lineto
68234 63687 lineto
68249 63664 lineto
68270 63632 lineto
68297 63593 lineto
68323 63555 lineto
68346 63522 lineto
68361 63498 lineto
68368 63487 lineto
68364 63480 lineto
68349 63461 lineto
68320 63431 lineto
68276 63388 lineto
68269 63381 lineto
68235 63348 lineto
68206 63321 lineto
68185 63303 lineto
68176 63296 lineto
poly1
0 0 0 setrgbcolor
29.5276 setlinewidth
newpath
78809.6 63058.5 moveto
78809.6 62877.4 lineto
stroke
0 0 0 setrgbcolor
newpath
78774.2 63058.5 moveto
78754.5 63058.5 lineto
stroke
0 0 0 setrgbcolor
newpath
78793.9 63046.7 moveto
78774.2 63058.5 lineto
stroke
0 0 0 setrgbcolor
newpath
78801.7 63038.8 moveto
78793.9 63046.7 lineto
stroke
0 0 0 setrgbcolor
newpath
78809.6 63011.3 moveto
78801.7 63038.8 lineto
stroke
0 0 0 setrgbcolor
newpath
78636.4 62877.4 moveto
78616.7 62889.2 lineto
stroke
0 0 0 setrgbcolor
newpath
78675.7 62877.4 moveto
78636.4 62877.4 lineto
stroke
0 0 0 setrgbcolor
newpath
78691.5 62889.2 moveto
78675.7 62877.4 lineto
stroke
0 0 0 setrgbcolor
newpath
78699.4 62916.8 moveto
78691.5 62889.2 lineto
stroke
0 0 0 setrgbcolor
newpath
78699.4 63023.1 moveto
78699.4 62916.8 lineto
stroke
0 0 0 setrgbcolor
newpath
78687.6 63046.7 moveto
78699.4 63023.1 lineto
stroke
0 0 0 setrgbcolor
newpath
78671.8 63058.5 moveto
78687.6 63046.7 lineto
stroke
0 0 0 setrgbcolor
newpath
78632.4 63058.5 moveto
78671.8 63058.5 lineto
stroke
0 0 0 setrgbcolor
newpath
78616.7 63042.8 moveto
78632.4 63058.5 lineto
stroke
0 0 0 setrgbcolor
newpath
78608.8 63015.2 moveto
78616.7 63042.8 lineto
stroke
0 0 0 setrgbcolor
newpath
78608.8 62968 moveto
78608.8 63015.2 lineto
stroke
0 0 0 setrgbcolor
newpath
78608.8 62968 moveto
78699.4 62968 lineto
stroke
0 0 0 setrgbcolor
newpath
78904.1 63023.1 moveto
78904.1 62877.4 lineto
stroke
0 0 0 setrgbcolor
newpath
78915.9 63046.7 moveto
78904.1 63023.1 lineto
stroke
0 0 0 setrgbcolor
newpath
78931.7 63058.5 moveto
78915.9 63046.7 lineto
stroke
0 0 0 setrgbcolor
newpath
78971 63058.5 moveto
78931.7 63058.5 lineto
stroke
0 0 0 setrgbcolor
newpath
78990.7 63046.7 moveto
78971 63058.5 lineto
stroke
0 0 0 setrgbcolor
newpath
78967.1 62983.7 moveto
78986.8 62971.9 lineto
stroke
0 0 0 setrgbcolor
newpath
78919.8 62983.7 moveto
78967.1 62983.7 lineto
stroke
0 0 0 setrgbcolor
newpath
78904.1 62995.5 moveto
78919.8 62983.7 lineto
stroke
0 0 0 setrgbcolor
newpath
78923.8 62877.4 moveto
78904.1 62893.1 lineto
stroke
0 0 0 setrgbcolor
newpath
78971 62877.4 moveto
78923.8 62877.4 lineto
stroke
0 0 0 setrgbcolor
newpath
78990.7 62893.1 moveto
78971 62877.4 lineto
stroke
0 0 0 setrgbcolor
newpath
78998.6 62916.8 moveto
78990.7 62893.1 lineto
stroke
0 0 0 setrgbcolor
newpath
78998.6 62944.3 moveto
78998.6 62916.8 lineto
stroke
0 0 0 setrgbcolor
newpath
78986.8 62971.9 moveto
78998.6 62944.3 lineto
stroke
0 0 0 setrgbcolor
newpath
79215.1 63058.5 moveto
79175.7 62877.4 lineto
stroke
0 0 0 setrgbcolor
newpath
79175.7 62877.4 moveto
79140.3 63011.3 lineto
stroke
0 0 0 setrgbcolor
newpath
79140.3 63011.3 moveto
79100.9 62877.4 lineto
stroke
0 0 0 setrgbcolor
newpath
79100.9 62877.4 moveto
79061.6 63058.5 lineto
stroke
0 0 0 setrgbcolor
newpath
79289.9 62889.2 moveto
79305.7 62877.4 lineto
stroke
0 0 0 setrgbcolor
newpath
79305.7 62877.4 moveto
79349 62877.4 lineto
stroke
0 0 0 setrgbcolor
newpath
79349 62877.4 moveto
79364.7 62889.2 lineto
stroke
0 0 0 setrgbcolor
newpath
79364.7 62889.2 moveto
79372.6 62901 lineto
stroke
0 0 0 setrgbcolor
newpath
79372.6 62901 moveto
79384.4 62928.6 lineto
stroke
0 0 0 setrgbcolor
newpath
79384.4 62928.6 moveto
79384.4 63007.3 lineto
stroke
0 0 0 setrgbcolor
newpath
79384.4 63007.3 moveto
79372.6 63034.9 lineto
stroke
0 0 0 setrgbcolor
newpath
79372.6 63034.9 moveto
79364.7 63046.7 lineto
stroke
0 0 0 setrgbcolor
newpath
79364.7 63046.7 moveto
79341.1 63062.4 lineto
stroke
0 0 0 setrgbcolor
newpath
79341.1 63062.4 moveto
79313.5 63062.4 lineto
stroke
0 0 0 setrgbcolor
newpath
79313.5 63062.4 moveto
79289.9 63046.7 lineto
stroke
0 0 0 setrgbcolor
newpath
79289.9 63153 moveto
79289.9 62877.4 lineto
stroke
0 0 0 setrgbcolor
newpath
79494.6 63011.3 moveto
79486.8 63038.8 lineto
stroke
0 0 0 setrgbcolor
newpath
79486.8 63038.8 moveto
79478.9 63046.7 lineto
stroke
0 0 0 setrgbcolor
newpath
79478.9 63046.7 moveto
79459.2 63058.5 lineto
stroke
0 0 0 setrgbcolor
newpath
79459.2 63058.5 moveto
79439.5 63058.5 lineto
stroke
0 0 0 setrgbcolor
newpath
79494.6 63058.5 moveto
79494.6 62877.4 lineto
stroke
0 0 0 setrgbcolor
newpath
79671.8 62971.9 moveto
79683.6 62944.3 lineto
stroke
0 0 0 setrgbcolor
newpath
79683.6 62944.3 moveto
79683.6 62916.8 lineto
stroke
0 0 0 setrgbcolor
newpath
79683.6 62916.8 moveto
79675.7 62893.1 lineto
stroke
0 0 0 setrgbcolor
newpath
79675.7 62893.1 moveto
79656.1 62877.4 lineto
stroke
0 0 0 setrgbcolor
newpath
79656.1 62877.4 moveto
79608.8 62877.4 lineto
stroke
0 0 0 setrgbcolor
newpath
79608.8 62877.4 moveto
79589.1 62893.1 lineto
stroke
0 0 0 setrgbcolor
newpath
79589.1 62995.5 moveto
79604.9 62983.7 lineto
stroke
0 0 0 setrgbcolor
newpath
79604.9 62983.7 moveto
79652.1 62983.7 lineto
stroke
0 0 0 setrgbcolor
newpath
79652.1 62983.7 moveto
79671.8 62971.9 lineto
stroke
0 0 0 setrgbcolor
newpath
79675.7 63046.7 moveto
79656.1 63058.5 lineto
stroke
0 0 0 setrgbcolor
newpath
79656.1 63058.5 moveto
79616.7 63058.5 lineto
stroke
0 0 0 setrgbcolor
newpath
79616.7 63058.5 moveto
79600.9 63046.7 lineto
stroke
0 0 0 setrgbcolor
newpath
79600.9 63046.7 moveto
79589.1 63023.1 lineto
stroke
0 0 0 setrgbcolor
newpath
79589.1 63023.1 moveto
79589.1 62877.4 lineto
stroke
0 0 0 setrgbcolor
newpath
79852.9 63030.9 moveto
79845 63046.7 lineto
stroke
0 0 0 setrgbcolor
newpath
79845 63046.7 moveto
79825.4 63058.5 lineto
stroke
0 0 0 setrgbcolor
newpath
79825.4 63058.5 moveto
79793.9 63058.5 lineto
stroke
0 0 0 setrgbcolor
newpath
79793.9 63058.5 moveto
79778.1 63046.7 lineto
stroke
0 0 0 setrgbcolor
newpath
79778.1 63046.7 moveto
79770.2 63023.1 lineto
stroke
0 0 0 setrgbcolor
newpath
79770.2 63023.1 moveto
79770.2 62877.4 lineto
stroke
0 0 0 setrgbcolor
newpath
79852.9 63153 moveto
79852.9 62877.4 lineto
stroke
0 0 0 setrgbcolor
newpath
80266.3 62968 moveto
80356.9 62968 lineto
stroke
0 0 0 setrgbcolor
newpath
80179.7 63034.9 moveto
80171.8 63046.7 lineto
stroke
0 0 0 setrgbcolor
newpath
80171.8 63046.7 moveto
80156.1 63058.5 lineto
stroke
0 0 0 setrgbcolor
newpath
80156.1 63058.5 moveto
80120.6 63058.5 lineto
stroke
0 0 0 setrgbcolor
newpath
80120.6 63058.5 moveto
80104.9 63046.7 lineto
stroke
0 0 0 setrgbcolor
newpath
80104.9 63046.7 moveto
80097 63023.1 lineto
stroke
0 0 0 setrgbcolor
newpath
80097 63023.1 moveto
80097 62877.4 lineto
stroke
0 0 0 setrgbcolor
newpath
80179.7 63058.5 moveto
80179.7 62877.4 lineto
stroke
0 0 0 setrgbcolor
newpath
80266.3 62968 moveto
80266.3 63015.2 lineto
stroke
0 0 0 setrgbcolor
newpath
80266.3 63015.2 moveto
80274.2 63042.8 lineto
stroke
0 0 0 setrgbcolor
newpath
80274.2 63042.8 moveto
80289.9 63058.5 lineto
stroke
0 0 0 setrgbcolor
newpath
80289.9 63058.5 moveto
80329.3 63058.5 lineto
stroke
0 0 0 setrgbcolor
newpath
80329.3 63058.5 moveto
80345 63046.7 lineto
stroke
0 0 0 setrgbcolor
newpath
80345 63046.7 moveto
80356.9 63023.1 lineto
stroke
0 0 0 setrgbcolor
newpath
80356.9 63023.1 moveto
80356.9 62916.8 lineto
stroke
0 0 0 setrgbcolor
newpath
80356.9 62916.8 moveto
80349 62889.2 lineto
stroke
0 0 0 setrgbcolor
newpath
80349 62889.2 moveto
80333.2 62877.4 lineto
stroke
0 0 0 setrgbcolor
newpath
80333.2 62877.4 moveto
80293.9 62877.4 lineto
stroke
0 0 0 setrgbcolor
newpath
80293.9 62877.4 moveto
80274.2 62889.2 lineto
stroke
0 0 0 setrgbcolor
newpath
80526.1 63046.7 moveto
80510.4 63058.5 lineto
stroke
0 0 0 setrgbcolor
newpath
80510.4 63058.5 moveto
80471 63058.5 lineto
stroke
0 0 0 setrgbcolor
newpath
80471 63058.5 moveto
80455.3 63046.7 lineto
stroke
0 0 0 setrgbcolor
newpath
80455.3 63046.7 moveto
80443.5 63034.9 lineto
stroke
0 0 0 setrgbcolor
newpath
80443.5 63034.9 moveto
80435.6 63011.3 lineto
stroke
0 0 0 setrgbcolor
newpath
80435.6 63011.3 moveto
80435.6 62924.6 lineto
stroke
0 0 0 setrgbcolor
newpath
80435.6 62924.6 moveto
80443.5 62901 lineto
stroke
0 0 0 setrgbcolor
newpath
80443.5 62901 moveto
80451.3 62889.2 lineto
stroke
0 0 0 setrgbcolor
newpath
80451.3 62889.2 moveto
80467.1 62877.4 lineto
stroke
0 0 0 setrgbcolor
newpath
80467.1 62877.4 moveto
80506.5 62877.4 lineto
stroke
0 0 0 setrgbcolor
newpath
80506.5 62877.4 moveto
80526.1 62889.2 lineto
stroke
0 0 0 setrgbcolor
newpath
80526.1 62782.9 moveto
80526.1 63058.5 lineto
stroke
0 0 0 setrgbcolor
newpath
80648.2 63058.5 moveto
80679.7 63058.5 lineto
stroke
0 0 0 setrgbcolor
newpath
80679.7 63058.5 moveto
80695.4 63046.7 lineto
stroke
0 0 0 setrgbcolor
newpath
80695.4 63046.7 moveto
80703.3 63034.9 lineto
stroke
0 0 0 setrgbcolor
newpath
80703.3 63034.9 moveto
80715.1 63007.3 lineto
stroke
0 0 0 setrgbcolor
newpath
80679.7 62877.4 moveto
80648.2 62877.4 lineto
stroke
0 0 0 setrgbcolor
newpath
80648.2 62877.4 moveto
80628.5 62889.2 lineto
stroke
0 0 0 setrgbcolor
newpath
80628.5 62889.2 moveto
80620.6 62901 lineto
stroke
0 0 0 setrgbcolor
newpath
80620.6 62901 moveto
80612.8 62928.6 lineto
stroke
0 0 0 setrgbcolor
newpath
80612.8 62928.6 moveto
80612.8 63007.3 lineto
stroke
0 0 0 setrgbcolor
newpath
80612.8 63007.3 moveto
80620.6 63030.9 lineto
stroke
0 0 0 setrgbcolor
newpath
80620.6 63030.9 moveto
80628.5 63042.8 lineto
stroke
0 0 0 setrgbcolor
newpath
80628.5 63042.8 moveto
80648.2 63058.5 lineto
stroke
0 0 0 setrgbcolor
newpath
80715.1 63007.3 moveto
80715.1 62928.6 lineto
stroke
0 0 0 setrgbcolor
newpath
80715.1 62928.6 moveto
80707.2 62905 lineto
stroke
0 0 0 setrgbcolor
newpath
80707.2 62905 moveto
80699.4 62893.1 lineto
stroke
0 0 0 setrgbcolor
newpath
80699.4 62893.1 moveto
80679.7 62877.4 lineto
stroke
0 0 0 setrgbcolor
1 setlinewidth
newpath
80256 63206 moveto
80246 63212 lineto
80223 63226 lineto
80190 63248 lineto
80151 63274 lineto
80112 63300 lineto
80080 63321 lineto
80058 63336 lineto
80048 63341 lineto
80043 63339 lineto
80025 63330 lineto
79998 63316 lineto
79982 63308 lineto
79958 63298 lineto
79945 63295 lineto
79943 63299 lineto
79934 63318 lineto
79920 63350 lineto
79902 63393 lineto
79880 63443 lineto
79858 63496 lineto
79835 63551 lineto
79813 63604 lineto
79794 63651 lineto
79778 63689 lineto
79768 63716 lineto
79764 63727 lineto
79765 63730 lineto
79778 63742 lineto
79799 63758 lineto
79846 63796 lineto
79892 63853 lineto
79920 63918 lineto
79929 63991 lineto
79921 64058 lineto
79895 64122 lineto
79850 64180 lineto
79795 64223 lineto
79731 64250 lineto
79660 64259 lineto
79592 64251 lineto
79526 64225 lineto
79468 64181 lineto
79443 64153 lineto
79409 64094 lineto
79390 64032 lineto
79388 64016 lineto
79391 63947 lineto
79411 63880 lineto
79448 63821 lineto
79499 63772 lineto
79505 63768 lineto
79528 63750 lineto
79544 63738 lineto
79556 63728 lineto
79468 63516 lineto
79454 63483 lineto
79430 63425 lineto
79409 63375 lineto
79392 63335 lineto
79380 63309 lineto
79375 63298 lineto
79375 63297 lineto
79367 63296 lineto
79351 63302 lineto
79321 63316 lineto
79302 63326 lineto
79279 63337 lineto
79269 63341 lineto
79260 63336 lineto
79239 63322 lineto
79207 63301 lineto
79169 63276 lineto
79133 63251 lineto
79100 63229 lineto
79076 63214 lineto
79064 63207 lineto
79062 63207 lineto
79052 63213 lineto
79033 63229 lineto
79004 63256 lineto
78963 63297 lineto
78957 63303 lineto
78923 63337 lineto
78896 63366 lineto
78878 63386 lineto
78871 63395 lineto
78871 63395 lineto
78877 63407 lineto
78892 63431 lineto
78914 63465 lineto
78941 63504 lineto
79011 63606 lineto
78973 63702 lineto
78961 63732 lineto
78946 63767 lineto
78935 63793 lineto
78929 63804 lineto
78919 63808 lineto
78892 63814 lineto
78854 63822 lineto
78809 63830 lineto
78765 63838 lineto
78726 63846 lineto
78698 63851 lineto
78685 63854 lineto
78682 63856 lineto
78679 63862 lineto
78678 63875 lineto
78677 63899 lineto
78676 63936 lineto
78676 63991 lineto
78676 63997 lineto
78677 64048 lineto
78678 64090 lineto
78679 64116 lineto
78681 64127 lineto
78681 64127 lineto
78693 64130 lineto
78721 64136 lineto
78760 64143 lineto
78807 64152 lineto
78810 64153 lineto
78856 64162 lineto
78895 64170 lineto
78923 64176 lineto
78934 64180 lineto
78937 64183 lineto
78946 64201 lineto
78959 64230 lineto
78975 64265 lineto
78990 64302 lineto
79003 64335 lineto
79012 64359 lineto
79015 64370 lineto
79014 64371 lineto
79007 64382 lineto
78991 64406 lineto
78969 64439 lineto
78942 64479 lineto
78940 64482 lineto
78913 64521 lineto
78891 64555 lineto
78877 64578 lineto
78871 64589 lineto
78871 64590 lineto
78880 64602 lineto
78900 64624 lineto
78929 64654 lineto
78963 64689 lineto
78974 64699 lineto
79013 64737 lineto
79039 64761 lineto
79056 64774 lineto
79064 64777 lineto
79064 64777 lineto
79076 64770 lineto
79101 64754 lineto
79134 64731 lineto
79174 64704 lineto
79177 64702 lineto
79216 64675 lineto
79249 64653 lineto
79272 64637 lineto
79283 64631 lineto
79284 64631 lineto
79300 64636 lineto
79328 64646 lineto
79363 64659 lineto
79399 64674 lineto
79432 64688 lineto
79457 64699 lineto
79469 64706 lineto
79469 64706 lineto
79473 64720 lineto
79480 64750 lineto
79488 64790 lineto
79498 64838 lineto
79499 64846 lineto
79508 64893 lineto
79515 64932 lineto
79521 64959 lineto
79524 64970 lineto
79530 64971 lineto
79553 64973 lineto
79588 64974 lineto
79631 64974 lineto
79675 64974 lineto
79718 64973 lineto
79755 64972 lineto
79782 64970 lineto
79793 64968 lineto
79793 64967 lineto
79797 64952 lineto
79804 64923 lineto
79812 64882 lineto
79821 64834 lineto
79823 64825 lineto
79832 64779 lineto
79840 64740 lineto
79845 64714 lineto
79848 64703 lineto
79853 64701 lineto
79872 64693 lineto
79903 64680 lineto
79942 64664 lineto
80032 64628 lineto
80143 64703 lineto
80153 64710 lineto
80193 64737 lineto
80225 64759 lineto
80248 64774 lineto
80257 64779 lineto
80258 64779 lineto
80269 64769 lineto
80291 64748 lineto
80321 64719 lineto
80356 64685 lineto
80381 64659 lineto
80412 64628 lineto
80431 64607 lineto
80442 64594 lineto
80445 64586 lineto
80444 64580 lineto
80437 64569 lineto
80421 64545 lineto
80398 64511 lineto
80371 64472 lineto
80349 64439 lineto
80325 64402 lineto
80310 64376 lineto
80304 64363 lineto
80306 64358 lineto
80313 64336 lineto
80327 64303 lineto
80343 64264 lineto
80382 64177 lineto
80439 64166 lineto
80474 64159 lineto
80522 64150 lineto
80569 64141 lineto
80641 64127 lineto
80644 63861 lineto
80633 63856 lineto
80622 63853 lineto
80595 63847 lineto
80557 63839 lineto
80511 63831 lineto
80473 63824 lineto
80434 63816 lineto
80406 63811 lineto
80394 63808 lineto
80390 63804 lineto
80381 63785 lineto
80367 63755 lineto
80351 63719 lineto
80336 63682 lineto
80322 63647 lineto
80313 63621 lineto
80309 63608 lineto
80314 63597 lineto
80329 63574 lineto
80350 63542 lineto
80377 63503 lineto
80403 63465 lineto
80426 63432 lineto
80441 63408 lineto
80448 63397 lineto
80444 63390 lineto
80429 63371 lineto
80400 63341 lineto
80356 63298 lineto
80349 63291 lineto
80315 63258 lineto
80286 63231 lineto
80265 63213 lineto
80256 63206 lineto
poly1
0 0 0 setrgbcolor
59.0551 setlinewidth
0 0 0 setrgbcolor
0 0 0 setrgbcolor
newpath
72789.3 53492.1 moveto
72733.1 53473.3 lineto
72714.3 53454.6 lineto
72695.6 53417.1 lineto
72695.6 53360.8 lineto
72714.3 53323.3 lineto
72733.1 53304.6 lineto
72770.6 53285.8 lineto
72920.6 53285.8 lineto
72920.6 53679.5 lineto
72789.3 53679.5 lineto
72751.8 53660.8 lineto
72733.1 53642 lineto
72714.3 53604.5 lineto
72714.3 53567 lineto
72733.1 53529.6 lineto
72751.8 53510.8 lineto
72789.3 53492.1 lineto
72920.6 53492.1 lineto
stroke
newpath
72583.1 53679.5 moveto
72358.1 53679.5 lineto
stroke
newpath
72470.6 53285.8 moveto
72470.6 53679.5 lineto
stroke
newpath
72020.7 53285.8 moveto
72245.7 53285.8 lineto
stroke
newpath
72133.2 53285.8 moveto
72133.2 53679.5 lineto
72170.7 53623.3 lineto
72208.2 53585.8 lineto
72245.7 53567 lineto
stroke
0 0 0 setrgbcolor
0 0 0 setrgbcolor
0 0 0 setrgbcolor
newpath
70138.1 56448 moveto
69744.4 56448 lineto
stroke
newpath
69931.9 56448 moveto
69931.9 56223 lineto
stroke
newpath
70138.1 56223 moveto
69744.4 56223 lineto
stroke
newpath
70100.6 55810.6 moveto
70119.4 55829.3 lineto
70138.1 55885.6 lineto
70138.1 55923.1 lineto
70119.4 55979.3 lineto
70081.9 56016.8 lineto
70044.4 56035.6 lineto
69969.4 56054.3 lineto
69913.1 56054.3 lineto
69838.1 56035.6 lineto
69800.6 56016.8 lineto
69763.1 55979.3 lineto
69744.4 55923.1 lineto
69744.4 55885.6 lineto
69763.1 55829.3 lineto
69781.9 55810.6 lineto
stroke
newpath
69988.1 55641.9 moveto
69988.1 55341.9 lineto
stroke
newpath
69744.4 55079.4 moveto
69744.4 55041.9 lineto
69763.1 55004.4 lineto
69781.9 54985.7 lineto
69819.4 54966.9 lineto
69894.4 54948.2 lineto
69988.1 54948.2 lineto
70063.1 54966.9 lineto
70100.6 54985.7 lineto
70119.4 55004.4 lineto
70138.1 55041.9 lineto
70138.1 55079.4 lineto
70119.4 55116.9 lineto
70100.6 55135.7 lineto
70063.1 55154.4 lineto
69988.1 55173.2 lineto
69894.4 55173.2 lineto
69819.4 55154.4 lineto
69781.9 55135.7 lineto
69763.1 55116.9 lineto
69744.4 55079.4 lineto
stroke
newpath
69744.4 54610.7 moveto
69744.4 54685.7 lineto
69763.1 54723.2 lineto
69781.9 54742 lineto
69838.1 54779.5 lineto
69913.1 54798.2 lineto
70063.1 54798.2 lineto
70100.6 54779.5 lineto
70119.4 54760.7 lineto
70138.1 54723.2 lineto
70138.1 54648.2 lineto
70119.4 54610.7 lineto
70100.6 54592 lineto
70063.1 54573.2 lineto
69969.4 54573.2 lineto
69931.9 54592 lineto
69913.1 54610.7 lineto
69894.4 54648.2 lineto
69894.4 54723.2 lineto
69913.1 54760.7 lineto
69931.9 54779.5 lineto
69969.4 54798.2 lineto
stroke
0 0 0 setrgbcolor
99 setlinewidth
0 0 0 setrgbcolor
98.5 setlinewidth
0 0 0 setrgbcolor
newpath
77281.3 54270.8 moveto
77281.3 53989.3 lineto
77300.1 53933 lineto
77337.6 53895.5 lineto
77393.9 53876.8 lineto
77431.4 53876.8 lineto
stroke
newpath
77131.2 54270.8 moveto
76887.3 54270.8 lineto
77018.7 54120.7 lineto
76962.4 54120.7 lineto
76924.9 54101.9 lineto
76906.1 54083.1 lineto
76887.3 54045.6 lineto
76887.3 53951.8 lineto
76906.1 53914.3 lineto
76924.9 53895.5 lineto
76962.4 53876.8 lineto
77075 53876.8 lineto
77112.5 53895.5 lineto
77131.2 53914.3 lineto
stroke
99 setlinewidth
0 0 0 setrgbcolor
49 setlinewidth
0 0 0 setrgbcolor
0 0 0 setrgbcolor
newpath
76395.5 52694.1 moveto
76367.3 52684.7 lineto
76357.9 52675.3 lineto
76348.5 52656.5 lineto
76348.5 52628.4 lineto
76357.9 52609.6 lineto
76367.3 52600.3 lineto
76386.1 52590.9 lineto
76461.1 52590.9 lineto
76461.1 52787.9 lineto
76395.5 52787.9 lineto
76376.7 52778.5 lineto
76367.3 52769.1 lineto
76357.9 52750.4 lineto
76357.9 52731.6 lineto
76367.3 52712.8 lineto
76376.7 52703.5 lineto
76395.5 52694.1 lineto
76461.1 52694.1 lineto
stroke
newpath
76273.5 52647.2 moveto
76179.7 52647.2 lineto
stroke
newpath
76292.3 52590.9 moveto
76226.6 52787.9 lineto
76160.9 52590.9 lineto
stroke
newpath
76123.4 52787.9 moveto
76010.8 52787.9 lineto
stroke
newpath
76067.1 52590.9 moveto
76067.1 52787.9 lineto
stroke
newpath
75973.3 52787.9 moveto
75860.7 52787.9 lineto
stroke
newpath
75917 52590.9 moveto
75917 52787.9 lineto
stroke
0 0 0 setrgbcolor
49.2126 setlinewidth
0 0 0 setrgbcolor
0 0 0 setrgbcolor
newpath
76692.8 57130.9 moveto
76786.5 57130.9 lineto
76786.5 57327.8 lineto
stroke
newpath
76524.1 57130.9 moveto
76636.6 57130.9 lineto
stroke
newpath
76580.3 57130.9 moveto
76580.3 57327.8 lineto
76599.1 57299.7 lineto
76617.8 57280.9 lineto
76636.6 57271.6 lineto
stroke
0 0 0 setrgbcolor
0 0 0 setrgbcolor
0 0 0 setrgbcolor
newpath
77682.2 57916.7 moveto
77879.1 57869.8 lineto
77738.4 57832.3 lineto
77879.1 57794.8 lineto
77682.2 57747.9 lineto
stroke
newpath
77879.1 57579.2 moveto
77879.1 57672.9 lineto
77682.2 57672.9 lineto
stroke
newpath
77897.8 57560.5 moveto
77897.8 57410.5 lineto
stroke
newpath
77869.7 57373 moveto
77879.1 57344.9 lineto
77879.1 57298 lineto
77869.7 57279.2 lineto
77860.3 57269.9 lineto
77841.6 57260.5 lineto
77822.8 57260.5 lineto
77804.1 57269.9 lineto
77794.7 57279.2 lineto
77785.3 57298 lineto
77775.9 57335.5 lineto
77766.6 57354.2 lineto
77757.2 57363.6 lineto
77738.4 57373 lineto
77719.7 57373 lineto
77700.9 57363.6 lineto
77691.6 57354.2 lineto
77682.2 57335.5 lineto
77682.2 57288.6 lineto
77691.6 57260.5 lineto
stroke
newpath
77775.9 57110.5 moveto
77775.9 57176.1 lineto
stroke
newpath
77879.1 57176.1 moveto
77682.2 57176.1 lineto
77682.2 57082.4 lineto
stroke
newpath
77682.2 57035.5 moveto
77682.2 56923 lineto
stroke
newpath
77879.1 56979.3 moveto
77682.2 56979.3 lineto
stroke
newpath
77682.2 56876.2 moveto
77879.1 56829.3 lineto
77738.4 56791.8 lineto
77879.1 56754.3 lineto
77682.2 56707.4 lineto
stroke
newpath
77897.8 56679.3 moveto
77897.8 56529.3 lineto
stroke
newpath
77879.1 56370 moveto
77785.3 56435.6 lineto
stroke
newpath
77879.1 56482.5 moveto
77682.2 56482.5 lineto
77682.2 56407.5 lineto
77691.6 56388.7 lineto
77700.9 56379.4 lineto
77719.7 56370 lineto
77747.8 56370 lineto
77766.6 56379.4 lineto
77775.9 56388.7 lineto
77785.3 56407.5 lineto
77785.3 56482.5 lineto
stroke
newpath
77691.6 56182.5 moveto
77682.2 56201.3 lineto
77682.2 56229.4 lineto
77691.6 56257.5 lineto
77710.3 56276.2 lineto
77729.1 56285.6 lineto
77766.6 56295 lineto
77794.7 56295 lineto
77832.2 56285.6 lineto
77850.9 56276.2 lineto
77869.7 56257.5 lineto
77879.1 56229.4 lineto
77879.1 56210.6 lineto
77869.7 56182.5 lineto
77860.3 56173.1 lineto
77794.7 56173.1 lineto
77794.7 56210.6 lineto
stroke
newpath
77775.9 56023.1 moveto
77785.3 55995 lineto
77794.7 55985.7 lineto
77813.4 55976.3 lineto
77841.6 55976.3 lineto
77860.3 55985.7 lineto
77869.7 55995 lineto
77879.1 56013.8 lineto
77879.1 56088.8 lineto
77682.2 56088.8 lineto
77682.2 56023.1 lineto
77691.6 56004.4 lineto
77700.9 55995 lineto
77719.7 55985.7 lineto
77738.4 55985.7 lineto
77757.2 55995 lineto
77766.6 56004.4 lineto
77775.9 56023.1 lineto
77775.9 56088.8 lineto
stroke
newpath
77897.8 55938.8 moveto
77897.8 55788.8 lineto
stroke
newpath
77879.1 55648.2 moveto
77879.1 55741.9 lineto
77682.2 55741.9 lineto
stroke
newpath
77775.9 55582.6 moveto
77775.9 55517 lineto
stroke
newpath
77879.1 55488.8 moveto
77879.1 55582.6 lineto
77682.2 55582.6 lineto
77682.2 55488.8 lineto
stroke
newpath
77879.1 55404.5 moveto
77682.2 55404.5 lineto
77682.2 55357.6 lineto
77691.6 55329.5 lineto
77710.3 55310.7 lineto
77729.1 55301.4 lineto
77766.6 55292 lineto
77794.7 55292 lineto
77832.2 55301.4 lineto
77850.9 55310.7 lineto
77869.7 55329.5 lineto
77879.1 55357.6 lineto
77879.1 55404.5 lineto
stroke
newpath
77897.8 55254.5 moveto
77897.8 55104.5 lineto
stroke
newpath
77869.7 55067 moveto
77879.1 55038.9 lineto
77879.1 54992 lineto
77869.7 54973.3 lineto
77860.3 54963.9 lineto
77841.6 54954.5 lineto
77822.8 54954.5 lineto
77804.1 54963.9 lineto
77794.7 54973.3 lineto
77785.3 54992 lineto
77775.9 55029.5 lineto
77766.6 55048.3 lineto
77757.2 55057.6 lineto
77738.4 55067 lineto
77719.7 55067 lineto
77700.9 55057.6 lineto
77691.6 55048.3 lineto
77682.2 55029.5 lineto
77682.2 54982.7 lineto
77691.6 54954.5 lineto
stroke
newpath
77879.1 54870.2 moveto
77682.2 54870.2 lineto
77822.8 54804.6 lineto
77682.2 54738.9 lineto
77879.1 54738.9 lineto
stroke
newpath
77879.1 54645.2 moveto
77682.2 54645.2 lineto
77682.2 54598.3 lineto
77691.6 54570.2 lineto
77710.3 54551.5 lineto
77729.1 54542.1 lineto
77766.6 54532.7 lineto
77794.7 54532.7 lineto
77832.2 54542.1 lineto
77850.9 54551.5 lineto
77869.7 54570.2 lineto
77879.1 54598.3 lineto
77879.1 54645.2 lineto
stroke
0 0 0 setrgbcolor
39.3701 setlinewidth
0 0 0 setrgbcolor
0 0 0 setrgbcolor
newpath
66600 60328.7 moveto
66600 60137.4 lineto
66588.7 60114.9 lineto
66577.5 60103.7 lineto
66555 60092.4 lineto
66510 60092.4 lineto
66487.5 60103.7 lineto
66476.2 60114.9 lineto
66465 60137.4 lineto
66465 60328.7 lineto
stroke
newpath
66251.3 60328.7 moveto
66296.3 60328.7 lineto
66318.8 60317.4 lineto
66330 60306.2 lineto
66352.5 60272.4 lineto
66363.8 60227.4 lineto
66363.8 60137.4 lineto
66352.5 60114.9 lineto
66341.3 60103.7 lineto
66318.8 60092.4 lineto
66273.8 60092.4 lineto
66251.3 60103.7 lineto
66240 60114.9 lineto
66228.8 60137.4 lineto
66228.8 60193.7 lineto
66240 60216.2 lineto
66251.3 60227.4 lineto
66273.8 60238.7 lineto
66318.8 60238.7 lineto
66341.3 60227.4 lineto
66352.5 60216.2 lineto
66363.8 60193.7 lineto
stroke
0 0 0 setrgbcolor
0 0 0 setrgbcolor
0 0 0 setrgbcolor
newpath
66902.8 60314.3 moveto
66902.8 60220.5 lineto
stroke
newpath
66959.1 60333 moveto
66762.2 60267.4 lineto
66959.1 60201.8 lineto
stroke
newpath
66959.1 60136.2 moveto
66762.2 60136.2 lineto
66762.2 60061.2 lineto
66771.6 60042.4 lineto
66780.9 60033.1 lineto
66799.7 60023.7 lineto
66827.8 60023.7 lineto
66846.6 60033.1 lineto
66855.9 60042.4 lineto
66865.3 60061.2 lineto
66865.3 60136.2 lineto
stroke
newpath
66959.1 59939.3 moveto
66762.2 59939.3 lineto
66762.2 59892.4 lineto
66771.6 59864.3 lineto
66790.3 59845.6 lineto
66809.1 59836.2 lineto
66846.6 59826.8 lineto
66874.7 59826.8 lineto
66912.2 59836.2 lineto
66930.9 59845.6 lineto
66949.7 59864.3 lineto
66959.1 59892.4 lineto
66959.1 59939.3 lineto
stroke
newpath
66949.7 59751.8 moveto
66959.1 59723.7 lineto
66959.1 59676.8 lineto
66949.7 59658.1 lineto
66940.3 59648.7 lineto
66921.6 59639.4 lineto
66902.8 59639.4 lineto
66884.1 59648.7 lineto
66874.7 59658.1 lineto
66865.3 59676.8 lineto
66855.9 59714.3 lineto
66846.6 59733.1 lineto
66837.2 59742.5 lineto
66818.4 59751.8 lineto
66799.7 59751.8 lineto
66780.9 59742.5 lineto
66771.6 59733.1 lineto
66762.2 59714.3 lineto
66762.2 59667.5 lineto
66771.6 59639.4 lineto
stroke
newpath
66884.1 59555 moveto
66884.1 59405 lineto
stroke
newpath
66959.1 59301.9 moveto
66959.1 59264.4 lineto
66949.7 59245.7 lineto
66940.3 59236.3 lineto
66912.2 59217.5 lineto
66874.7 59208.2 lineto
66799.7 59208.2 lineto
66780.9 59217.5 lineto
66771.6 59226.9 lineto
66762.2 59245.7 lineto
66762.2 59283.1 lineto
66771.6 59301.9 lineto
66780.9 59311.3 lineto
66799.7 59320.6 lineto
66846.6 59320.6 lineto
66865.3 59311.3 lineto
66874.7 59301.9 lineto
66884.1 59283.1 lineto
66884.1 59245.7 lineto
66874.7 59226.9 lineto
66865.3 59217.5 lineto
66846.6 59208.2 lineto
stroke
newpath
66762.2 59086.3 moveto
66762.2 59067.6 lineto
66771.6 59048.8 lineto
66780.9 59039.4 lineto
66799.7 59030.1 lineto
66837.2 59020.7 lineto
66884.1 59020.7 lineto
66921.6 59030.1 lineto
66940.3 59039.4 lineto
66949.7 59048.8 lineto
66959.1 59067.6 lineto
66959.1 59086.3 lineto
66949.7 59105 lineto
66940.3 59114.4 lineto
66921.6 59123.8 lineto
66884.1 59133.2 lineto
66837.2 59133.2 lineto
66799.7 59123.8 lineto
66780.9 59114.4 lineto
66771.6 59105 lineto
66762.2 59086.3 lineto
stroke
newpath
66762.2 58898.8 moveto
66762.2 58880.1 lineto
66771.6 58861.3 lineto
66780.9 58852 lineto
66799.7 58842.6 lineto
66837.2 58833.2 lineto
66884.1 58833.2 lineto
66921.6 58842.6 lineto
66940.3 58852 lineto
66949.7 58861.3 lineto
66959.1 58880.1 lineto
66959.1 58898.8 lineto
66949.7 58917.6 lineto
66940.3 58926.9 lineto
66921.6 58936.3 lineto
66884.1 58945.7 lineto
66837.2 58945.7 lineto
66799.7 58936.3 lineto
66780.9 58926.9 lineto
66771.6 58917.6 lineto
66762.2 58898.8 lineto
stroke
newpath
66846.6 58720.7 moveto
66837.2 58739.5 lineto
66827.8 58748.8 lineto
66809.1 58758.2 lineto
66799.7 58758.2 lineto
66780.9 58748.8 lineto
66771.6 58739.5 lineto
66762.2 58720.7 lineto
66762.2 58683.2 lineto
66771.6 58664.5 lineto
66780.9 58655.1 lineto
66799.7 58645.7 lineto
66809.1 58645.7 lineto
66827.8 58655.1 lineto
66837.2 58664.5 lineto
66846.6 58683.2 lineto
66846.6 58720.7 lineto
66855.9 58739.5 lineto
66865.3 58748.8 lineto
66884.1 58758.2 lineto
66921.6 58758.2 lineto
66940.3 58748.8 lineto
66949.7 58739.5 lineto
66959.1 58720.7 lineto
66959.1 58683.2 lineto
66949.7 58664.5 lineto
66940.3 58655.1 lineto
66921.6 58645.7 lineto
66884.1 58645.7 lineto
66865.3 58655.1 lineto
66855.9 58664.5 lineto
66846.6 58683.2 lineto
stroke
showpage
grestore
%%EOF
