EESchema Schematic File Version 2
LIBS:power
LIBS:device
LIBS:transistors
LIBS:conn
LIBS:linear
LIBS:regul
LIBS:74xx
LIBS:cmos4000
LIBS:adc-dac
LIBS:memory
LIBS:xilinx
LIBS:special
LIBS:microcontrollers
LIBS:dsp
LIBS:microchip
LIBS:analog_switches
LIBS:motorola
LIBS:texas
LIBS:intel
LIBS:audio
LIBS:interface
LIBS:digital-audio
LIBS:philips
LIBS:display
LIBS:cypress
LIBS:siliconi
LIBS:opto
LIBS:atmel
LIBS:contrib
LIBS:valves
LIBS:acue
LIBS:proto-cache
EELAYER 27 0
EELAYER END
$Descr A4 11693 8268
encoding utf-8
Sheet 1 1
Title ""
Date "18 jul 2014"
Rev ""
Comp ""
Comment1 ""
Comment2 ""
Comment3 ""
Comment4 ""
$EndDescr
$Comp
L R R1
U 1 1 53C399B8
P 900 1800
F 0 "R1" V 980 1800 40  0000 C CNN
F 1 "1K" V 907 1801 40  0000 C CNN
F 2 "~" V 830 1800 30  0000 C CNN
F 3 "~" H 900 1800 30  0000 C CNN
	1    900  1800
	1    0    0    -1  
$EndComp
$Comp
L R R2
U 1 1 53C399C7
P 1250 1450
F 0 "R2" V 1330 1450 40  0000 C CNN
F 1 "1K" V 1257 1451 40  0000 C CNN
F 2 "~" V 1180 1450 30  0000 C CNN
F 3 "~" H 1250 1450 30  0000 C CNN
	1    1250 1450
	0    -1   -1   0   
$EndComp
$Comp
L GND #PWR6
U 1 1 53C399D6
P 900 2200
F 0 "#PWR6" H 900 2200 30  0001 C CNN
F 1 "GND" H 900 2130 30  0001 C CNN
F 2 "" H 900 2200 60  0000 C CNN
F 3 "" H 900 2200 60  0000 C CNN
	1    900  2200
	1    0    0    -1  
$EndComp
Text GLabel 1750 1450 2    60   Input ~ 0
VBATT
Wire Wire Line
	1750 1450 1500 1450
Wire Wire Line
	900  2050 900  2200
Wire Wire Line
	900  1150 900  1550
Wire Wire Line
	900  1450 1000 1450
Wire Wire Line
	900  1150 1050 1150
Connection ~ 900  1450
Text GLabel 1050 1150 2    60   Output ~ 0
ABATT
Text Notes 900  950  0    79   ~ 0
BATTERY VOLTAGE
$Comp
L WL_SFTW_RGB_LED_SMD L1
U 1 1 53C39C9E
P 3050 1500
F 0 "L1" H 3050 1150 60  0000 C CNN
F 1 "WL_SFTW_RGB_LED_SMD" H 3100 1850 60  0000 C CNN
F 2 "~" H 3300 1500 60  0000 C CNN
F 3 "~" H 3300 1500 60  0000 C CNN
	1    3050 1500
	1    0    0    -1  
$EndComp
$Comp
L VCC #PWR4
U 1 1 53C39CB7
P 2350 1350
F 0 "#PWR4" H 2350 1450 30  0001 C CNN
F 1 "VCC" H 2350 1450 30  0000 C CNN
F 2 "" H 2350 1350 60  0000 C CNN
F 3 "" H 2350 1350 60  0000 C CNN
	1    2350 1350
	1    0    0    -1  
$EndComp
Wire Wire Line
	2350 1350 2350 1500
Wire Wire Line
	2350 1500 2600 1500
$Comp
L R R3
U 1 1 53C39CCD
P 3800 1300
F 0 "R3" V 3880 1300 40  0000 C CNN
F 1 "220" V 3807 1301 40  0000 C CNN
F 2 "~" V 3730 1300 30  0000 C CNN
F 3 "~" H 3800 1300 30  0000 C CNN
	1    3800 1300
	0    1    1    0   
$EndComp
$Comp
L R R4
U 1 1 53C39CDA
P 3800 1500
F 0 "R4" V 3880 1500 40  0000 C CNN
F 1 "150" V 3807 1501 40  0000 C CNN
F 2 "~" V 3730 1500 30  0000 C CNN
F 3 "~" H 3800 1500 30  0000 C CNN
	1    3800 1500
	0    1    1    0   
$EndComp
$Comp
L R R5
U 1 1 53C39CE0
P 3800 1700
F 0 "R5" V 3880 1700 40  0000 C CNN
F 1 "220" V 3807 1701 40  0000 C CNN
F 2 "~" V 3730 1700 30  0000 C CNN
F 3 "~" H 3800 1700 30  0000 C CNN
	1    3800 1700
	0    1    1    0   
$EndComp
Wire Wire Line
	3450 1300 3550 1300
Wire Wire Line
	3450 1500 3550 1500
Wire Wire Line
	3450 1700 3550 1700
Text Notes 3400 950  0    79   ~ 0
RGB LED
Text GLabel 4150 1300 2    79   Output ~ 0
LEDG
Text GLabel 4150 1500 2    79   Output ~ 0
LEDR
Text GLabel 4150 1700 2    79   Output ~ 0
LEDB
Wire Wire Line
	4050 1300 4150 1300
Wire Wire Line
	4050 1500 4150 1500
Wire Wire Line
	4050 1700 4150 1700
$Comp
L DS1337S+ U3
U 1 1 53C39F2F
P 6500 1650
F 0 "U3" H 6500 1250 60  0000 C CNN
F 1 "DS1337S+" H 6500 2000 60  0000 C CNN
F 2 "" H 6500 1650 60  0000 C CNN
F 3 "" H 6500 1650 60  0000 C CNN
	1    6500 1650
	1    0    0    -1  
$EndComp
$Comp
L CRYSTAL X1
U 1 1 53C39F3E
P 5550 1500
F 0 "X1" H 5550 1650 60  0000 C CNN
F 1 "32.768KHz" H 5550 1350 60  0000 C CNN
F 2 "~" H 5550 1500 60  0000 C CNN
F 3 "~" H 5550 1500 60  0000 C CNN
	1    5550 1500
	0    -1   -1   0   
$EndComp
Wire Wire Line
	5550 1200 5800 1200
Wire Wire Line
	5800 1200 5800 1450
Wire Wire Line
	5800 1450 5950 1450
Wire Wire Line
	5550 1800 5800 1800
Wire Wire Line
	5800 1800 5800 1600
Wire Wire Line
	5800 1600 5950 1600
$Comp
L GND #PWR5
U 1 1 53C39F71
P 5900 2050
F 0 "#PWR5" H 5900 2050 30  0001 C CNN
F 1 "GND" H 5900 1980 30  0001 C CNN
F 2 "" H 5900 2050 60  0000 C CNN
F 3 "" H 5900 2050 60  0000 C CNN
	1    5900 2050
	1    0    0    -1  
$EndComp
Wire Wire Line
	5950 1900 5900 1900
Wire Wire Line
	5900 1900 5900 2050
Wire Wire Line
	7050 1450 7150 1450
Wire Wire Line
	7150 1450 7150 1250
$Comp
L VCC #PWR2
U 1 1 53C39FAF
P 7150 1250
F 0 "#PWR2" H 7150 1350 30  0001 C CNN
F 1 "VCC" H 7150 1350 30  0000 C CNN
F 2 "" H 7150 1250 60  0000 C CNN
F 3 "" H 7150 1250 60  0000 C CNN
	1    7150 1250
	1    0    0    -1  
$EndComp
Text GLabel 7150 1750 2    79   Input ~ 0
SCL
Wire Wire Line
	7150 1750 7050 1750
Text GLabel 7150 1900 2    79   BiDi ~ 0
SDA
Wire Wire Line
	7150 1900 7050 1900
Text Notes 6400 950  0    79   ~ 0
RTC
$Comp
L CONN_2 P1
U 1 1 53C3A0F7
P 1000 3500
F 0 "P1" V 950 3500 40  0000 C CNN
F 1 "GSR" V 1050 3500 40  0000 C CNN
F 2 "" H 1000 3500 60  0000 C CNN
F 3 "" H 1000 3500 60  0000 C CNN
	1    1000 3500
	-1   0    0    -1  
$EndComp
$Comp
L GND #PWR12
U 1 1 53C3A118
P 1450 3800
F 0 "#PWR12" H 1450 3800 30  0001 C CNN
F 1 "GND" H 1450 3730 30  0001 C CNN
F 2 "" H 1450 3800 60  0000 C CNN
F 3 "" H 1450 3800 60  0000 C CNN
	1    1450 3800
	1    0    0    -1  
$EndComp
Wire Wire Line
	1350 3600 1450 3600
Wire Wire Line
	1450 3600 1450 3800
Text GLabel 1550 3400 2    79   Output ~ 0
GSR_IN
Wire Wire Line
	1350 3400 1550 3400
$Comp
L ADR3530 U1
U 1 1 53C3A31E
P 3200 3600
F 0 "U1" H 3200 3400 60  0000 C CNN
F 1 "ADR3530" H 3200 3900 60  0000 C CNN
F 2 "" H 3000 3600 60  0000 C CNN
F 3 "" H 3000 3600 60  0000 C CNN
	1    3200 3600
	1    0    0    -1  
$EndComp
$Comp
L VCC #PWR8
U 1 1 53C3A32D
P 4450 3100
F 0 "#PWR8" H 4450 3200 30  0001 C CNN
F 1 "VCC" H 4450 3200 30  0000 C CNN
F 2 "" H 4450 3100 60  0000 C CNN
F 3 "" H 4450 3100 60  0000 C CNN
	1    4450 3100
	1    0    0    -1  
$EndComp
Wire Wire Line
	4450 3100 4450 3500
Wire Wire Line
	3950 3400 4450 3400
Wire Wire Line
	2500 3400 2400 3400
Wire Wire Line
	2400 3400 2400 3200
Wire Wire Line
	2400 3200 4450 3200
Wire Wire Line
	2500 3500 2400 3500
Wire Wire Line
	2400 3500 2400 4100
Wire Wire Line
	2500 3600 2400 3600
Connection ~ 2400 3600
$Comp
L GND #PWR15
U 1 1 53C3A3CF
P 2400 4100
F 0 "#PWR15" H 2400 4100 30  0001 C CNN
F 1 "GND" H 2400 4030 30  0001 C CNN
F 2 "" H 2400 4100 60  0000 C CNN
F 3 "" H 2400 4100 60  0000 C CNN
	1    2400 4100
	1    0    0    -1  
$EndComp
Connection ~ 4450 3200
$Comp
L C C2
U 1 1 53C3A406
P 4250 3700
F 0 "C2" H 4250 3800 40  0000 L CNN
F 1 "0.1uF" H 4256 3615 40  0000 L CNN
F 2 "~" H 4288 3550 30  0000 C CNN
F 3 "~" H 4250 3700 60  0000 C CNN
	1    4250 3700
	-1   0    0    1   
$EndComp
$Comp
L C C3
U 1 1 53C3A413
P 4450 3700
F 0 "C3" H 4450 3800 40  0000 L CNN
F 1 "1uF" H 4456 3615 40  0000 L CNN
F 2 "~" H 4488 3550 30  0000 C CNN
F 3 "~" H 4450 3700 60  0000 C CNN
	1    4450 3700
	-1   0    0    1   
$EndComp
$Comp
L C C1
U 1 1 53C3A43A
P 4050 4400
F 0 "C1" H 4050 4500 40  0000 L CNN
F 1 "0.1uF" H 4056 4315 40  0000 L CNN
F 2 "~" H 4088 4250 30  0000 C CNN
F 3 "~" H 4050 4400 60  0000 C CNN
	1    4050 4400
	-1   0    0    1   
$EndComp
$Comp
L GND #PWR14
U 1 1 53C3A45E
P 4250 4050
F 0 "#PWR14" H 4250 4050 30  0001 C CNN
F 1 "GND" H 4250 3980 30  0001 C CNN
F 2 "" H 4250 4050 60  0000 C CNN
F 3 "" H 4250 4050 60  0000 C CNN
	1    4250 4050
	1    0    0    -1  
$EndComp
Connection ~ 4450 3400
Wire Wire Line
	4250 3500 4250 3400
Connection ~ 4250 3400
Wire Wire Line
	4250 3900 4250 4050
Wire Wire Line
	4450 3900 4450 3950
Wire Wire Line
	4450 3950 4250 3950
Connection ~ 4250 3950
Wire Wire Line
	3950 3600 4050 3600
Wire Wire Line
	3950 3500 4050 3500
Connection ~ 4050 3600
Wire Wire Line
	4050 3500 4050 4200
Wire Wire Line
	4050 4200 4450 4200
$Comp
L GND #PWR16
U 1 1 53C3A650
P 4050 4700
F 0 "#PWR16" H 4050 4700 30  0001 C CNN
F 1 "GND" H 4050 4630 30  0001 C CNN
F 2 "" H 4050 4700 60  0000 C CNN
F 3 "" H 4050 4700 60  0000 C CNN
	1    4050 4700
	1    0    0    -1  
$EndComp
Wire Wire Line
	4050 4600 4050 4700
Text Label 4200 4200 0    39   ~ 0
VREF3
$Comp
L R R6
U 1 1 53C3A718
P 4700 4200
F 0 "R6" V 4780 4200 40  0000 C CNN
F 1 "10K" V 4707 4201 40  0000 C CNN
F 2 "~" V 4630 4200 30  0000 C CNN
F 3 "~" H 4700 4200 30  0000 C CNN
	1    4700 4200
	0    -1   -1   0   
$EndComp
$Comp
L R R7
U 1 1 53C3A72C
P 5100 4500
F 0 "R7" V 5180 4500 40  0000 C CNN
F 1 "1K" V 5107 4501 40  0000 C CNN
F 2 "~" V 5030 4500 30  0000 C CNN
F 3 "~" H 5100 4500 30  0000 C CNN
	1    5100 4500
	1    0    0    -1  
$EndComp
$Comp
L R R8
U 1 1 53C3A743
P 5100 5050
F 0 "R8" V 5180 5050 40  0000 C CNN
F 1 "1K" V 5107 5051 40  0000 C CNN
F 2 "~" V 5030 5050 30  0000 C CNN
F 3 "~" H 5100 5050 30  0000 C CNN
	1    5100 5050
	1    0    0    -1  
$EndComp
$Comp
L GND #PWR21
U 1 1 53C3A749
P 5100 5400
F 0 "#PWR21" H 5100 5400 30  0001 C CNN
F 1 "GND" H 5100 5330 30  0001 C CNN
F 2 "" H 5100 5400 60  0000 C CNN
F 3 "" H 5100 5400 60  0000 C CNN
	1    5100 5400
	1    0    0    -1  
$EndComp
Wire Wire Line
	5100 5300 5100 5400
Wire Wire Line
	5100 4750 5100 4800
Wire Wire Line
	4950 4200 6100 4200
Wire Wire Line
	5100 4250 5100 4200
Connection ~ 5100 4200
$Comp
L OPA340NA U2
U 1 1 53C3A966
P 6450 4250
F 0 "U2" H 6600 4000 60  0000 C CNN
F 1 "OPA340NA" H 6750 4400 60  0000 C CNN
F 2 "" H 6450 4250 60  0000 C CNN
F 3 "" H 6450 4250 60  0000 C CNN
	1    6450 4250
	1    0    0    -1  
$EndComp
Text GLabel 5750 4400 0    79   Input ~ 0
GSR_IN
Wire Wire Line
	5750 4400 6100 4400
$Comp
L GND #PWR18
U 1 1 53C3AA03
P 6450 4800
F 0 "#PWR18" H 6450 4800 30  0001 C CNN
F 1 "GND" H 6450 4730 30  0001 C CNN
F 2 "" H 6450 4800 60  0000 C CNN
F 3 "" H 6450 4800 60  0000 C CNN
	1    6450 4800
	1    0    0    -1  
$EndComp
Wire Wire Line
	6450 4650 6450 4800
Text Notes 4450 2750 0    79   ~ 0
GSR
$Comp
L VCC #PWR13
U 1 1 53C3AADD
P 6450 3800
F 0 "#PWR13" H 6450 3900 30  0001 C CNN
F 1 "VCC" H 6450 3900 30  0000 C CNN
F 2 "" H 6450 3800 60  0000 C CNN
F 3 "" H 6450 3800 60  0000 C CNN
	1    6450 3800
	1    0    0    -1  
$EndComp
Wire Wire Line
	6450 3950 6450 3800
$Comp
L R R9
U 1 1 53C3AB21
P 6450 3200
F 0 "R9" V 6530 3200 40  0000 C CNN
F 1 "100K" V 6457 3201 40  0000 C CNN
F 2 "~" V 6380 3200 30  0000 C CNN
F 3 "~" H 6450 3200 30  0000 C CNN
	1    6450 3200
	0    -1   -1   0   
$EndComp
$Comp
L C C4
U 1 1 53C3AB30
P 6450 3450
F 0 "C4" H 6450 3550 40  0000 L CNN
F 1 "100n" H 6456 3365 40  0000 L CNN
F 2 "~" H 6488 3300 30  0000 C CNN
F 3 "~" H 6450 3450 60  0000 C CNN
	1    6450 3450
	0    -1   -1   0   
$EndComp
Text GLabel 7350 4300 2    79   Output ~ 0
AGSR
Wire Wire Line
	6850 4300 7350 4300
Wire Wire Line
	7150 3200 7150 4300
Wire Wire Line
	7150 3200 6700 3200
Connection ~ 7150 4300
Wire Wire Line
	6200 3200 5900 3200
Wire Wire Line
	5900 3200 5900 4400
Connection ~ 5900 4400
Wire Wire Line
	6650 3450 7150 3450
Connection ~ 7150 3450
Wire Wire Line
	6250 3450 5900 3450
Connection ~ 5900 3450
$Comp
L CONN_2 P3
U 1 1 53C5602B
P 10600 1550
F 0 "P3" V 10550 1550 40  0000 C CNN
F 1 "I2C" V 10650 1550 40  0000 C CNN
F 2 "" H 10600 1550 60  0000 C CNN
F 3 "" H 10600 1550 60  0000 C CNN
	1    10600 1550
	1    0    0    -1  
$EndComp
Text GLabel 10250 1450 0    59   Input ~ 0
SCL
Text GLabel 10250 1650 0    59   Input ~ 0
SDA
Text GLabel 10100 2000 0    59   Input ~ 0
LEDR
Text GLabel 10100 2100 0    59   Input ~ 0
LEDG
Text GLabel 10100 2400 0    59   Input ~ 0
LEDB
Wire Wire Line
	10100 2000 10200 2000
Wire Wire Line
	10100 2100 10200 2100
Wire Wire Line
	10100 2400 10200 2400
$Comp
L CONN_5 P2
U 1 1 53C62727
P 10600 950
F 0 "P2" V 10550 950 50  0000 C CNN
F 1 "IMU" V 10650 950 50  0000 C CNN
F 2 "" H 10600 950 60  0000 C CNN
F 3 "" H 10600 950 60  0000 C CNN
	1    10600 950 
	1    0    0    -1  
$EndComp
$Comp
L VCC #PWR1
U 1 1 53C62739
P 10050 700
F 0 "#PWR1" H 10050 800 30  0001 C CNN
F 1 "VCC" H 10050 800 30  0000 C CNN
F 2 "" H 10050 700 60  0000 C CNN
F 3 "" H 10050 700 60  0000 C CNN
	1    10050 700 
	1    0    0    -1  
$EndComp
$Comp
L GND #PWR3
U 1 1 53C6273F
P 10050 1250
F 0 "#PWR3" H 10050 1250 30  0001 C CNN
F 1 "GND" H 10050 1180 30  0001 C CNN
F 2 "" H 10050 1250 60  0000 C CNN
F 3 "" H 10050 1250 60  0000 C CNN
	1    10050 1250
	1    0    0    -1  
$EndComp
Wire Wire Line
	10200 1150 10050 1150
Wire Wire Line
	10050 1150 10050 1250
Wire Wire Line
	10200 750  10050 750 
Wire Wire Line
	10050 750  10050 700 
Text GLabel 10150 850  0    59   Input ~ 0
SCL
Text GLabel 10150 950  0    59   Input ~ 0
SDA
Wire Wire Line
	10150 850  10200 850 
Wire Wire Line
	10150 950  10200 950 
Text GLabel 10150 1050 0    59   Input ~ 0
IMUINT
Wire Wire Line
	10150 1050 10200 1050
$Comp
L VCC #PWR7
U 1 1 53C62906
P 10150 2700
F 0 "#PWR7" H 10150 2800 30  0001 C CNN
F 1 "VCC" H 10150 2800 30  0000 C CNN
F 2 "" H 10150 2700 60  0000 C CNN
F 3 "" H 10150 2700 60  0000 C CNN
	1    10150 2700
	1    0    0    -1  
$EndComp
$Comp
L GND #PWR9
U 1 1 53C6290C
P 10150 3200
F 0 "#PWR9" H 10150 3200 30  0001 C CNN
F 1 "GND" H 10150 3130 30  0001 C CNN
F 2 "" H 10150 3200 60  0000 C CNN
F 3 "" H 10150 3200 60  0000 C CNN
	1    10150 3200
	1    0    0    -1  
$EndComp
Wire Wire Line
	10250 2750 10150 2750
Wire Wire Line
	10150 2750 10150 2700
Wire Wire Line
	10250 2850 10150 2850
Wire Wire Line
	10150 2850 10150 3200
Text GLabel 10000 2950 0    59   Input ~ 0
IMUINT
Wire Wire Line
	10000 2950 10250 2950
$Comp
L GND #PWR10
U 1 1 53C62A2F
P 10000 3450
F 0 "#PWR10" H 10000 3450 30  0001 C CNN
F 1 "GND" H 10000 3380 30  0001 C CNN
F 2 "" H 10000 3450 60  0000 C CNN
F 3 "" H 10000 3450 60  0000 C CNN
	1    10000 3450
	0    1    1    0   
$EndComp
Wire Wire Line
	10250 3450 10000 3450
Text GLabel 10150 3750 0    59   Input ~ 0
RX
Text GLabel 10150 3850 0    59   Input ~ 0
TX
Text GLabel 10150 3950 0    59   Input ~ 0
DTR
Wire Wire Line
	10150 3750 10250 3750
Wire Wire Line
	10150 3850 10250 3850
Wire Wire Line
	10150 3950 10250 3950
$Comp
L CONN_6 P6
U 1 1 53C62BA1
P 10600 3700
F 0 "P6" V 10550 3700 60  0000 C CNN
F 1 "SERIAL" V 10650 3700 60  0000 C CNN
F 2 "" H 10600 3700 60  0000 C CNN
F 3 "" H 10600 3700 60  0000 C CNN
	1    10600 3700
	1    0    0    -1  
$EndComp
$Comp
L VCC #PWR11
U 1 1 53C62BBA
P 10150 3600
F 0 "#PWR11" H 10150 3700 30  0001 C CNN
F 1 "VCC" H 10150 3700 30  0000 C CNN
F 2 "" H 10150 3600 60  0000 C CNN
F 3 "" H 10150 3600 60  0000 C CNN
	1    10150 3600
	1    0    0    -1  
$EndComp
Wire Wire Line
	10150 3600 10150 3650
Wire Wire Line
	10150 3650 10250 3650
$Comp
L CONN_2 P7
U 1 1 53C62C3C
P 10600 4500
F 0 "P7" V 10550 4500 40  0000 C CNN
F 1 "BATT" V 10650 4500 40  0000 C CNN
F 2 "" H 10600 4500 60  0000 C CNN
F 3 "" H 10600 4500 60  0000 C CNN
	1    10600 4500
	1    0    0    -1  
$EndComp
$Comp
L GND #PWR17
U 1 1 53C62C5D
P 10150 4750
F 0 "#PWR17" H 10150 4750 30  0001 C CNN
F 1 "GND" H 10150 4680 30  0001 C CNN
F 2 "" H 10150 4750 60  0000 C CNN
F 3 "" H 10150 4750 60  0000 C CNN
	1    10150 4750
	1    0    0    -1  
$EndComp
Wire Wire Line
	10250 4600 10150 4600
Wire Wire Line
	10150 4600 10150 4750
Text GLabel 10150 4400 0    60   Output ~ 0
VBATT
Wire Wire Line
	10150 4400 10250 4400
$Comp
L CONN_5 P4
U 1 1 53C65064
P 10600 2200
F 0 "P4" V 10550 2200 50  0000 C CNN
F 1 "RGBLED" V 10650 2200 50  0000 C CNN
F 2 "" H 10600 2200 60  0000 C CNN
F 3 "" H 10600 2200 60  0000 C CNN
	1    10600 2200
	1    0    0    -1  
$EndComp
$Comp
L CONN_4 P5
U 1 1 53C650A7
P 10600 2900
F 0 "P5" V 10550 2900 50  0000 C CNN
F 1 "PWR-INT" V 10650 2900 50  0000 C CNN
F 2 "" H 10600 2900 60  0000 C CNN
F 3 "" H 10600 2900 60  0000 C CNN
	1    10600 2900
	1    0    0    -1  
$EndComp
Text GLabel 5700 1950 0    59   Input ~ 0
RTCINT
Wire Wire Line
	5700 1950 5850 1950
Wire Wire Line
	5850 1950 5850 1750
Wire Wire Line
	5850 1750 5950 1750
Text GLabel 9350 3100 0    59   Input ~ 0
RTCINT
Wire Wire Line
	10000 3100 10100 3100
Wire Wire Line
	10100 3100 10100 3050
Wire Wire Line
	10100 3050 10250 3050
$Comp
L CONN_3 K1
U 1 1 53C656FA
P 10600 5150
F 0 "K1" V 10550 5150 50  0000 C CNN
F 1 "HRM" V 10650 5150 40  0000 C CNN
F 2 "" H 10600 5150 60  0000 C CNN
F 3 "" H 10600 5150 60  0000 C CNN
	1    10600 5150
	1    0    0    -1  
$EndComp
$Comp
L GND #PWR20
U 1 1 53C65718
P 10150 5350
F 0 "#PWR20" H 10150 5350 30  0001 C CNN
F 1 "GND" H 10150 5280 30  0001 C CNN
F 2 "" H 10150 5350 60  0000 C CNN
F 3 "" H 10150 5350 60  0000 C CNN
	1    10150 5350
	1    0    0    -1  
$EndComp
$Comp
L VCC #PWR19
U 1 1 53C6571E
P 10150 5000
F 0 "#PWR19" H 10150 5100 30  0001 C CNN
F 1 "VCC" H 10150 5100 30  0000 C CNN
F 2 "" H 10150 5000 60  0000 C CNN
F 3 "" H 10150 5000 60  0000 C CNN
	1    10150 5000
	1    0    0    -1  
$EndComp
Wire Wire Line
	10250 5150 10150 5150
Wire Wire Line
	10150 5150 10150 5000
Wire Wire Line
	10250 5250 10150 5250
Wire Wire Line
	10150 5250 10150 5350
Text GLabel 10050 5050 0    59   Input ~ 0
HRM
Wire Wire Line
	10050 5050 10250 5050
$Comp
L CONN_3 K2
U 1 1 53C65868
P 10600 5850
F 0 "K2" V 10550 5850 50  0000 C CNN
F 1 "ANALOG" V 10650 5850 40  0000 C CNN
F 2 "" H 10600 5850 60  0000 C CNN
F 3 "" H 10600 5850 60  0000 C CNN
	1    10600 5850
	1    0    0    -1  
$EndComp
Text GLabel 9450 5950 0    59   Input ~ 0
AGSR
Text GLabel 10100 5750 0    60   Input ~ 0
ABATT
Text GLabel 9450 5850 0    59   Input ~ 0
HRM
Wire Wire Line
	10100 5750 10250 5750
Wire Wire Line
	10000 5850 10250 5850
Wire Wire Line
	10000 5950 10250 5950
$Comp
L R R10
U 1 1 53C78B91
P 9750 3100
F 0 "R10" V 9830 3100 40  0000 C CNN
F 1 "0" V 9757 3101 40  0000 C CNN
F 2 "~" V 9680 3100 30  0000 C CNN
F 3 "~" H 9750 3100 30  0000 C CNN
	1    9750 3100
	0    -1   -1   0   
$EndComp
Wire Wire Line
	9350 3100 9500 3100
$Comp
L R R11
U 1 1 53C78D33
P 9750 5850
F 0 "R11" V 9830 5850 40  0000 C CNN
F 1 "0" V 9757 5851 40  0000 C CNN
F 2 "~" V 9680 5850 30  0000 C CNN
F 3 "~" H 9750 5850 30  0000 C CNN
	1    9750 5850
	0    -1   -1   0   
$EndComp
$Comp
L R R12
U 1 1 53C78D39
P 9750 5950
F 0 "R12" V 9830 5950 40  0000 C CNN
F 1 "0" V 9757 5951 40  0000 C CNN
F 2 "~" V 9680 5950 30  0000 C CNN
F 3 "~" H 9750 5950 30  0000 C CNN
	1    9750 5950
	0    -1   -1   0   
$EndComp
Wire Wire Line
	9500 5850 9450 5850
Wire Wire Line
	9500 5950 9450 5950
$EndSCHEMATC
