M48
;DRILL file {Pcbnew (2013-may-18)-stable} date jue 17 jul 2014 13:20:31 CEST
;FORMAT={-:-/ absolute / inch / decimal}
FMAT,2
INCH,TZ
T1C0.032
T2C0.039
%
G90
G05
M72
T1
X1.15Y-1.8
X1.15Y-1.9
X1.15Y-2.
X1.15Y-2.1
X1.15Y-2.2
X1.8Y-2.65
X1.9Y-2.65
X2.1Y-1.75
X2.2Y-1.75
X2.2Y-2.65
X2.3Y-1.75
X2.3Y-2.65
X2.4Y-1.75
X2.4Y-2.65
X2.5Y-1.75
X2.5Y-2.65
X2.6Y-2.65
X2.7Y-1.75
X2.7Y-2.65
X2.8Y-1.75
X2.8Y-2.65
X2.9Y-1.75
X2.9Y-2.65
X3.Y-1.75
X3.Y-2.65
X3.75Y-2.35
X3.75Y-2.45
T2
X1.15Y-2.35
X1.15Y-2.45
X1.15Y-2.55
X1.475Y-1.8
X1.575Y-1.8
T0
M30
