%!PS-Adobe-3.0
%%Creator: PCBNEW
%%CreationDate: Mon Jul 21 09:56:02 2014
%%Title: /home/zako/Documentos/Trabajo/FabLAB/ACUE/hardware/proto-F_Cu.ps
%%Pages: 1
%%PageOrder: Ascend
%%BoundingBox: 0 0 842 1191
%%DocumentMedia: A3 842 1191 0 () ()
%%Orientation: Landscape
%%EndComments
%%BeginProlog
/line { newpath moveto lineto stroke } bind def
/cir0 { newpath 0 360 arc stroke } bind def
/cir1 { newpath 0 360 arc gsave fill grestore stroke } bind def
/cir2 { newpath 0 360 arc gsave fill grestore stroke } bind def
/arc0 { newpath arc stroke } bind def
/arc1 { newpath 4 index 4 index moveto arc closepath gsave fill
    grestore stroke } bind def
/arc2 { newpath 4 index 4 index moveto arc closepath gsave fill
    grestore stroke } bind def
/poly0 { stroke } bind def
/poly1 { closepath gsave fill grestore stroke } bind def
/poly2 { closepath gsave fill grestore stroke } bind def
/rect0 { rectstroke } bind def
/rect1 { rectfill } bind def
/rect2 { rectfill } bind def
/linemode0 { 0 setlinecap 0 setlinejoin 0 setlinewidth } bind def
/linemode1 { 1 setlinecap 1 setlinejoin } bind def
/dashedline { [200] 100 setdash } bind def
/solidline { [] 0 setdash } bind def
/phantomshow { moveto
    /KicadFont findfont 0.000001 scalefont setfont
    show } bind def
/textshow { gsave
    findfont exch scalefont setfont concat 1 scale 0 0 moveto show
    } bind def
/reencodefont {
  findfont dup length dict begin
  { 1 index /FID ne
    { def }
    { pop pop } ifelse
  } forall
  /Encoding ISOLatin1Encoding def
  currentdict
  end } bind def
/KicadFont /Helvetica reencodefont definefont pop
/KicadFont-Bold /Helvetica-Bold reencodefont definefont pop
/KicadFont-Oblique /Helvetica-Oblique reencodefont definefont pop
/KicadFont-BoldOblique /Helvetica-BoldOblique reencodefont definefont pop
%%EndProlog
%%Page: 1 1
%%BeginPageSetup
gsave
0.0072 0.0072 scale
linemode1
116930 0 translate 90 rotate
59.0551 setlinewidth
%%EndPageSetup
0 0 0 setrgbcolor
0 0 0 setrgbcolor
58.1102 setlinewidth
(V 0.1) 88350 56950 phantomshow
newpath
87600.1 56715.7 moveto
87731.3 57109.4 lineto
87862.6 56715.7 lineto
stroke
newpath
88368.7 56715.7 moveto
88406.2 56715.7 lineto
88443.7 56734.4 lineto
88462.5 56753.1 lineto
88481.2 56790.6 lineto
88500 56865.6 lineto
88500 56959.4 lineto
88481.2 57034.4 lineto
88462.5 57071.9 lineto
88443.7 57090.6 lineto
88406.2 57109.4 lineto
88368.7 57109.4 lineto
88331.3 57090.6 lineto
88312.5 57071.9 lineto
88293.8 57034.4 lineto
88275 56959.4 lineto
88275 56865.6 lineto
88293.8 56790.6 lineto
88312.5 56753.1 lineto
88331.3 56734.4 lineto
88368.7 56715.7 lineto
stroke
newpath
88668.7 57071.9 moveto
88687.5 57090.6 lineto
88668.7 57109.4 lineto
88650 57090.6 lineto
88668.7 57071.9 lineto
88668.7 57109.4 lineto
stroke
newpath
89062.4 57109.4 moveto
88837.4 57109.4 lineto
stroke
newpath
88949.9 57109.4 moveto
88949.9 56715.7 lineto
88912.4 56771.9 lineto
88874.9 56809.4 lineto
88837.4 56828.1 lineto
stroke
0 0 0 setrgbcolor
(LABoral ) 91850 56950 phantomshow
newpath
90875.1 57109.4 moveto
90687.6 57109.4 lineto
90687.6 56715.7 lineto
stroke
newpath
90987.6 56996.9 moveto
91175.1 56996.9 lineto
stroke
newpath
90950.1 57109.4 moveto
91081.3 56715.7 lineto
91212.6 57109.4 lineto
stroke
newpath
91475 56903.1 moveto
91531.3 56921.9 lineto
91550 56940.6 lineto
91568.8 56978.1 lineto
91568.8 57034.4 lineto
91550 57071.9 lineto
91531.3 57090.6 lineto
91493.8 57109.4 lineto
91343.8 57109.4 lineto
91343.8 56715.7 lineto
91475 56715.7 lineto
91512.5 56734.4 lineto
91531.3 56753.1 lineto
91550 56790.6 lineto
91550 56828.1 lineto
91531.3 56865.6 lineto
91512.5 56884.4 lineto
91475 56903.1 lineto
91343.8 56903.1 lineto
stroke
newpath
91793.8 57109.4 moveto
91756.3 57090.6 lineto
91737.5 57071.9 lineto
91718.8 57034.4 lineto
91718.8 56921.9 lineto
91737.5 56884.4 lineto
91756.3 56865.6 lineto
91793.8 56846.9 lineto
91850 56846.9 lineto
91887.5 56865.6 lineto
91906.2 56884.4 lineto
91925 56921.9 lineto
91925 57034.4 lineto
91906.2 57071.9 lineto
91887.5 57090.6 lineto
91850 57109.4 lineto
91793.8 57109.4 lineto
stroke
newpath
92093.7 57109.4 moveto
92093.7 56846.9 lineto
stroke
newpath
92093.7 56921.9 moveto
92112.5 56884.4 lineto
92131.2 56865.6 lineto
92168.7 56846.9 lineto
92206.2 56846.9 lineto
stroke
newpath
92506.2 57109.4 moveto
92506.2 56903.1 lineto
92487.4 56865.6 lineto
92449.9 56846.9 lineto
92374.9 56846.9 lineto
92337.4 56865.6 lineto
stroke
newpath
92506.2 57090.6 moveto
92468.7 57109.4 lineto
92374.9 57109.4 lineto
92337.4 57090.6 lineto
92318.7 57053.1 lineto
92318.7 57015.6 lineto
92337.4 56978.1 lineto
92374.9 56959.4 lineto
92468.7 56959.4 lineto
92506.2 56940.6 lineto
stroke
newpath
92749.9 57109.4 moveto
92712.4 57090.6 lineto
92693.6 57053.1 lineto
92693.6 56715.7 lineto
stroke
0 0 0 setrgbcolor
58.4252 setlinewidth
(A.C.U.E. Prototype) 90100 56200 phantomshow
newpath
87503.4 56246.9 moveto
87690.9 56246.9 lineto
stroke
newpath
87466 56359.4 moveto
87597.2 55965.7 lineto
87728.4 56359.4 lineto
stroke
newpath
87859.7 56321.9 moveto
87878.4 56340.6 lineto
87859.7 56359.4 lineto
87840.9 56340.6 lineto
87859.7 56321.9 lineto
87859.7 56359.4 lineto
stroke
newpath
88272.1 56321.9 moveto
88253.4 56340.6 lineto
88197.1 56359.4 lineto
88159.6 56359.4 lineto
88103.4 56340.6 lineto
88065.9 56303.1 lineto
88047.1 56265.6 lineto
88028.4 56190.6 lineto
88028.4 56134.4 lineto
88047.1 56059.4 lineto
88065.9 56021.9 lineto
88103.4 55984.4 lineto
88159.6 55965.7 lineto
88197.1 55965.7 lineto
88253.4 55984.4 lineto
88272.1 56003.1 lineto
stroke
newpath
88440.8 56321.9 moveto
88459.6 56340.6 lineto
88440.8 56359.4 lineto
88422.1 56340.6 lineto
88440.8 56321.9 lineto
88440.8 56359.4 lineto
stroke
newpath
88628.3 55965.7 moveto
88628.3 56284.4 lineto
88647.1 56321.9 lineto
88665.8 56340.6 lineto
88703.3 56359.4 lineto
88778.3 56359.4 lineto
88815.8 56340.6 lineto
88834.5 56321.9 lineto
88853.3 56284.4 lineto
88853.3 55965.7 lineto
stroke
newpath
89040.8 56321.9 moveto
89059.5 56340.6 lineto
89040.8 56359.4 lineto
89022 56340.6 lineto
89040.8 56321.9 lineto
89040.8 56359.4 lineto
stroke
newpath
89228.2 56153.1 moveto
89359.5 56153.1 lineto
stroke
newpath
89415.7 56359.4 moveto
89228.2 56359.4 lineto
89228.2 55965.7 lineto
89415.7 55965.7 lineto
stroke
newpath
89584.4 56321.9 moveto
89603.2 56340.6 lineto
89584.4 56359.4 lineto
89565.7 56340.6 lineto
89584.4 56321.9 lineto
89584.4 56359.4 lineto
stroke
newpath
90071.9 56359.4 moveto
90071.9 55965.7 lineto
90221.9 55965.7 lineto
90259.4 55984.4 lineto
90278.1 56003.1 lineto
90296.9 56040.6 lineto
90296.9 56096.9 lineto
90278.1 56134.4 lineto
90259.4 56153.1 lineto
90221.9 56171.9 lineto
90071.9 56171.9 lineto
stroke
newpath
90465.6 56359.4 moveto
90465.6 56096.9 lineto
stroke
newpath
90465.6 56171.9 moveto
90484.3 56134.4 lineto
90503.1 56115.6 lineto
90540.6 56096.9 lineto
90578.1 56096.9 lineto
stroke
newpath
90765.5 56359.4 moveto
90728 56340.6 lineto
90709.3 56321.9 lineto
90690.6 56284.4 lineto
90690.6 56171.9 lineto
90709.3 56134.4 lineto
90728 56115.6 lineto
90765.5 56096.9 lineto
90821.8 56096.9 lineto
90859.3 56115.6 lineto
90878 56134.4 lineto
90896.8 56171.9 lineto
90896.8 56284.4 lineto
90878 56321.9 lineto
90859.3 56340.6 lineto
90821.8 56359.4 lineto
90765.5 56359.4 lineto
stroke
newpath
91009.3 56096.9 moveto
91159.2 56096.9 lineto
stroke
newpath
91065.5 55965.7 moveto
91065.5 56303.1 lineto
91084.3 56340.6 lineto
91121.7 56359.4 lineto
91159.2 56359.4 lineto
stroke
newpath
91346.7 56359.4 moveto
91309.2 56340.6 lineto
91290.5 56321.9 lineto
91271.7 56284.4 lineto
91271.7 56171.9 lineto
91290.5 56134.4 lineto
91309.2 56115.6 lineto
91346.7 56096.9 lineto
91403 56096.9 lineto
91440.5 56115.6 lineto
91459.2 56134.4 lineto
91478 56171.9 lineto
91478 56284.4 lineto
91459.2 56321.9 lineto
91440.5 56340.6 lineto
91403 56359.4 lineto
91346.7 56359.4 lineto
stroke
newpath
91590.4 56096.9 moveto
91740.4 56096.9 lineto
stroke
newpath
91646.7 55965.7 moveto
91646.7 56303.1 lineto
91665.4 56340.6 lineto
91702.9 56359.4 lineto
91740.4 56359.4 lineto
stroke
newpath
91834.2 56096.9 moveto
91927.9 56359.4 lineto
stroke
newpath
92021.6 56096.9 moveto
91927.9 56359.4 lineto
91890.4 56453.1 lineto
91871.7 56471.8 lineto
91834.2 56490.6 lineto
stroke
newpath
92171.6 56096.9 moveto
92171.6 56490.6 lineto
stroke
newpath
92171.6 56115.6 moveto
92209.1 56096.9 lineto
92284.1 56096.9 lineto
92321.6 56115.6 lineto
92340.3 56134.4 lineto
92359.1 56171.9 lineto
92359.1 56284.4 lineto
92340.3 56321.9 lineto
92321.6 56340.6 lineto
92284.1 56359.4 lineto
92209.1 56359.4 lineto
92171.6 56340.6 lineto
stroke
newpath
92677.8 56340.6 moveto
92640.3 56359.4 lineto
92565.3 56359.4 lineto
92527.8 56340.6 lineto
92509.1 56303.1 lineto
92509.1 56153.1 lineto
92527.8 56115.6 lineto
92565.3 56096.9 lineto
92640.3 56096.9 lineto
92677.8 56115.6 lineto
92696.6 56153.1 lineto
92696.6 56190.6 lineto
92509.1 56228.1 lineto
stroke
0 0 0 setrgbcolor
(fabLAB Asturias) 90600 55450 phantomshow
newpath
88322.2 55346.9 moveto
88472.1 55346.9 lineto
stroke
newpath
88378.4 55609.4 moveto
88378.4 55271.9 lineto
88397.1 55234.4 lineto
88434.6 55215.7 lineto
88472.1 55215.7 lineto
stroke
newpath
88772.1 55609.4 moveto
88772.1 55403.1 lineto
88753.4 55365.6 lineto
88715.9 55346.9 lineto
88640.9 55346.9 lineto
88603.4 55365.6 lineto
stroke
newpath
88772.1 55590.6 moveto
88734.6 55609.4 lineto
88640.9 55609.4 lineto
88603.4 55590.6 lineto
88584.6 55553.1 lineto
88584.6 55515.6 lineto
88603.4 55478.1 lineto
88640.9 55459.4 lineto
88734.6 55459.4 lineto
88772.1 55440.6 lineto
stroke
newpath
88959.6 55609.4 moveto
88959.6 55215.7 lineto
stroke
newpath
88959.6 55365.6 moveto
88997.1 55346.9 lineto
89072.1 55346.9 lineto
89109.6 55365.6 lineto
89128.3 55384.4 lineto
89147.1 55421.9 lineto
89147.1 55534.4 lineto
89128.3 55571.9 lineto
89109.6 55590.6 lineto
89072.1 55609.4 lineto
88997.1 55609.4 lineto
88959.6 55590.6 lineto
stroke
newpath
89503.3 55609.4 moveto
89315.8 55609.4 lineto
89315.8 55215.7 lineto
stroke
newpath
89615.7 55496.9 moveto
89803.2 55496.9 lineto
stroke
newpath
89578.3 55609.4 moveto
89709.5 55215.7 lineto
89840.7 55609.4 lineto
stroke
newpath
90103.2 55403.1 moveto
90159.4 55421.9 lineto
90178.2 55440.6 lineto
90196.9 55478.1 lineto
90196.9 55534.4 lineto
90178.2 55571.9 lineto
90159.4 55590.6 lineto
90121.9 55609.4 lineto
89972 55609.4 lineto
89972 55215.7 lineto
90103.2 55215.7 lineto
90140.7 55234.4 lineto
90159.4 55253.1 lineto
90178.2 55290.6 lineto
90178.2 55328.1 lineto
90159.4 55365.6 lineto
90140.7 55384.4 lineto
90103.2 55403.1 lineto
89972 55403.1 lineto
stroke
newpath
90646.9 55496.9 moveto
90834.3 55496.9 lineto
stroke
newpath
90609.4 55609.4 moveto
90740.6 55215.7 lineto
90871.8 55609.4 lineto
stroke
newpath
90984.3 55590.6 moveto
91021.8 55609.4 lineto
91096.8 55609.4 lineto
91134.3 55590.6 lineto
91153.1 55553.1 lineto
91153.1 55534.4 lineto
91134.3 55496.9 lineto
91096.8 55478.1 lineto
91040.6 55478.1 lineto
91003.1 55459.4 lineto
90984.3 55421.9 lineto
90984.3 55403.1 lineto
91003.1 55365.6 lineto
91040.6 55346.9 lineto
91096.8 55346.9 lineto
91134.3 55365.6 lineto
stroke
newpath
91265.5 55346.9 moveto
91415.5 55346.9 lineto
stroke
newpath
91321.8 55215.7 moveto
91321.8 55553.1 lineto
91340.5 55590.6 lineto
91378 55609.4 lineto
91415.5 55609.4 lineto
stroke
newpath
91715.5 55346.9 moveto
91715.5 55609.4 lineto
stroke
newpath
91546.8 55346.9 moveto
91546.8 55553.1 lineto
91565.5 55590.6 lineto
91603 55609.4 lineto
91659.2 55609.4 lineto
91696.7 55590.6 lineto
91715.5 55571.9 lineto
stroke
newpath
91903 55609.4 moveto
91903 55346.9 lineto
stroke
newpath
91903 55421.9 moveto
91921.7 55384.4 lineto
91940.5 55365.6 lineto
91978 55346.9 lineto
92015.4 55346.9 lineto
stroke
newpath
92146.7 55609.4 moveto
92146.7 55346.9 lineto
stroke
newpath
92146.7 55215.7 moveto
92127.9 55234.4 lineto
92146.7 55253.1 lineto
92165.4 55234.4 lineto
92146.7 55215.7 lineto
92146.7 55253.1 lineto
stroke
newpath
92502.9 55609.4 moveto
92502.9 55403.1 lineto
92484.1 55365.6 lineto
92446.6 55346.9 lineto
92371.7 55346.9 lineto
92334.2 55365.6 lineto
stroke
newpath
92502.9 55590.6 moveto
92465.4 55609.4 lineto
92371.7 55609.4 lineto
92334.2 55590.6 lineto
92315.4 55553.1 lineto
92315.4 55515.6 lineto
92334.2 55478.1 lineto
92371.7 55459.4 lineto
92465.4 55459.4 lineto
92502.9 55440.6 lineto
stroke
newpath
92671.6 55590.6 moveto
92709.1 55609.4 lineto
92784.1 55609.4 lineto
92821.6 55590.6 lineto
92840.3 55553.1 lineto
92840.3 55534.4 lineto
92821.6 55496.9 lineto
92784.1 55478.1 lineto
92727.9 55478.1 lineto
92690.4 55459.4 lineto
92671.6 55421.9 lineto
92671.6 55403.1 lineto
92690.4 55365.6 lineto
92727.9 55346.9 lineto
92784.1 55346.9 lineto
92821.6 55365.6 lineto
stroke
0 0 0 setrgbcolor
59.0551 setlinewidth
newpath
73970.5 57895.5 moveto
73729.5 57895.5 lineto
73729.5 57754.5 lineto
73970.5 57754.5 lineto
73970.5 57895.5 lineto
poly1
0 0 0 setrgbcolor
newpath
73970.5 57145.5 moveto
73729.5 57145.5 lineto
73729.5 57004.5 lineto
73970.5 57004.5 lineto
73970.5 57145.5 lineto
poly1
0 0 0 setrgbcolor
newpath
72970.5 57895.5 moveto
72729.5 57895.5 lineto
72729.5 57754.5 lineto
72970.5 57754.5 lineto
72970.5 57895.5 lineto
poly1
0 0 0 setrgbcolor
newpath
73970.5 57520.5 moveto
73729.5 57520.5 lineto
73729.5 57379.5 lineto
73970.5 57379.5 lineto
73970.5 57520.5 lineto
poly1
0 0 0 setrgbcolor
newpath
72970.5 57145.5 moveto
72729.5 57145.5 lineto
72729.5 57004.5 lineto
72970.5 57004.5 lineto
72970.5 57145.5 lineto
poly1
0 0 0 setrgbcolor
newpath
85079.5 60945.5 moveto
85079.5 60454.5 lineto
85370.5 60454.5 lineto
85370.5 60945.5 lineto
85079.5 60945.5 lineto
poly1
0 0 0 setrgbcolor
newpath
85829.5 60945.5 moveto
85829.5 60454.5 lineto
86120.5 60454.5 lineto
86120.5 60945.5 lineto
85829.5 60945.5 lineto
poly1
0 0 0 setrgbcolor
newpath
71604.5 56929.5 moveto
72095.5 56929.5 lineto
72095.5 57220.5 lineto
71604.5 57220.5 lineto
71604.5 56929.5 lineto
poly1
0 0 0 setrgbcolor
newpath
71604.5 57679.5 moveto
72095.5 57679.5 lineto
72095.5 57970.5 lineto
71604.5 57970.5 lineto
71604.5 57679.5 lineto
poly1
0 0 0 setrgbcolor
newpath
70604.5 56929.5 moveto
71095.5 56929.5 lineto
71095.5 57220.5 lineto
70604.5 57220.5 lineto
70604.5 56929.5 lineto
poly1
0 0 0 setrgbcolor
newpath
70604.5 57679.5 moveto
71095.5 57679.5 lineto
71095.5 57970.5 lineto
70604.5 57970.5 lineto
70604.5 57679.5 lineto
poly1
0 0 0 setrgbcolor
newpath
74604.5 57179.5 moveto
75095.5 57179.5 lineto
75095.5 57470.5 lineto
74604.5 57470.5 lineto
74604.5 57179.5 lineto
poly1
0 0 0 setrgbcolor
newpath
74604.5 57929.5 moveto
75095.5 57929.5 lineto
75095.5 58220.5 lineto
74604.5 58220.5 lineto
74604.5 57929.5 lineto
poly1
0 0 0 setrgbcolor
newpath
74604.5 55679.5 moveto
75095.5 55679.5 lineto
75095.5 55970.5 lineto
74604.5 55970.5 lineto
74604.5 55679.5 lineto
poly1
0 0 0 setrgbcolor
newpath
74604.5 56429.5 moveto
75095.5 56429.5 lineto
75095.5 56720.5 lineto
74604.5 56720.5 lineto
74604.5 56429.5 lineto
poly1
0 0 0 setrgbcolor
newpath
75620.5 58704.5 moveto
75620.5 59195.5 lineto
75329.5 59195.5 lineto
75329.5 58704.5 lineto
75620.5 58704.5 lineto
poly1
0 0 0 setrgbcolor
newpath
74870.5 58704.5 moveto
74870.5 59195.5 lineto
74579.5 59195.5 lineto
74579.5 58704.5 lineto
74870.5 58704.5 lineto
poly1
0 0 0 setrgbcolor
newpath
75854.5 57179.5 moveto
76345.5 57179.5 lineto
76345.5 57470.5 lineto
75854.5 57470.5 lineto
75854.5 57179.5 lineto
poly1
0 0 0 setrgbcolor
newpath
75854.5 57929.5 moveto
76345.5 57929.5 lineto
76345.5 58220.5 lineto
75854.5 58220.5 lineto
75854.5 57929.5 lineto
poly1
0 0 0 setrgbcolor
newpath
81370.5 57704.5 moveto
81370.5 58195.5 lineto
81079.5 58195.5 lineto
81079.5 57704.5 lineto
81370.5 57704.5 lineto
poly1
0 0 0 setrgbcolor
newpath
80620.5 57704.5 moveto
80620.5 58195.5 lineto
80329.5 58195.5 lineto
80329.5 57704.5 lineto
80620.5 57704.5 lineto
poly1
0 0 0 setrgbcolor
newpath
81370.5 58454.5 moveto
81370.5 58945.5 lineto
81079.5 58945.5 lineto
81079.5 58454.5 lineto
81370.5 58454.5 lineto
poly1
0 0 0 setrgbcolor
newpath
80620.5 58454.5 moveto
80620.5 58945.5 lineto
80329.5 58945.5 lineto
80329.5 58454.5 lineto
80620.5 58454.5 lineto
poly1
0 0 0 setrgbcolor
newpath
76854.5 55679.5 moveto
77345.5 55679.5 lineto
77345.5 55970.5 lineto
76854.5 55970.5 lineto
76854.5 55679.5 lineto
poly1
0 0 0 setrgbcolor
newpath
76854.5 56429.5 moveto
77345.5 56429.5 lineto
77345.5 56720.5 lineto
76854.5 56720.5 lineto
76854.5 56429.5 lineto
poly1
0 0 0 setrgbcolor
newpath
80854.5 55679.5 moveto
81345.5 55679.5 lineto
81345.5 55970.5 lineto
80854.5 55970.5 lineto
80854.5 55679.5 lineto
poly1
0 0 0 setrgbcolor
newpath
80854.5 56429.5 moveto
81345.5 56429.5 lineto
81345.5 56720.5 lineto
80854.5 56720.5 lineto
80854.5 56429.5 lineto
poly1
0 0 0 setrgbcolor
newpath
79854.5 55679.5 moveto
80345.5 55679.5 lineto
80345.5 55970.5 lineto
79854.5 55970.5 lineto
79854.5 55679.5 lineto
poly1
0 0 0 setrgbcolor
newpath
79854.5 56429.5 moveto
80345.5 56429.5 lineto
80345.5 56720.5 lineto
79854.5 56720.5 lineto
79854.5 56429.5 lineto
poly1
0 0 0 setrgbcolor
newpath
85079.5 59945.5 moveto
85079.5 59454.5 lineto
85370.5 59454.5 lineto
85370.5 59945.5 lineto
85079.5 59945.5 lineto
poly1
0 0 0 setrgbcolor
newpath
85829.5 59945.5 moveto
85829.5 59454.5 lineto
86120.5 59454.5 lineto
86120.5 59945.5 lineto
85829.5 59945.5 lineto
poly1
0 0 0 setrgbcolor
newpath
86345.5 63454.5 moveto
86345.5 63945.5 lineto
85854.5 63945.5 lineto
85854.5 63454.5 lineto
86345.5 63454.5 lineto
poly1
0 0 0 setrgbcolor
85100 63700 245.472 cir1
0 0 0 setrgbcolor
84100 63700 245.472 cir1
0 0 0 setrgbcolor
83100 63700 245.472 cir1
0 0 0 setrgbcolor
82100 63700 245.472 cir1
0 0 0 setrgbcolor
81100 63700 245.472 cir1
0 0 0 setrgbcolor
newpath
67845.5 59445.5 moveto
67354.5 59445.5 lineto
67354.5 58954.5 lineto
67845.5 58954.5 lineto
67845.5 59445.5 lineto
poly1
0 0 0 setrgbcolor
67600 58200 245.472 cir1
0 0 0 setrgbcolor
67600 57200 245.472 cir1
0 0 0 setrgbcolor
67600 56200 245.472 cir1
0 0 0 setrgbcolor
67600 55200 245.472 cir1
0 0 0 setrgbcolor
newpath
81345.5 54454.5 moveto
81345.5 54945.5 lineto
80854.5 54945.5 lineto
80854.5 54454.5 lineto
81345.5 54454.5 lineto
poly1
0 0 0 setrgbcolor
80100 54700 245.472 cir1
0 0 0 setrgbcolor
79100 54700 245.472 cir1
0 0 0 setrgbcolor
78100 54700 245.472 cir1
0 0 0 setrgbcolor
77100 54700 245.472 cir1
0 0 0 setrgbcolor
newpath
86345.5 54454.5 moveto
86345.5 54945.5 lineto
85854.5 54945.5 lineto
85854.5 54454.5 lineto
86345.5 54454.5 lineto
poly1
0 0 0 setrgbcolor
85100 54700 245.472 cir1
0 0 0 setrgbcolor
84100 54700 245.472 cir1
0 0 0 setrgbcolor
83100 54700 245.472 cir1
0 0 0 setrgbcolor
newpath
80345.5 63454.5 moveto
80345.5 63945.5 lineto
79854.5 63945.5 lineto
79854.5 63454.5 lineto
80345.5 63454.5 lineto
poly1
0 0 0 setrgbcolor
79100 63700 245.472 cir1
0 0 0 setrgbcolor
78100 63700 245.472 cir1
0 0 0 setrgbcolor
newpath
74854.5 63945.5 moveto
74854.5 63454.5 lineto
75345.5 63454.5 lineto
75345.5 63945.5 lineto
74854.5 63945.5 lineto
poly1
0 0 0 setrgbcolor
76100 63700 245.472 cir1
0 0 0 setrgbcolor
newpath
93845.5 61945.5 moveto
93354.5 61945.5 lineto
93354.5 61454.5 lineto
93845.5 61454.5 lineto
93845.5 61945.5 lineto
poly1
0 0 0 setrgbcolor
93600 60700 245.472 cir1
0 0 0 setrgbcolor
593 setlinewidth
newpath
67303 62700 moveto
67897 62700 lineto
stroke
0 0 0 setrgbcolor
newpath
67303 61700 moveto
67897 61700 lineto
stroke
0 0 0 setrgbcolor
newpath
67303 60700 moveto
67897 60700 lineto
stroke
0 0 0 setrgbcolor
newpath
70850 54903 moveto
70850 55497 lineto
stroke
0 0 0 setrgbcolor
newpath
71850 54903 moveto
71850 55497 lineto
stroke
0 0 0 setrgbcolor
59.0551 setlinewidth
newpath
79670.5 61520.5 moveto
79670.5 61079.5 lineto
79761.5 61079.5 lineto
79761.5 61520.5 lineto
79670.5 61520.5 lineto
poly1
0 0 0 setrgbcolor
newpath
79926.5 61520.5 moveto
79926.5 61079.5 lineto
80017.5 61079.5 lineto
80017.5 61520.5 lineto
79926.5 61520.5 lineto
poly1
0 0 0 setrgbcolor
newpath
80182.5 61520.5 moveto
80182.5 61079.5 lineto
80273.5 61079.5 lineto
80273.5 61520.5 lineto
80182.5 61520.5 lineto
poly1
0 0 0 setrgbcolor
newpath
80438.5 61520.5 moveto
80438.5 61079.5 lineto
80529.5 61079.5 lineto
80529.5 61520.5 lineto
80438.5 61520.5 lineto
poly1
0 0 0 setrgbcolor
newpath
80438.5 59820.5 moveto
80438.5 59379.5 lineto
80529.5 59379.5 lineto
80529.5 59820.5 lineto
80438.5 59820.5 lineto
poly1
0 0 0 setrgbcolor
newpath
80182.5 59820.5 moveto
80182.5 59379.5 lineto
80273.5 59379.5 lineto
80273.5 59820.5 lineto
80182.5 59820.5 lineto
poly1
0 0 0 setrgbcolor
newpath
79926.5 59820.5 moveto
79926.5 59379.5 lineto
80017.5 59379.5 lineto
80017.5 59820.5 lineto
79926.5 59820.5 lineto
poly1
0 0 0 setrgbcolor
newpath
79670.5 59820.5 moveto
79670.5 59379.5 lineto
79761.5 59379.5 lineto
79761.5 59820.5 lineto
79670.5 59820.5 lineto
poly1
0 0 0 setrgbcolor
newpath
70345.5 59720.5 moveto
69854.5 59720.5 lineto
69854.5 59429.5 lineto
70345.5 59429.5 lineto
70345.5 59720.5 lineto
poly1
0 0 0 setrgbcolor
newpath
70345.5 58970.5 moveto
69854.5 58970.5 lineto
69854.5 58679.5 lineto
70345.5 58679.5 lineto
70345.5 58970.5 lineto
poly1
0 0 0 setrgbcolor
newpath
77854.5 61179.5 moveto
78345.5 61179.5 lineto
78345.5 61470.5 lineto
77854.5 61470.5 lineto
77854.5 61179.5 lineto
poly1
0 0 0 setrgbcolor
newpath
77854.5 61929.5 moveto
78345.5 61929.5 lineto
78345.5 62220.5 lineto
77854.5 62220.5 lineto
77854.5 61929.5 lineto
poly1
0 0 0 setrgbcolor
newpath
78604.5 61179.5 moveto
79095.5 61179.5 lineto
79095.5 61470.5 lineto
78604.5 61470.5 lineto
78604.5 61179.5 lineto
poly1
0 0 0 setrgbcolor
newpath
78604.5 61929.5 moveto
79095.5 61929.5 lineto
79095.5 62220.5 lineto
78604.5 62220.5 lineto
78604.5 61929.5 lineto
poly1
0 0 0 setrgbcolor
newpath
69079.5 55445.5 moveto
69079.5 54954.5 lineto
69370.5 54954.5 lineto
69370.5 55445.5 lineto
69079.5 55445.5 lineto
poly1
0 0 0 setrgbcolor
newpath
69829.5 55445.5 moveto
69829.5 54954.5 lineto
70120.5 54954.5 lineto
70120.5 55445.5 lineto
69829.5 55445.5 lineto
poly1
0 0 0 setrgbcolor
newpath
75329.5 55195.5 moveto
75329.5 54704.5 lineto
75620.5 54704.5 lineto
75620.5 55195.5 lineto
75329.5 55195.5 lineto
poly1
0 0 0 setrgbcolor
newpath
76079.5 55195.5 moveto
76079.5 54704.5 lineto
76370.5 54704.5 lineto
76370.5 55195.5 lineto
76079.5 55195.5 lineto
poly1
0 0 0 setrgbcolor
newpath
68329.5 56445.5 moveto
68329.5 55954.5 lineto
68620.5 55954.5 lineto
68620.5 56445.5 lineto
68329.5 56445.5 lineto
poly1
0 0 0 setrgbcolor
newpath
69079.5 56445.5 moveto
69079.5 55954.5 lineto
69370.5 55954.5 lineto
69370.5 56445.5 lineto
69079.5 56445.5 lineto
poly1
0 0 0 setrgbcolor
newpath
69595.5 59720.5 moveto
69104.5 59720.5 lineto
69104.5 59429.5 lineto
69595.5 59429.5 lineto
69595.5 59720.5 lineto
poly1
0 0 0 setrgbcolor
newpath
69595.5 58970.5 moveto
69104.5 58970.5 lineto
69104.5 58679.5 lineto
69595.5 58679.5 lineto
69595.5 58970.5 lineto
poly1
0 0 0 setrgbcolor
newpath
72405.5 60741.6 moveto
72058.4 60394.5 lineto
72264.1 60188.7 lineto
72611.3 60535.9 lineto
72405.5 60741.6 lineto
poly1
0 0 0 setrgbcolor
newpath
72935.9 60211.3 moveto
72588.7 59864.1 lineto
72794.5 59658.4 lineto
73141.6 60005.5 lineto
72935.9 60211.3 lineto
poly1
0 0 0 setrgbcolor
newpath
78255.5 57887 moveto
78255.5 58182.3 lineto
77724 58182.3 lineto
77724 57887 lineto
78255.5 57887 lineto
poly1
0 0 0 setrgbcolor
newpath
78255.5 57217.7 moveto
78255.5 57513 lineto
77724 57513 lineto
77724 57217.7 lineto
78255.5 57217.7 lineto
poly1
0 0 0 setrgbcolor
newpath
79476 57887 moveto
79476 58182.3 lineto
78944.5 58182.3 lineto
78944.5 57887 lineto
79476 57887 lineto
poly1
0 0 0 setrgbcolor
newpath
79476 57217.7 moveto
79476 57513 lineto
78944.5 57513 lineto
78944.5 57217.7 lineto
79476 57217.7 lineto
poly1
0 0 0 setrgbcolor
newpath
77003.5 60599.6 moveto
76196.5 60599.6 lineto
76196.5 60146.9 lineto
77003.5 60146.9 lineto
77003.5 60599.6 lineto
poly1
0 0 0 setrgbcolor
newpath
77003.5 62253.1 moveto
76196.5 62253.1 lineto
76196.5 61800.4 lineto
77003.5 61800.4 lineto
77003.5 62253.1 lineto
poly1
0 0 0 setrgbcolor
newpath
75260.5 60413.5 moveto
75260.5 59862.5 lineto
75437.5 59862.5 lineto
75437.5 60413.5 lineto
75260.5 60413.5 lineto
poly1
0 0 0 setrgbcolor
newpath
74760.5 60413.5 moveto
74760.5 59862.5 lineto
74937.5 59862.5 lineto
74937.5 60413.5 lineto
74760.5 60413.5 lineto
poly1
0 0 0 setrgbcolor
newpath
74262.5 60413.5 moveto
74262.5 59862.5 lineto
74439.5 59862.5 lineto
74439.5 60413.5 lineto
74262.5 60413.5 lineto
poly1
0 0 0 setrgbcolor
newpath
73762.5 60413.5 moveto
73762.5 59862.5 lineto
73939.5 59862.5 lineto
73939.5 60413.5 lineto
73762.5 60413.5 lineto
poly1
0 0 0 setrgbcolor
newpath
73939.5 61986.5 moveto
73939.5 62537.5 lineto
73762.5 62537.5 lineto
73762.5 61986.5 lineto
73939.5 61986.5 lineto
poly1
0 0 0 setrgbcolor
newpath
74439.5 61986.5 moveto
74439.5 62537.5 lineto
74262.5 62537.5 lineto
74262.5 61986.5 lineto
74439.5 61986.5 lineto
poly1
0 0 0 setrgbcolor
newpath
74937.5 61986.5 moveto
74937.5 62537.5 lineto
74760.5 62537.5 lineto
74760.5 61986.5 lineto
74937.5 61986.5 lineto
poly1
0 0 0 setrgbcolor
newpath
75437.5 61986.5 moveto
75437.5 62537.5 lineto
75260.5 62537.5 lineto
75260.5 61986.5 lineto
75437.5 61986.5 lineto
poly1
0 0 0 setrgbcolor
100 setlinewidth
newpath
79972 59600 moveto
79972 60328 lineto
stroke
0 0 0 setrgbcolor
newpath
77100 58950 moveto
75475 58950 lineto
stroke
0 0 0 setrgbcolor
newpath
78600 60450 moveto
77100 58950 lineto
stroke
0 0 0 setrgbcolor
newpath
79850 60450 moveto
78600 60450 lineto
stroke
0 0 0 setrgbcolor
newpath
79972 60328 moveto
79850 60450 lineto
stroke
0 0 0 setrgbcolor
newpath
80228 59600 moveto
79972 59600 lineto
stroke
0 0 0 setrgbcolor
newpath
76100 58075 moveto
76100 58200 lineto
stroke
0 0 0 setrgbcolor
newpath
76100 58200 moveto
75475 58825 lineto
stroke
0 0 0 setrgbcolor
newpath
75475 58825 moveto
75475 58950 lineto
stroke
0 0 0 setrgbcolor
newpath
80100 63700 moveto
80100 63950 lineto
stroke
0 0 0 setrgbcolor
newpath
85225 61325 moveto
85225 60700 lineto
stroke
0 0 0 setrgbcolor
newpath
85600 61700 moveto
85225 61325 lineto
stroke
0 0 0 setrgbcolor
newpath
86100 61700 moveto
85600 61700 lineto
stroke
0 0 0 setrgbcolor
newpath
87350 62950 moveto
86100 61700 lineto
stroke
0 0 0 setrgbcolor
newpath
87350 63950 moveto
87350 62950 lineto
stroke
0 0 0 setrgbcolor
newpath
86850 64450 moveto
87350 63950 lineto
stroke
0 0 0 setrgbcolor
newpath
80600 64450 moveto
86850 64450 lineto
stroke
0 0 0 setrgbcolor
newpath
80100 63950 moveto
80600 64450 lineto
stroke
0 0 0 setrgbcolor
newpath
85225 60700 moveto
85225 59700 lineto
stroke
0 0 0 setrgbcolor
newpath
78100 60700 moveto
78350 60700 lineto
stroke
0 0 0 setrgbcolor
newpath
76850 59450 moveto
78100 60700 lineto
stroke
0 0 0 setrgbcolor
newpath
74350 59450 moveto
76850 59450 lineto
stroke
0 0 0 setrgbcolor
newpath
73850 58950 moveto
74350 59450 lineto
stroke
0 0 0 setrgbcolor
newpath
73850 57825 moveto
73850 58950 lineto
stroke
0 0 0 setrgbcolor
newpath
78850 61200 moveto
78850 61325 lineto
stroke
0 0 0 setrgbcolor
newpath
78350 60700 moveto
78850 61200 lineto
stroke
0 0 0 setrgbcolor
newpath
71850 57825 moveto
72225 57825 lineto
stroke
0 0 0 setrgbcolor
newpath
73475 57825 moveto
73850 57825 lineto
stroke
0 0 0 setrgbcolor
newpath
73100 57450 moveto
73475 57825 lineto
stroke
0 0 0 setrgbcolor
newpath
72600 57450 moveto
73100 57450 lineto
stroke
0 0 0 setrgbcolor
newpath
72225 57825 moveto
72600 57450 lineto
stroke
0 0 0 setrgbcolor
newpath
70850 57825 moveto
71850 57825 lineto
stroke
0 0 0 setrgbcolor
120 setlinewidth
newpath
69350 58825 moveto
68525 58825 lineto
stroke
0 0 0 setrgbcolor
newpath
67600 60100 moveto
67500 60000 lineto
stroke
0 0 0 setrgbcolor
newpath
67500 60000 moveto
66900 60000 lineto
stroke
0 0 0 setrgbcolor
newpath
66900 60000 moveto
66900 59900 lineto
stroke
0 0 0 setrgbcolor
newpath
66900 59900 moveto
66900 59500 lineto
stroke
0 0 0 setrgbcolor
newpath
66900 59500 moveto
66900 59400 lineto
stroke
0 0 0 setrgbcolor
newpath
66900 59400 moveto
66900 58800 lineto
stroke
0 0 0 setrgbcolor
newpath
66900 58800 moveto
67000 58700 lineto
stroke
0 0 0 setrgbcolor
newpath
67000 58700 moveto
68400 58700 lineto
stroke
0 0 0 setrgbcolor
newpath
67600 60100 moveto
67600 60700 lineto
stroke
0 0 0 setrgbcolor
newpath
68525 58825 moveto
68400 58700 lineto
stroke
0 0 0 setrgbcolor
newpath
80228 61300 moveto
79972 61300 lineto
stroke
0 0 0 setrgbcolor
newpath
69225 55200 moveto
69225 56200 lineto
stroke
0 0 0 setrgbcolor
newpath
71850 55200 moveto
71850 54200 lineto
stroke
0 0 0 setrgbcolor
newpath
69975 54575 moveto
69975 55200 lineto
stroke
0 0 0 setrgbcolor
newpath
70350 54200 moveto
69975 54575 lineto
stroke
0 0 0 setrgbcolor
newpath
71850 54200 moveto
70350 54200 lineto
stroke
0 0 0 setrgbcolor
newpath
71850 55200 moveto
74600 55200 lineto
stroke
0 0 0 setrgbcolor
newpath
74850 54950 moveto
75475 54950 lineto
stroke
0 0 0 setrgbcolor
newpath
74600 55200 moveto
74850 54950 lineto
stroke
0 0 0 setrgbcolor
newpath
73850 57450 moveto
73600 57450 lineto
stroke
0 0 0 setrgbcolor
newpath
73350 57200 moveto
73350 56700 lineto
stroke
0 0 0 setrgbcolor
newpath
73600 57450 moveto
73350 57200 lineto
stroke
0 0 0 setrgbcolor
newpath
80228 61300 moveto
80228 61828 lineto
stroke
0 0 0 setrgbcolor
newpath
80228 61828 moveto
80350 61950 lineto
stroke
0 0 0 setrgbcolor
100 setlinewidth
newpath
71850 57075 moveto
72850 57075 lineto
stroke
0 0 0 setrgbcolor
newpath
70850 57075 moveto
71850 57075 lineto
stroke
0 0 0 setrgbcolor
newpath
70850 55200 moveto
70850 55325 lineto
stroke
0 0 0 setrgbcolor
newpath
70850 55325 moveto
70850 57075 lineto
stroke
0 0 0 setrgbcolor
newpath
76100 62700 moveto
77100 62700 lineto
stroke
0 0 0 setrgbcolor
newpath
77100 62700 moveto
77350 62490 lineto
stroke
0 0 0 setrgbcolor
newpath
77350 62490 moveto
77350 61450 lineto
stroke
0 0 0 setrgbcolor
newpath
77350 61450 moveto
77475 61325 lineto
stroke
0 0 0 setrgbcolor
newpath
78100 61325 moveto
77475 61325 lineto
stroke
0 0 0 setrgbcolor
newpath
68600 62700 moveto
69850 61450 lineto
stroke
0 0 0 setrgbcolor
newpath
69850 61450 moveto
73350 61450 lineto
stroke
0 0 0 setrgbcolor
newpath
75600 61450 moveto
74850 61450 lineto
stroke
0 0 0 setrgbcolor
newpath
75600 61450 moveto
75850 61700 lineto
stroke
0 0 0 setrgbcolor
newpath
75850 61700 moveto
75850 62450 lineto
stroke
0 0 0 setrgbcolor
newpath
73850 60950 moveto
73350 61450 lineto
stroke
0 0 0 setrgbcolor
newpath
74350 60950 moveto
73850 60950 lineto
stroke
0 0 0 setrgbcolor
newpath
74850 61450 moveto
74350 60950 lineto
stroke
0 0 0 setrgbcolor
newpath
68600 62700 moveto
67600 62700 lineto
stroke
0 0 0 setrgbcolor
newpath
75850 62450 moveto
76100 62700 lineto
stroke
0 0 0 setrgbcolor
newpath
67600 56200 moveto
67100 56200 lineto
stroke
0 0 0 setrgbcolor
newpath
84100 53950 moveto
84100 54700 lineto
stroke
0 0 0 setrgbcolor
newpath
83600 53450 moveto
84100 53950 lineto
stroke
0 0 0 setrgbcolor
newpath
68600 53450 moveto
83600 53450 lineto
stroke
0 0 0 setrgbcolor
newpath
68100 53950 moveto
68600 53450 lineto
stroke
0 0 0 setrgbcolor
newpath
66850 55200 moveto
68100 53950 lineto
stroke
0 0 0 setrgbcolor
newpath
66850 55950 moveto
66850 55200 lineto
stroke
0 0 0 setrgbcolor
newpath
67100 56200 moveto
66850 55950 lineto
stroke
0 0 0 setrgbcolor
newpath
77100 54700 moveto
77100 55825 lineto
stroke
0 0 0 setrgbcolor
newpath
80100 54700 moveto
80100 55825 lineto
stroke
0 0 0 setrgbcolor
newpath
81100 54700 moveto
81100 55825 lineto
stroke
0 0 0 setrgbcolor
newpath
70100 58700 moveto
70100 58700 lineto
stroke
0 0 0 setrgbcolor
newpath
83100 54450 moveto
82350 53700 lineto
stroke
0 0 0 setrgbcolor
newpath
82350 53700 moveto
69100 53700 lineto
stroke
0 0 0 setrgbcolor
newpath
69100 53700 moveto
68850 53950 lineto
stroke
0 0 0 setrgbcolor
newpath
68850 53950 moveto
68850 57450 lineto
stroke
0 0 0 setrgbcolor
newpath
68850 57450 moveto
70100 58700 lineto
stroke
0 0 0 setrgbcolor
newpath
83100 54700 moveto
83100 54450 lineto
stroke
0 0 0 setrgbcolor
newpath
70100 58700 moveto
70100 58825 lineto
stroke
0 0 0 setrgbcolor
newpath
78850 62075 moveto
78850 62450 lineto
stroke
0 0 0 setrgbcolor
newpath
78100 63200 moveto
78100 63700 lineto
stroke
0 0 0 setrgbcolor
newpath
78850 62450 moveto
78100 63200 lineto
stroke
0 0 0 setrgbcolor
newpath
77850 62950 moveto
78100 62700 lineto
stroke
0 0 0 setrgbcolor
newpath
77850 62950 moveto
77350 63450 lineto
stroke
0 0 0 setrgbcolor
newpath
77350 63450 moveto
77350 64200 lineto
stroke
0 0 0 setrgbcolor
newpath
77350 64200 moveto
77600 64450 lineto
stroke
0 0 0 setrgbcolor
newpath
77600 64450 moveto
78850 64450 lineto
stroke
0 0 0 setrgbcolor
newpath
78850 64450 moveto
79100 64200 lineto
stroke
0 0 0 setrgbcolor
newpath
79100 63700 moveto
79100 64200 lineto
stroke
0 0 0 setrgbcolor
newpath
78100 62700 moveto
78100 62075 lineto
stroke
0 0 0 setrgbcolor
newpath
76600 62026.8 moveto
76600 61700 lineto
stroke
0 0 0 setrgbcolor
newpath
74849 60949 moveto
74849 60138 lineto
stroke
0 0 0 setrgbcolor
newpath
75100 61200 moveto
74849 60949 lineto
stroke
0 0 0 setrgbcolor
newpath
76100 61200 moveto
75100 61200 lineto
stroke
0 0 0 setrgbcolor
newpath
76600 61700 moveto
76100 61200 lineto
stroke
0 0 0 setrgbcolor
newpath
76600 60373.2 moveto
75773.2 60373.2 lineto
stroke
0 0 0 setrgbcolor
newpath
75538 60138 moveto
75349 60138 lineto
stroke
0 0 0 setrgbcolor
newpath
75773.2 60373.2 moveto
75538 60138 lineto
stroke
0 0 0 setrgbcolor
newpath
77100 56575 moveto
77725 56575 lineto
stroke
0 0 0 setrgbcolor
newpath
77989.8 56839.8 moveto
77989.8 57365.4 lineto
stroke
0 0 0 setrgbcolor
newpath
77725 56575 moveto
77989.8 56839.8 lineto
stroke
0 0 0 setrgbcolor
newpath
80100 56575 moveto
79475 56575 lineto
stroke
0 0 0 setrgbcolor
newpath
79210.2 56839.8 moveto
79210.2 57365.4 lineto
stroke
0 0 0 setrgbcolor
newpath
79475 56575 moveto
79210.2 56839.8 lineto
stroke
0 0 0 setrgbcolor
newpath
81100 56575 moveto
81100 56700 lineto
stroke
0 0 0 setrgbcolor
newpath
79515.4 58034.6 moveto
79210.2 58034.6 lineto
stroke
0 0 0 setrgbcolor
newpath
79850 57700 moveto
79515.4 58034.6 lineto
stroke
0 0 0 setrgbcolor
newpath
79850 57450 moveto
79850 57700 lineto
stroke
0 0 0 setrgbcolor
newpath
80100 57200 moveto
79850 57450 lineto
stroke
0 0 0 setrgbcolor
newpath
80600 57200 moveto
80100 57200 lineto
stroke
0 0 0 setrgbcolor
newpath
81100 56700 moveto
80600 57200 lineto
stroke
0 0 0 setrgbcolor
newpath
74850 56575 moveto
74850 57325 lineto
stroke
0 0 0 setrgbcolor
newpath
74725 58950 moveto
74725 58825 lineto
stroke
0 0 0 setrgbcolor
newpath
73975 57075 moveto
73850 57075 lineto
stroke
0 0 0 setrgbcolor
newpath
74350 57450 moveto
73975 57075 lineto
stroke
0 0 0 setrgbcolor
newpath
74350 58450 moveto
74350 57450 lineto
stroke
0 0 0 setrgbcolor
newpath
74725 58825 moveto
74350 58450 lineto
stroke
0 0 0 setrgbcolor
newpath
73850 57075 moveto
73850 56200 lineto
stroke
0 0 0 setrgbcolor
newpath
74225 55825 moveto
74850 55825 lineto
stroke
0 0 0 setrgbcolor
newpath
73850 56200 moveto
74225 55825 lineto
stroke
0 0 0 setrgbcolor
newpath
70100 59575 moveto
71975 59575 lineto
stroke
0 0 0 setrgbcolor
newpath
74351 60449 moveto
74351 60138 lineto
stroke
0 0 0 setrgbcolor
newpath
74100 60700 moveto
74351 60449 lineto
stroke
0 0 0 setrgbcolor
newpath
73100 60700 moveto
74100 60700 lineto
stroke
0 0 0 setrgbcolor
newpath
71975 59575 moveto
73100 60700 lineto
stroke
0 0 0 setrgbcolor
newpath
67600 58200 moveto
66850 58200 lineto
stroke
0 0 0 setrgbcolor
newpath
74351 61951 moveto
74351 62262 lineto
stroke
0 0 0 setrgbcolor
newpath
74100 61700 moveto
74351 61951 lineto
stroke
0 0 0 setrgbcolor
newpath
73100 61700 moveto
74100 61700 lineto
stroke
0 0 0 setrgbcolor
newpath
71350 63450 moveto
73100 61700 lineto
stroke
0 0 0 setrgbcolor
newpath
67100 63450 moveto
71350 63450 lineto
stroke
0 0 0 setrgbcolor
newpath
66600 62950 moveto
67100 63450 lineto
stroke
0 0 0 setrgbcolor
newpath
66600 58450 moveto
66600 62950 lineto
stroke
0 0 0 setrgbcolor
newpath
66850 58200 moveto
66600 58450 lineto
stroke
0 0 0 setrgbcolor
newpath
75100 63700 moveto
74351 62951 lineto
stroke
0 0 0 setrgbcolor
newpath
74351 62951 moveto
74351 62262 lineto
stroke
0 0 0 setrgbcolor
newpath
73851 62262 moveto
73288 62262 lineto
stroke
0 0 0 setrgbcolor
newpath
66350 63200 moveto
66350 57950 lineto
stroke
0 0 0 setrgbcolor
newpath
66350 57950 moveto
67100 57200 lineto
stroke
0 0 0 setrgbcolor
newpath
67100 57200 moveto
67600 57200 lineto
stroke
0 0 0 setrgbcolor
newpath
67100 63950 moveto
66350 63200 lineto
stroke
0 0 0 setrgbcolor
newpath
71600 63950 moveto
67100 63950 lineto
stroke
0 0 0 setrgbcolor
newpath
73288 62262 moveto
71600 63950 lineto
stroke
0 0 0 setrgbcolor
newpath
76100 63700 moveto
76100 64200 lineto
stroke
0 0 0 setrgbcolor
newpath
73851 62951 moveto
74100 63200 lineto
stroke
0 0 0 setrgbcolor
newpath
73851 62951 moveto
73851 62262 lineto
stroke
0 0 0 setrgbcolor
newpath
74100 64200 moveto
74100 63200 lineto
stroke
0 0 0 setrgbcolor
newpath
74350 64450 moveto
74100 64200 lineto
stroke
0 0 0 setrgbcolor
newpath
75850 64450 moveto
74350 64450 lineto
stroke
0 0 0 setrgbcolor
newpath
76100 64200 moveto
75850 64450 lineto
stroke
0 0 0 setrgbcolor
120 setlinewidth
newpath
93600 61700 moveto
88600 61700 lineto
stroke
0 0 0 setrgbcolor
newpath
87600 60700 moveto
85975 60700 lineto
stroke
0 0 0 setrgbcolor
newpath
88600 61700 moveto
87600 60700 lineto
stroke
0 0 0 setrgbcolor
newpath
79716 61300 moveto
79716 60834 lineto
stroke
0 0 0 setrgbcolor
newpath
80475 58825 moveto
80475 58700 lineto
stroke
0 0 0 setrgbcolor
newpath
81100 59450 moveto
80475 58825 lineto
stroke
0 0 0 setrgbcolor
newpath
81100 60450 moveto
81100 59450 lineto
stroke
0 0 0 setrgbcolor
newpath
80850 60700 moveto
81100 60450 lineto
stroke
0 0 0 setrgbcolor
newpath
79850 60700 moveto
80850 60700 lineto
stroke
0 0 0 setrgbcolor
newpath
79716 60834 moveto
79850 60700 lineto
stroke
0 0 0 setrgbcolor
newpath
75349 62262 moveto
75349 62449 lineto
stroke
0 0 0 setrgbcolor
newpath
79716 61584 moveto
79716 61300 lineto
stroke
0 0 0 setrgbcolor
newpath
79600 61700 moveto
79716 61584 lineto
stroke
0 0 0 setrgbcolor
newpath
77600 61700 moveto
79600 61700 lineto
stroke
0 0 0 setrgbcolor
newpath
77600 62700 moveto
77600 61700 lineto
stroke
0 0 0 setrgbcolor
newpath
77350 62950 moveto
77600 62700 lineto
stroke
0 0 0 setrgbcolor
newpath
75850 62950 moveto
77350 62950 lineto
stroke
0 0 0 setrgbcolor
newpath
75349 62449 moveto
75850 62950 lineto
stroke
0 0 0 setrgbcolor
newpath
72100 53950 moveto
70100 53950 lineto
stroke
0 0 0 setrgbcolor
newpath
77684.6 58034.6 moveto
75850 56200 lineto
stroke
0 0 0 setrgbcolor
newpath
75850 56200 moveto
75850 54200 lineto
stroke
0 0 0 setrgbcolor
newpath
75850 54200 moveto
75600 53950 lineto
stroke
0 0 0 setrgbcolor
newpath
75600 53950 moveto
72100 53950 lineto
stroke
0 0 0 setrgbcolor
newpath
77989.8 58034.6 moveto
77684.6 58034.6 lineto
stroke
0 0 0 setrgbcolor
newpath
70850 58700 moveto
72350 58700 lineto
stroke
0 0 0 setrgbcolor
newpath
69850 57700 moveto
70850 58700 lineto
stroke
0 0 0 setrgbcolor
newpath
69600 54450 moveto
69600 55700 lineto
stroke
0 0 0 setrgbcolor
newpath
69600 55700 moveto
69850 55950 lineto
stroke
0 0 0 setrgbcolor
newpath
69850 55950 moveto
69850 57700 lineto
stroke
0 0 0 setrgbcolor
newpath
70100 53950 moveto
69600 54450 lineto
stroke
0 0 0 setrgbcolor
newpath
77989.8 58034.6 moveto
77989.8 58339.8 lineto
stroke
0 0 0 setrgbcolor
newpath
78350 58700 moveto
79850 58700 lineto
stroke
0 0 0 setrgbcolor
newpath
77989.8 58339.8 moveto
78350 58700 lineto
stroke
0 0 0 setrgbcolor
newpath
67600 61700 moveto
68350 61700 lineto
stroke
0 0 0 setrgbcolor
newpath
68100 59200 moveto
67600 59200 lineto
stroke
0 0 0 setrgbcolor
newpath
68850 59950 moveto
68100 59200 lineto
stroke
0 0 0 setrgbcolor
newpath
68850 61200 moveto
68850 59950 lineto
stroke
0 0 0 setrgbcolor
newpath
68350 61700 moveto
68850 61200 lineto
stroke
0 0 0 setrgbcolor
newpath
67600 59200 moveto
71850 59200 lineto
stroke
0 0 0 setrgbcolor
newpath
71850 59200 moveto
72350 58700 lineto
stroke
0 0 0 setrgbcolor
newpath
72850 58200 moveto
72850 57825 lineto
stroke
0 0 0 setrgbcolor
newpath
72350 58700 moveto
72850 58200 lineto
stroke
0 0 0 setrgbcolor
newpath
79716 61300 moveto
79716 61816 lineto
stroke
0 0 0 setrgbcolor
newpath
84100 62700 moveto
84100 63700 lineto
stroke
0 0 0 setrgbcolor
newpath
83850 62450 moveto
84100 62700 lineto
stroke
0 0 0 setrgbcolor
newpath
80350 62450 moveto
83850 62450 lineto
stroke
0 0 0 setrgbcolor
newpath
79716 61816 moveto
80350 62450 lineto
stroke
0 0 0 setrgbcolor
newpath
80475 58700 moveto
79850 58700 lineto
stroke
0 0 0 setrgbcolor
newpath
79716 58834 moveto
79716 59600 lineto
stroke
0 0 0 setrgbcolor
newpath
79850 58700 moveto
79716 58834 lineto
stroke
0 0 0 setrgbcolor
newpath
80475 57950 moveto
80475 58700 lineto
stroke
0 0 0 setrgbcolor
newpath
86100 54700 moveto
86100 55450 lineto
stroke
0 0 0 setrgbcolor
newpath
80475 57575 moveto
80475 57950 lineto
stroke
0 0 0 setrgbcolor
newpath
80600 57450 moveto
80475 57575 lineto
stroke
0 0 0 setrgbcolor
newpath
84100 57450 moveto
80600 57450 lineto
stroke
0 0 0 setrgbcolor
newpath
86100 55450 moveto
84100 57450 lineto
stroke
0 0 0 setrgbcolor
59.0551 setlinewidth
newpath
68540 61071.6 moveto
68298.8 61312.8 lineto
68122.7 61195.1 lineto
68121.5 61194.9 lineto
68152.3 61185.8 lineto
68318.8 61051.1 lineto
68421 60862.9 lineto
68426.7 60834.5 lineto
68426.7 60565.5 lineto
68421 60537.1 lineto
68318.8 60348.9 lineto
68152.3 60214.2 lineto
67947 60153.5 lineto
67650 60153.5 lineto
67650 60650 lineto
68378.4 60650 lineto
68426.7 60565.5 lineto
68426.7 60834.5 lineto
68378.4 60750 lineto
67650 60750 lineto
67650 60757.9 lineto
67550 60757.9 lineto
67550 60750 lineto
67542.1 60750 lineto
67542.1 60650 lineto
67550 60650 lineto
67550 60153.5 lineto
67253 60153.5 lineto
67047.7 60214.2 lineto
66900 60333.7 lineto
66900 58574.3 lineto
66974.3 58500 lineto
67157.7 58500 lineto
67302.2 58644.8 lineto
67374.8 58675 lineto
67275.5 58675 lineto
67183.6 58712.9 lineto
67113.2 58783.2 lineto
67075 58875.1 lineto
67075 58974.5 lineto
67075 59524.5 lineto
67112.9 59616.4 lineto
67183.2 59686.8 lineto
67275.1 59725 lineto
67374.5 59725 lineto
67924.5 59725 lineto
68016.4 59687.1 lineto
68082.6 59621 lineto
68540 60078.4 lineto
68540 61071.6 lineto
poly1
100 setlinewidth
newpath
68540 61071.6 moveto
68298.8 61312.8 lineto
68122.7 61195.1 lineto
68121.5 61194.9 lineto
68152.3 61185.8 lineto
68318.8 61051.1 lineto
68421 60862.9 lineto
68426.7 60834.5 lineto
68426.7 60565.5 lineto
68421 60537.1 lineto
68318.8 60348.9 lineto
68152.3 60214.2 lineto
67947 60153.5 lineto
67650 60153.5 lineto
67650 60650 lineto
68378.4 60650 lineto
68426.7 60565.5 lineto
68426.7 60834.5 lineto
68378.4 60750 lineto
67650 60750 lineto
67650 60757.9 lineto
67550 60757.9 lineto
67550 60750 lineto
67542.1 60750 lineto
67542.1 60650 lineto
67550 60650 lineto
67550 60153.5 lineto
67253 60153.5 lineto
67047.7 60214.2 lineto
66900 60333.7 lineto
66900 58574.3 lineto
66974.3 58500 lineto
67157.7 58500 lineto
67302.2 58644.8 lineto
67374.8 58675 lineto
67275.5 58675 lineto
67183.6 58712.9 lineto
67113.2 58783.2 lineto
67075 58875.1 lineto
67075 58974.5 lineto
67075 59524.5 lineto
67112.9 59616.4 lineto
67183.2 59686.8 lineto
67275.1 59725 lineto
67374.5 59725 lineto
67924.5 59725 lineto
68016.4 59687.1 lineto
68082.6 59621 lineto
68540 60078.4 lineto
68540 61071.6 lineto
poly0
59.0551 setlinewidth
newpath
69419.1 58443.4 moveto
69400 58462.5 lineto
69400 58775 lineto
69407.9 58775 lineto
69407.9 58875 lineto
69400 58875 lineto
69400 58882.9 lineto
69300 58882.9 lineto
69300 58875 lineto
69300 58775 lineto
69300 58462.5 lineto
69237.5 58400 lineto
69124.5 58400 lineto
69025.1 58400 lineto
68933.2 58438.2 lineto
68862.9 58508.6 lineto
68825 58600.5 lineto
68825 58712.5 lineto
68887.5 58775 lineto
69300 58775 lineto
69300 58875 lineto
68887.5 58875 lineto
68872.5 58890 lineto
68125 58890 lineto
68125 58875.5 lineto
68087.1 58783.6 lineto
68016.8 58713.2 lineto
67924.9 58675 lineto
67825.5 58675 lineto
67825.3 58675 lineto
67897 58645.3 lineto
68044.8 58497.8 lineto
68124.9 58304.9 lineto
68125.1 58096 lineto
68045.3 57903 lineto
67897.8 57755.2 lineto
67764.8 57700 lineto
67897 57645.3 lineto
68044.8 57497.8 lineto
68124.9 57304.9 lineto
68125.1 57096 lineto
68045.3 56903 lineto
67897.8 56755.2 lineto
67764.8 56700 lineto
67897 56645.3 lineto
68044.8 56497.8 lineto
68050 56485.3 lineto
68050 56524.9 lineto
68088.2 56616.8 lineto
68158.6 56687.1 lineto
68250.5 56725 lineto
68362.5 56725 lineto
68425 56662.5 lineto
68425 56250 lineto
68417.1 56250 lineto
68417.1 56150 lineto
68425 56150 lineto
68425 55737.5 lineto
68362.5 55675 lineto
68250.5 55675 lineto
68158.6 55712.9 lineto
68129.9 55741.6 lineto
68129.9 55275.8 lineto
68118.6 55067.2 lineto
68060.6 54927.2 lineto
67967.8 54902.9 lineto
67670.7 55200 lineto
67967.8 55497.1 lineto
68060.6 55472.8 lineto
68129.9 55275.8 lineto
68129.9 55741.6 lineto
68088.2 55783.2 lineto
68050 55875.1 lineto
68050 55914.3 lineto
68045.3 55903 lineto
67897.8 55755.2 lineto
67771.2 55702.6 lineto
67872.8 55660.6 lineto
67897.1 55567.8 lineto
67600 55270.7 lineto
67302.9 55567.8 lineto
67327.2 55660.6 lineto
67437.1 55699.2 lineto
67303 55754.7 lineto
67190.9 55866.6 lineto
67150 55825.7 lineto
67150 55475.6 lineto
67232.2 55497.1 lineto
67529.3 55200 lineto
67523.7 55194.4 lineto
67594.4 55123.7 lineto
67600 55129.3 lineto
67897.1 54832.2 lineto
67872.8 54739.4 lineto
67770.7 54703.5 lineto
68312.1 54162.1 lineto
68556.4 53917.9 lineto
68550 53950 lineto
68550 55712.5 lineto
68525 55737.5 lineto
68525 56150 lineto
68532.9 56150 lineto
68532.9 56250 lineto
68525 56250 lineto
68525 56662.5 lineto
68550 56687.5 lineto
68550 57450 lineto
68572.8 57564.8 lineto
68637.9 57662.1 lineto
69419.1 58443.4 lineto
poly1
100 setlinewidth
newpath
69419.1 58443.4 moveto
69400 58462.5 lineto
69400 58775 lineto
69407.9 58775 lineto
69407.9 58875 lineto
69400 58875 lineto
69400 58882.9 lineto
69300 58882.9 lineto
69300 58875 lineto
69300 58775 lineto
69300 58462.5 lineto
69237.5 58400 lineto
69124.5 58400 lineto
69025.1 58400 lineto
68933.2 58438.2 lineto
68862.9 58508.6 lineto
68825 58600.5 lineto
68825 58712.5 lineto
68887.5 58775 lineto
69300 58775 lineto
69300 58875 lineto
68887.5 58875 lineto
68872.5 58890 lineto
68125 58890 lineto
68125 58875.5 lineto
68087.1 58783.6 lineto
68016.8 58713.2 lineto
67924.9 58675 lineto
67825.5 58675 lineto
67825.3 58675 lineto
67897 58645.3 lineto
68044.8 58497.8 lineto
68124.9 58304.9 lineto
68125.1 58096 lineto
68045.3 57903 lineto
67897.8 57755.2 lineto
67764.8 57700 lineto
67897 57645.3 lineto
68044.8 57497.8 lineto
68124.9 57304.9 lineto
68125.1 57096 lineto
68045.3 56903 lineto
67897.8 56755.2 lineto
67764.8 56700 lineto
67897 56645.3 lineto
68044.8 56497.8 lineto
68050 56485.3 lineto
68050 56524.9 lineto
68088.2 56616.8 lineto
68158.6 56687.1 lineto
68250.5 56725 lineto
68362.5 56725 lineto
68425 56662.5 lineto
68425 56250 lineto
68417.1 56250 lineto
68417.1 56150 lineto
68425 56150 lineto
68425 55737.5 lineto
68362.5 55675 lineto
68250.5 55675 lineto
68158.6 55712.9 lineto
68129.9 55741.6 lineto
68129.9 55275.8 lineto
68118.6 55067.2 lineto
68060.6 54927.2 lineto
67967.8 54902.9 lineto
67670.7 55200 lineto
67967.8 55497.1 lineto
68060.6 55472.8 lineto
68129.9 55275.8 lineto
68129.9 55741.6 lineto
68088.2 55783.2 lineto
68050 55875.1 lineto
68050 55914.3 lineto
68045.3 55903 lineto
67897.8 55755.2 lineto
67771.2 55702.6 lineto
67872.8 55660.6 lineto
67897.1 55567.8 lineto
67600 55270.7 lineto
67302.9 55567.8 lineto
67327.2 55660.6 lineto
67437.1 55699.2 lineto
67303 55754.7 lineto
67190.9 55866.6 lineto
67150 55825.7 lineto
67150 55475.6 lineto
67232.2 55497.1 lineto
67529.3 55200 lineto
67523.7 55194.4 lineto
67594.4 55123.7 lineto
67600 55129.3 lineto
67897.1 54832.2 lineto
67872.8 54739.4 lineto
67770.7 54703.5 lineto
68312.1 54162.1 lineto
68556.4 53917.9 lineto
68550 53950 lineto
68550 55712.5 lineto
68525 55737.5 lineto
68525 56150 lineto
68532.9 56150 lineto
68532.9 56250 lineto
68525 56250 lineto
68525 56662.5 lineto
68550 56687.5 lineto
68550 57450 lineto
68572.8 57564.8 lineto
68637.9 57662.1 lineto
69419.1 58443.4 lineto
poly0
59.0551 setlinewidth
newpath
69611.6 54000 moveto
69380.8 54230.8 lineto
69313.6 54331.4 lineto
69290 54450 lineto
69290 54722.5 lineto
69275 54737.5 lineto
69275 55150 lineto
69282.9 55150 lineto
69282.9 55250 lineto
69275 55250 lineto
69275 55662.5 lineto
69290 55677.5 lineto
69290 55700 lineto
69293.7 55718.8 lineto
69275 55737.5 lineto
69275 56150 lineto
69282.9 56150 lineto
69282.9 56250 lineto
69275 56250 lineto
69275 56662.5 lineto
69337.5 56725 lineto
69449.5 56725 lineto
69540 56687.7 lineto
69540 57700 lineto
69543.9 57719.6 lineto
69150 57325.7 lineto
69150 56687.5 lineto
69175 56662.5 lineto
69175 56250 lineto
69167.1 56250 lineto
69167.1 56150 lineto
69175 56150 lineto
69175 55737.5 lineto
69150 55712.5 lineto
69150 55687.5 lineto
69175 55662.5 lineto
69175 55250 lineto
69167.1 55250 lineto
69167.1 55150 lineto
69175 55150 lineto
69175 54737.5 lineto
69150 54712.5 lineto
69150 54074.3 lineto
69224.3 54000 lineto
69611.6 54000 lineto
poly1
100 setlinewidth
newpath
69611.6 54000 moveto
69380.8 54230.8 lineto
69313.6 54331.4 lineto
69290 54450 lineto
69290 54722.5 lineto
69275 54737.5 lineto
69275 55150 lineto
69282.9 55150 lineto
69282.9 55250 lineto
69275 55250 lineto
69275 55662.5 lineto
69290 55677.5 lineto
69290 55700 lineto
69293.7 55718.8 lineto
69275 55737.5 lineto
69275 56150 lineto
69282.9 56150 lineto
69282.9 56250 lineto
69275 56250 lineto
69275 56662.5 lineto
69337.5 56725 lineto
69449.5 56725 lineto
69540 56687.7 lineto
69540 57700 lineto
69543.9 57719.6 lineto
69150 57325.7 lineto
69150 56687.5 lineto
69175 56662.5 lineto
69175 56250 lineto
69167.1 56250 lineto
69167.1 56150 lineto
69175 56150 lineto
69175 55737.5 lineto
69150 55712.5 lineto
69150 55687.5 lineto
69175 55662.5 lineto
69175 55250 lineto
69167.1 55250 lineto
69167.1 55150 lineto
69175 55150 lineto
69175 54737.5 lineto
69150 54712.5 lineto
69150 54074.3 lineto
69224.3 54000 lineto
69611.6 54000 lineto
poly0
59.0551 setlinewidth
newpath
73375.7 61000 moveto
73225.7 61150 lineto
72626.5 61150 lineto
72626.5 60915.9 lineto
72626.5 60827.6 lineto
72334.8 60535.9 lineto
72264.1 60606.6 lineto
72264.1 60465.2 lineto
71972.4 60173.5 lineto
71884.1 60173.5 lineto
71804.8 60252.7 lineto
71766.7 60344.5 lineto
71766.6 60444 lineto
71804.6 60535.9 lineto
71874.8 60606.3 lineto
71954.8 60686.1 lineto
72043.2 60686.1 lineto
72264.1 60465.2 lineto
72264.1 60606.6 lineto
72113.9 60756.8 lineto
72113.9 60845.2 lineto
72193.7 60925.2 lineto
72264.1 60995.4 lineto
72356 61033.4 lineto
72455.5 61033.3 lineto
72547.3 60995.2 lineto
72626.5 60915.9 lineto
72626.5 61150 lineto
69850 61150 lineto
69735.2 61172.8 lineto
69637.9 61237.9 lineto
68475.7 62400 lineto
68357.7 62400 lineto
68300 62313.6 lineto
68130 62200 lineto
68300 62086.4 lineto
68351.2 62009.8 lineto
68468.6 61986.4 lineto
68569.2 61919.2 lineto
69069.2 61419.2 lineto
69136.4 61318.6 lineto
69160 61200 lineto
69160 60000 lineto
69237.5 60000 lineto
69300 59937.5 lineto
69300 59625 lineto
69292.1 59625 lineto
69292.1 59525 lineto
69300 59525 lineto
69300 59517.1 lineto
69400 59517.1 lineto
69400 59525 lineto
69407.9 59525 lineto
69407.9 59625 lineto
69400 59625 lineto
69400 59937.5 lineto
69462.5 60000 lineto
69575.5 60000 lineto
69674.9 60000 lineto
69725 59979.2 lineto
69775.1 60000 lineto
69874.5 60000 lineto
70424.5 60000 lineto
70516.4 59962.1 lineto
70586.8 59891.8 lineto
70593.8 59875 lineto
71850.7 59875 lineto
72043.2 60067.4 lineto
72043.2 60102.8 lineto
72334.8 60394.5 lineto
72340.4 60388.9 lineto
72411.1 60459.6 lineto
72405.5 60465.2 lineto
72697.2 60756.8 lineto
72732.6 60756.8 lineto
72887.9 60912.1 lineto
72887.9 60912.1 lineto
72985.2 60977.2 lineto
73100 61000 lineto
73375.7 61000 lineto
poly1
100 setlinewidth
newpath
73375.7 61000 moveto
73225.7 61150 lineto
72626.5 61150 lineto
72626.5 60915.9 lineto
72626.5 60827.6 lineto
72334.8 60535.9 lineto
72264.1 60606.6 lineto
72264.1 60465.2 lineto
71972.4 60173.5 lineto
71884.1 60173.5 lineto
71804.8 60252.7 lineto
71766.7 60344.5 lineto
71766.6 60444 lineto
71804.6 60535.9 lineto
71874.8 60606.3 lineto
71954.8 60686.1 lineto
72043.2 60686.1 lineto
72264.1 60465.2 lineto
72264.1 60606.6 lineto
72113.9 60756.8 lineto
72113.9 60845.2 lineto
72193.7 60925.2 lineto
72264.1 60995.4 lineto
72356 61033.4 lineto
72455.5 61033.3 lineto
72547.3 60995.2 lineto
72626.5 60915.9 lineto
72626.5 61150 lineto
69850 61150 lineto
69735.2 61172.8 lineto
69637.9 61237.9 lineto
68475.7 62400 lineto
68357.7 62400 lineto
68300 62313.6 lineto
68130 62200 lineto
68300 62086.4 lineto
68351.2 62009.8 lineto
68468.6 61986.4 lineto
68569.2 61919.2 lineto
69069.2 61419.2 lineto
69136.4 61318.6 lineto
69160 61200 lineto
69160 60000 lineto
69237.5 60000 lineto
69300 59937.5 lineto
69300 59625 lineto
69292.1 59625 lineto
69292.1 59525 lineto
69300 59525 lineto
69300 59517.1 lineto
69400 59517.1 lineto
69400 59525 lineto
69407.9 59525 lineto
69407.9 59625 lineto
69400 59625 lineto
69400 59937.5 lineto
69462.5 60000 lineto
69575.5 60000 lineto
69674.9 60000 lineto
69725 59979.2 lineto
69775.1 60000 lineto
69874.5 60000 lineto
70424.5 60000 lineto
70516.4 59962.1 lineto
70586.8 59891.8 lineto
70593.8 59875 lineto
71850.7 59875 lineto
72043.2 60067.4 lineto
72043.2 60102.8 lineto
72334.8 60394.5 lineto
72340.4 60388.9 lineto
72411.1 60459.6 lineto
72405.5 60465.2 lineto
72697.2 60756.8 lineto
72732.6 60756.8 lineto
72887.9 60912.1 lineto
72887.9 60912.1 lineto
72985.2 60977.2 lineto
73100 61000 lineto
73375.7 61000 lineto
poly0
59.0551 setlinewidth
newpath
73907.9 57475 moveto
73792.1 57475 lineto
73792.1 57425 lineto
73900.8 57425 lineto
73907.9 57432.1 lineto
73907.9 57475 lineto
poly1
100 setlinewidth
newpath
73907.9 57475 moveto
73792.1 57475 lineto
73792.1 57425 lineto
73900.8 57425 lineto
73907.9 57432.1 lineto
73907.9 57475 lineto
poly0
59.0551 setlinewidth
newpath
74087 59611.3 moveto
74018.5 59583 lineto
73963.5 59583 lineto
73901 59645.5 lineto
73901 60088 lineto
73908.9 60088 lineto
73908.9 60188 lineto
73901 60188 lineto
73901 60195.9 lineto
73801 60195.9 lineto
73801 60188 lineto
73801 60088 lineto
73801 59645.5 lineto
73738.5 59583 lineto
73683.5 59583 lineto
73591.6 59620.9 lineto
73521.2 59691.2 lineto
73483 59783.1 lineto
73483 59882.5 lineto
73483 60025.5 lineto
73545.5 60088 lineto
73801 60088 lineto
73801 60188 lineto
73545.5 60188 lineto
73483 60250.5 lineto
73483 60393.5 lineto
73483 60400 lineto
73433.4 60400 lineto
73433.4 59956 lineto
73395.4 59864.1 lineto
73325.2 59793.7 lineto
73245.2 59713.9 lineto
73156.8 59713.9 lineto
73086.1 59784.6 lineto
73086.1 59643.2 lineto
73086.1 59554.8 lineto
73006.3 59474.8 lineto
72935.9 59404.6 lineto
72844 59366.6 lineto
72744.5 59366.7 lineto
72652.7 59404.8 lineto
72573.5 59484.1 lineto
72573.5 59572.4 lineto
72865.2 59864.1 lineto
73086.1 59643.2 lineto
73086.1 59784.6 lineto
72935.9 59934.8 lineto
73227.6 60226.5 lineto
73315.9 60226.5 lineto
73395.2 60147.3 lineto
73433.3 60055.5 lineto
73433.4 59956 lineto
73433.4 60400 lineto
73224.3 60400 lineto
73156.8 60332.6 lineto
73156.8 60297.2 lineto
72865.2 60005.5 lineto
72859.6 60011.1 lineto
72788.9 59940.4 lineto
72794.5 59934.8 lineto
72502.8 59643.2 lineto
72467.4 59643.2 lineto
72187.1 59362.9 lineto
72150.2 59338.2 lineto
72569.2 58919.2 lineto
73069.2 58419.2 lineto
73136.4 58318.6 lineto
73160 58200 lineto
73160 58118.5 lineto
73211.8 58066.8 lineto
73235.5 58009.8 lineto
73262.9 58037.1 lineto
73262.9 58037.1 lineto
73360.2 58102.2 lineto
73475 58125 lineto
73546.4 58125 lineto
73550 58128.6 lineto
73550 58950 lineto
73572.8 59064.8 lineto
73637.9 59162.1 lineto
74087 59611.3 lineto
poly1
100 setlinewidth
newpath
74087 59611.3 moveto
74018.5 59583 lineto
73963.5 59583 lineto
73901 59645.5 lineto
73901 60088 lineto
73908.9 60088 lineto
73908.9 60188 lineto
73901 60188 lineto
73901 60195.9 lineto
73801 60195.9 lineto
73801 60188 lineto
73801 60088 lineto
73801 59645.5 lineto
73738.5 59583 lineto
73683.5 59583 lineto
73591.6 59620.9 lineto
73521.2 59691.2 lineto
73483 59783.1 lineto
73483 59882.5 lineto
73483 60025.5 lineto
73545.5 60088 lineto
73801 60088 lineto
73801 60188 lineto
73545.5 60188 lineto
73483 60250.5 lineto
73483 60393.5 lineto
73483 60400 lineto
73433.4 60400 lineto
73433.4 59956 lineto
73395.4 59864.1 lineto
73325.2 59793.7 lineto
73245.2 59713.9 lineto
73156.8 59713.9 lineto
73086.1 59784.6 lineto
73086.1 59643.2 lineto
73086.1 59554.8 lineto
73006.3 59474.8 lineto
72935.9 59404.6 lineto
72844 59366.6 lineto
72744.5 59366.7 lineto
72652.7 59404.8 lineto
72573.5 59484.1 lineto
72573.5 59572.4 lineto
72865.2 59864.1 lineto
73086.1 59643.2 lineto
73086.1 59784.6 lineto
72935.9 59934.8 lineto
73227.6 60226.5 lineto
73315.9 60226.5 lineto
73395.2 60147.3 lineto
73433.3 60055.5 lineto
73433.4 59956 lineto
73433.4 60400 lineto
73224.3 60400 lineto
73156.8 60332.6 lineto
73156.8 60297.2 lineto
72865.2 60005.5 lineto
72859.6 60011.1 lineto
72788.9 59940.4 lineto
72794.5 59934.8 lineto
72502.8 59643.2 lineto
72467.4 59643.2 lineto
72187.1 59362.9 lineto
72150.2 59338.2 lineto
72569.2 58919.2 lineto
73069.2 58419.2 lineto
73136.4 58318.6 lineto
73160 58200 lineto
73160 58118.5 lineto
73211.8 58066.8 lineto
73235.5 58009.8 lineto
73262.9 58037.1 lineto
73262.9 58037.1 lineto
73360.2 58102.2 lineto
73475 58125 lineto
73546.4 58125 lineto
73550 58128.6 lineto
73550 58950 lineto
73572.8 59064.8 lineto
73637.9 59162.1 lineto
74087 59611.3 lineto
poly0
59.0551 setlinewidth
newpath
76162 56950.5 moveto
76150 56962.5 lineto
76150 57275 lineto
76157.9 57275 lineto
76157.9 57375 lineto
76150 57375 lineto
76150 57382.9 lineto
76050 57382.9 lineto
76050 57375 lineto
76050 57275 lineto
76050 56962.5 lineto
75987.5 56900 lineto
75874.5 56900 lineto
75775.1 56900 lineto
75683.2 56938.2 lineto
75612.9 57008.6 lineto
75575 57100.5 lineto
75575 57212.5 lineto
75637.5 57275 lineto
76050 57275 lineto
76050 57375 lineto
75637.5 57375 lineto
75575 57437.5 lineto
75575 57549.5 lineto
75612.9 57641.4 lineto
75671.4 57700 lineto
75613.2 57758.2 lineto
75575 57850.1 lineto
75575 57949.5 lineto
75575 58299.5 lineto
75575.3 58300.4 lineto
75450.8 58425 lineto
75303.6 58425 lineto
75337.1 58391.4 lineto
75375 58299.5 lineto
75375 58187.5 lineto
75312.5 58125 lineto
74900 58125 lineto
74900 58132.9 lineto
74800 58132.9 lineto
74800 58125 lineto
74792.1 58125 lineto
74792.1 58025 lineto
74800 58025 lineto
74800 58017.1 lineto
74900 58017.1 lineto
74900 58025 lineto
75312.5 58025 lineto
75375 57962.5 lineto
75375 57850.5 lineto
75337.1 57758.6 lineto
75278.6 57700 lineto
75336.8 57641.8 lineto
75375 57549.9 lineto
75375 57450.5 lineto
75375 57100.5 lineto
75337.1 57008.6 lineto
75278.6 56950 lineto
75336.8 56891.8 lineto
75375 56799.9 lineto
75375 56700.5 lineto
75375 56350.5 lineto
75337.1 56258.6 lineto
75278.6 56200 lineto
75336.8 56141.8 lineto
75375 56049.9 lineto
75375 55950.5 lineto
75375 55600.5 lineto
75337.1 55508.6 lineto
75303.6 55475 lineto
75362.5 55475 lineto
75425 55412.5 lineto
75425 55000 lineto
75425 54900 lineto
75425 54487.5 lineto
75362.5 54425 lineto
75250.5 54425 lineto
75158.6 54462.9 lineto
75088.2 54533.2 lineto
75050 54625.1 lineto
75050 54724.5 lineto
75050 54837.5 lineto
75112.5 54900 lineto
75425 54900 lineto
75425 55000 lineto
75112.5 55000 lineto
75050 55062.5 lineto
75050 55175.5 lineto
75050 55274.9 lineto
75088.2 55366.8 lineto
75121.4 55400 lineto
75075.5 55400 lineto
74525.5 55400 lineto
74433.6 55437.9 lineto
74363.2 55508.2 lineto
74356.2 55525 lineto
74225 55525 lineto
74110.2 55547.8 lineto
74012.9 55612.9 lineto
73637.9 55987.9 lineto
73572.8 56085.2 lineto
73550 56200 lineto
73550 56771.5 lineto
73488.2 56833.2 lineto
73450 56925.1 lineto
73450 57024.5 lineto
73450 57224.5 lineto
73465.7 57262.5 lineto
73450 57300.5 lineto
73450 57337.5 lineto
73512.5 57400 lineto
73474.3 57400 lineto
73312.1 57237.9 lineto
73250 57196.3 lineto
73250 57125.5 lineto
73250 56925.5 lineto
73212.1 56833.6 lineto
73141.8 56763.2 lineto
73049.9 56725 lineto
72950.5 56725 lineto
72650.5 56725 lineto
72558.6 56762.9 lineto
72546.5 56775 lineto
72396.5 56775 lineto
72396.5 55547 lineto
72396.5 55250 lineto
72396.5 55150 lineto
72396.5 54853 lineto
72335.8 54647.7 lineto
72201.1 54481.2 lineto
72012.9 54379 lineto
71984.5 54373.3 lineto
71900 54421.6 lineto
71900 55150 lineto
72396.5 55150 lineto
72396.5 55250 lineto
71900 55250 lineto
71900 55978.4 lineto
71984.5 56026.7 lineto
72012.9 56021 lineto
72201.1 55918.8 lineto
72335.8 55752.3 lineto
72396.5 55547 lineto
72396.5 56775 lineto
72343.9 56775 lineto
72337.1 56758.6 lineto
72266.8 56688.2 lineto
72174.9 56650 lineto
72075.5 56650 lineto
71525.5 56650 lineto
71433.6 56687.9 lineto
71363.2 56758.2 lineto
71356.2 56775 lineto
71343.9 56775 lineto
71337.1 56758.6 lineto
71266.8 56688.2 lineto
71174.9 56650 lineto
71150 56650 lineto
71150 55957.7 lineto
71236.4 55900 lineto
71354.9 55722.7 lineto
71355.1 55721.5 lineto
71364.2 55752.3 lineto
71498.9 55918.8 lineto
71687.1 56021 lineto
71715.5 56026.7 lineto
71800 55978.4 lineto
71800 55250 lineto
71792.1 55250 lineto
71792.1 55150 lineto
71800 55150 lineto
71800 54421.6 lineto
71715.5 54373.3 lineto
71687.1 54379 lineto
71498.9 54481.2 lineto
71364.2 54647.7 lineto
71355.1 54678.5 lineto
71354.9 54677.3 lineto
71236.4 54500 lineto
71059.1 54381.6 lineto
70850 54340 lineto
70640.9 54381.6 lineto
70463.6 54500 lineto
70345.1 54677.3 lineto
70330.3 54751.7 lineto
70291.4 54712.9 lineto
70199.5 54675 lineto
70087.5 54675 lineto
70025 54737.5 lineto
70025 55150 lineto
70032.9 55150 lineto
70032.9 55250 lineto
70025 55250 lineto
70025 55257.9 lineto
69925 55257.9 lineto
69925 55250 lineto
69917.1 55250 lineto
69917.1 55150 lineto
69925 55150 lineto
69925 54737.5 lineto
69910 54722.5 lineto
69910 54578.4 lineto
70228.4 54260 lineto
72100 54260 lineto
75471.6 54260 lineto
75540 54328.4 lineto
75540 54472.5 lineto
75525 54487.5 lineto
75525 54900 lineto
75532.9 54900 lineto
75532.9 55000 lineto
75525 55000 lineto
75525 55412.5 lineto
75540 55427.5 lineto
75540 56200 lineto
75563.6 56318.6 lineto
75630.8 56419.2 lineto
76162 56950.5 lineto
poly1
100 setlinewidth
newpath
76162 56950.5 moveto
76150 56962.5 lineto
76150 57275 lineto
76157.9 57275 lineto
76157.9 57375 lineto
76150 57375 lineto
76150 57382.9 lineto
76050 57382.9 lineto
76050 57375 lineto
76050 57275 lineto
76050 56962.5 lineto
75987.5 56900 lineto
75874.5 56900 lineto
75775.1 56900 lineto
75683.2 56938.2 lineto
75612.9 57008.6 lineto
75575 57100.5 lineto
75575 57212.5 lineto
75637.5 57275 lineto
76050 57275 lineto
76050 57375 lineto
75637.5 57375 lineto
75575 57437.5 lineto
75575 57549.5 lineto
75612.9 57641.4 lineto
75671.4 57700 lineto
75613.2 57758.2 lineto
75575 57850.1 lineto
75575 57949.5 lineto
75575 58299.5 lineto
75575.3 58300.4 lineto
75450.8 58425 lineto
75303.6 58425 lineto
75337.1 58391.4 lineto
75375 58299.5 lineto
75375 58187.5 lineto
75312.5 58125 lineto
74900 58125 lineto
74900 58132.9 lineto
74800 58132.9 lineto
74800 58125 lineto
74792.1 58125 lineto
74792.1 58025 lineto
74800 58025 lineto
74800 58017.1 lineto
74900 58017.1 lineto
74900 58025 lineto
75312.5 58025 lineto
75375 57962.5 lineto
75375 57850.5 lineto
75337.1 57758.6 lineto
75278.6 57700 lineto
75336.8 57641.8 lineto
75375 57549.9 lineto
75375 57450.5 lineto
75375 57100.5 lineto
75337.1 57008.6 lineto
75278.6 56950 lineto
75336.8 56891.8 lineto
75375 56799.9 lineto
75375 56700.5 lineto
75375 56350.5 lineto
75337.1 56258.6 lineto
75278.6 56200 lineto
75336.8 56141.8 lineto
75375 56049.9 lineto
75375 55950.5 lineto
75375 55600.5 lineto
75337.1 55508.6 lineto
75303.6 55475 lineto
75362.5 55475 lineto
75425 55412.5 lineto
75425 55000 lineto
75425 54900 lineto
75425 54487.5 lineto
75362.5 54425 lineto
75250.5 54425 lineto
75158.6 54462.9 lineto
75088.2 54533.2 lineto
75050 54625.1 lineto
75050 54724.5 lineto
75050 54837.5 lineto
75112.5 54900 lineto
75425 54900 lineto
75425 55000 lineto
75112.5 55000 lineto
75050 55062.5 lineto
75050 55175.5 lineto
75050 55274.9 lineto
75088.2 55366.8 lineto
75121.4 55400 lineto
75075.5 55400 lineto
74525.5 55400 lineto
74433.6 55437.9 lineto
74363.2 55508.2 lineto
74356.2 55525 lineto
74225 55525 lineto
74110.2 55547.8 lineto
74012.9 55612.9 lineto
73637.9 55987.9 lineto
73572.8 56085.2 lineto
73550 56200 lineto
73550 56771.5 lineto
73488.2 56833.2 lineto
73450 56925.1 lineto
73450 57024.5 lineto
73450 57224.5 lineto
73465.7 57262.5 lineto
73450 57300.5 lineto
73450 57337.5 lineto
73512.5 57400 lineto
73474.3 57400 lineto
73312.1 57237.9 lineto
73250 57196.3 lineto
73250 57125.5 lineto
73250 56925.5 lineto
73212.1 56833.6 lineto
73141.8 56763.2 lineto
73049.9 56725 lineto
72950.5 56725 lineto
72650.5 56725 lineto
72558.6 56762.9 lineto
72546.5 56775 lineto
72396.5 56775 lineto
72396.5 55547 lineto
72396.5 55250 lineto
72396.5 55150 lineto
72396.5 54853 lineto
72335.8 54647.7 lineto
72201.1 54481.2 lineto
72012.9 54379 lineto
71984.5 54373.3 lineto
71900 54421.6 lineto
71900 55150 lineto
72396.5 55150 lineto
72396.5 55250 lineto
71900 55250 lineto
71900 55978.4 lineto
71984.5 56026.7 lineto
72012.9 56021 lineto
72201.1 55918.8 lineto
72335.8 55752.3 lineto
72396.5 55547 lineto
72396.5 56775 lineto
72343.9 56775 lineto
72337.1 56758.6 lineto
72266.8 56688.2 lineto
72174.9 56650 lineto
72075.5 56650 lineto
71525.5 56650 lineto
71433.6 56687.9 lineto
71363.2 56758.2 lineto
71356.2 56775 lineto
71343.9 56775 lineto
71337.1 56758.6 lineto
71266.8 56688.2 lineto
71174.9 56650 lineto
71150 56650 lineto
71150 55957.7 lineto
71236.4 55900 lineto
71354.9 55722.7 lineto
71355.1 55721.5 lineto
71364.2 55752.3 lineto
71498.9 55918.8 lineto
71687.1 56021 lineto
71715.5 56026.7 lineto
71800 55978.4 lineto
71800 55250 lineto
71792.1 55250 lineto
71792.1 55150 lineto
71800 55150 lineto
71800 54421.6 lineto
71715.5 54373.3 lineto
71687.1 54379 lineto
71498.9 54481.2 lineto
71364.2 54647.7 lineto
71355.1 54678.5 lineto
71354.9 54677.3 lineto
71236.4 54500 lineto
71059.1 54381.6 lineto
70850 54340 lineto
70640.9 54381.6 lineto
70463.6 54500 lineto
70345.1 54677.3 lineto
70330.3 54751.7 lineto
70291.4 54712.9 lineto
70199.5 54675 lineto
70087.5 54675 lineto
70025 54737.5 lineto
70025 55150 lineto
70032.9 55150 lineto
70032.9 55250 lineto
70025 55250 lineto
70025 55257.9 lineto
69925 55257.9 lineto
69925 55250 lineto
69917.1 55250 lineto
69917.1 55150 lineto
69925 55150 lineto
69925 54737.5 lineto
69910 54722.5 lineto
69910 54578.4 lineto
70228.4 54260 lineto
72100 54260 lineto
75471.6 54260 lineto
75540 54328.4 lineto
75540 54472.5 lineto
75525 54487.5 lineto
75525 54900 lineto
75532.9 54900 lineto
75532.9 55000 lineto
75525 55000 lineto
75525 55412.5 lineto
75540 55427.5 lineto
75540 56200 lineto
75563.6 56318.6 lineto
75630.8 56419.2 lineto
76162 56950.5 lineto
poly0
59.0551 setlinewidth
newpath
94570.5 64920.5 moveto
94129.9 64920.5 lineto
94129.9 60775.8 lineto
94118.6 60567.2 lineto
94060.6 60427.2 lineto
93967.8 60402.9 lineto
93897.1 60473.6 lineto
93897.1 60332.2 lineto
93872.8 60239.4 lineto
93675.8 60170.1 lineto
93467.2 60181.4 lineto
93385.1 60215.4 lineto
93385.1 57504.6 lineto
93385.1 56337.2 lineto
93050.8 56337.2 lineto
93050.8 56004.8 lineto
93194.5 56004.8 lineto
93194.5 54836.8 lineto
88005.5 54836.8 lineto
88005.5 55586.8 lineto
87149.2 55586.8 lineto
87149.2 56754.8 lineto
87283.5 56754.8 lineto
87283.5 57504.6 lineto
89416.5 57504.6 lineto
89416.5 56754.8 lineto
90314.9 56754.8 lineto
90314.9 57504.6 lineto
93385.1 57504.6 lineto
93385.1 60215.4 lineto
93327.2 60239.4 lineto
93302.9 60332.2 lineto
93600 60629.3 lineto
93897.1 60332.2 lineto
93897.1 60473.6 lineto
93670.7 60700 lineto
93967.8 60997.1 lineto
94060.6 60972.8 lineto
94129.9 60775.8 lineto
94129.9 64920.5 lineto
66129.5 64920.5 lineto
66129.5 63399.6 lineto
66137.9 63412.1 lineto
66887.9 64162.1 lineto
66887.9 64162.1 lineto
66985.2 64227.2 lineto
67100 64250 lineto
67100 64250 lineto
71600 64250 lineto
71600 64250 lineto
71714.8 64227.2 lineto
71714.8 64227.2 lineto
71812.1 64162.1 lineto
73412.3 62562 lineto
73483 62562 lineto
73483 62616.5 lineto
73520.9 62708.4 lineto
73551 62738.5 lineto
73551 62951 lineto
73573.8 63065.8 lineto
73638.9 63163.1 lineto
73800 63324.3 lineto
73800 64200 lineto
73822.8 64314.8 lineto
73887.9 64412.1 lineto
74137.9 64662.1 lineto
74137.9 64662.1 lineto
74235.2 64727.2 lineto
74350 64750 lineto
75850 64750 lineto
75850 64750 lineto
75964.8 64727.2 lineto
75964.8 64727.2 lineto
76062.1 64662.1 lineto
76312.1 64412.1 lineto
76312.1 64412.1 lineto
76377.2 64314.8 lineto
76400 64200 lineto
76400 64200 lineto
76400 64142.3 lineto
76544.8 63997.8 lineto
76624.9 63804.9 lineto
76625.1 63596 lineto
76545.3 63403 lineto
76402.6 63260 lineto
77123.1 63260 lineto
77072.8 63335.2 lineto
77050 63450 lineto
77050 64200 lineto
77072.8 64314.8 lineto
77137.9 64412.1 lineto
77387.9 64662.1 lineto
77387.9 64662.1 lineto
77485.2 64727.2 lineto
77600 64750 lineto
78850 64750 lineto
78850 64750 lineto
78964.8 64727.2 lineto
78964.8 64727.2 lineto
79062.1 64662.1 lineto
79312.1 64412.1 lineto
79312.1 64412.1 lineto
79377.2 64314.8 lineto
79400 64200 lineto
79400 64200 lineto
79400 64142.3 lineto
79544.8 63997.8 lineto
79575 63925.2 lineto
79575 64024.5 lineto
79612.9 64116.4 lineto
79683.2 64186.8 lineto
79775.1 64225 lineto
79874.5 64225 lineto
79950.8 64225 lineto
80387.9 64662.1 lineto
80387.9 64662.1 lineto
80485.2 64727.2 lineto
80600 64750 lineto
86850 64750 lineto
86850 64750 lineto
86964.8 64727.2 lineto
86964.8 64727.2 lineto
87062.1 64662.1 lineto
87562.1 64162.1 lineto
87562.1 64162.1 lineto
87627.2 64064.8 lineto
87650 63950 lineto
87650 63950 lineto
87650 62950 lineto
87627.2 62835.2 lineto
87562.1 62737.9 lineto
86312.1 61487.9 lineto
86214.8 61422.8 lineto
86100 61400 lineto
85724.3 61400 lineto
85525 61200.7 lineto
85525 61193.9 lineto
85541.4 61187.1 lineto
85600 61128.6 lineto
85658.2 61186.8 lineto
85750.1 61225 lineto
85849.5 61225 lineto
86199.5 61225 lineto
86291.4 61187.1 lineto
86361.8 61116.8 lineto
86400 61024.9 lineto
86400 61010 lineto
87471.6 61010 lineto
88380.8 61919.2 lineto
88481.4 61986.4 lineto
88600 62010 lineto
93075 62010 lineto
93075 62024.5 lineto
93112.9 62116.4 lineto
93183.2 62186.8 lineto
93275.1 62225 lineto
93374.5 62225 lineto
93924.5 62225 lineto
94016.4 62187.1 lineto
94086.8 62116.8 lineto
94125 62024.9 lineto
94125 61925.5 lineto
94125 61375.5 lineto
94087.1 61283.6 lineto
94016.8 61213.2 lineto
93924.9 61175 lineto
93838 61175 lineto
93872.8 61160.6 lineto
93897.1 61067.8 lineto
93600 60770.7 lineto
93529.3 60841.4 lineto
93529.3 60700 lineto
93232.2 60402.9 lineto
93139.4 60427.2 lineto
93070.1 60624.2 lineto
93081.4 60832.8 lineto
93139.4 60972.8 lineto
93232.2 60997.1 lineto
93529.3 60700 lineto
93529.3 60841.4 lineto
93302.9 61067.8 lineto
93327.2 61160.6 lineto
93368.1 61175 lineto
93275.5 61175 lineto
93183.6 61212.9 lineto
93113.2 61283.2 lineto
93075 61375.1 lineto
93075 61390 lineto
88728.4 61390 lineto
87819.2 60480.8 lineto
87718.6 60413.6 lineto
87600 60390 lineto
86400 60390 lineto
86400 60375.5 lineto
86362.1 60283.6 lineto
86291.8 60213.2 lineto
86260.1 60200 lineto
86291.4 60187.1 lineto
86361.8 60116.8 lineto
86400 60024.9 lineto
86400 59925.5 lineto
86400 59474.5 lineto
86400 59375.1 lineto
86361.8 59283.2 lineto
86291.4 59212.9 lineto
86199.5 59175 lineto
86087.5 59175 lineto
86025 59237.5 lineto
86025 59650 lineto
86337.5 59650 lineto
86400 59587.5 lineto
86400 59474.5 lineto
86400 59925.5 lineto
86400 59812.5 lineto
86337.5 59750 lineto
86025 59750 lineto
86025 59757.9 lineto
85925 59757.9 lineto
85925 59750 lineto
85917.1 59750 lineto
85917.1 59650 lineto
85925 59650 lineto
85925 59237.5 lineto
85862.5 59175 lineto
85750.5 59175 lineto
85658.6 59212.9 lineto
85600 59271.4 lineto
85541.8 59213.2 lineto
85449.9 59175 lineto
85350.5 59175 lineto
85000.5 59175 lineto
84908.6 59212.9 lineto
84838.2 59283.2 lineto
84800 59375.1 lineto
84800 59474.5 lineto
84800 60024.5 lineto
84837.9 60116.4 lineto
84908.2 60186.8 lineto
84925 60193.8 lineto
84925 60206.1 lineto
84908.6 60212.9 lineto
84838.2 60283.2 lineto
84800 60375.1 lineto
84800 60474.5 lineto
84800 61024.5 lineto
84837.9 61116.4 lineto
84908.2 61186.8 lineto
84925 61193.8 lineto
84925 61325 lineto
84947.8 61439.8 lineto
85012.9 61537.1 lineto
85387.9 61912.1 lineto
85387.9 61912.1 lineto
85485.2 61977.2 lineto
85600 62000 lineto
85975.7 62000 lineto
87050 63074.3 lineto
87050 63825.7 lineto
86725.7 64150 lineto
86553.6 64150 lineto
86586.8 64116.8 lineto
86625 64024.9 lineto
86625 63925.5 lineto
86625 63474.5 lineto
86625 63375.1 lineto
86586.8 63283.2 lineto
86516.4 63212.9 lineto
86424.5 63175 lineto
86212.5 63175 lineto
86150 63237.5 lineto
86150 63650 lineto
86562.5 63650 lineto
86625 63587.5 lineto
86625 63474.5 lineto
86625 63925.5 lineto
86625 63812.5 lineto
86562.5 63750 lineto
86150 63750 lineto
86150 63757.9 lineto
86050 63757.9 lineto
86050 63750 lineto
86042.1 63750 lineto
86042.1 63650 lineto
86050 63650 lineto
86050 63237.5 lineto
85987.5 63175 lineto
85775.5 63175 lineto
85683.6 63212.9 lineto
85613.2 63283.2 lineto
85575 63375.1 lineto
85575 63474.5 lineto
85575 63474.7 lineto
85545.3 63403 lineto
85397.8 63255.2 lineto
85204.9 63175.1 lineto
84996 63174.9 lineto
84803 63254.7 lineto
84655.2 63402.2 lineto
84600 63535.2 lineto
84545.3 63403 lineto
84410 63267.4 lineto
84410 62700 lineto
84386.4 62581.4 lineto
84386.4 62581.4 lineto
84359.5 62541.1 lineto
84319.2 62480.8 lineto
84319.2 62480.8 lineto
84069.2 62230.8 lineto
83968.6 62163.6 lineto
83850 62140 lineto
81650 62140 lineto
80478.4 62140 lineto
80133.2 61794.8 lineto
80150.1 61777.9 lineto
80188.4 61762.1 lineto
80228 61722.6 lineto
80267.2 61761.8 lineto
80305.9 61777.9 lineto
80328 61800 lineto
80352.5 61800 lineto
80355.9 61798.6 lineto
80359.1 61800 lineto
80458.5 61800 lineto
80608.5 61800 lineto
80700.4 61762.1 lineto
80770.8 61691.8 lineto
80809 61599.9 lineto
80809 61500.5 lineto
80809 61010 lineto
80850 61010 lineto
80968.6 60986.4 lineto
81069.2 60919.2 lineto
81319.2 60669.2 lineto
81319.2 60669.2 lineto
81319.2 60669.2 lineto
81359.5 60608.9 lineto
81386.4 60568.6 lineto
81386.4 60568.6 lineto
81410 60450 lineto
81410 59450 lineto
81386.4 59331.4 lineto
81319.2 59230.8 lineto
81275 59186.6 lineto
81275 59162.5 lineto
81337.5 59225 lineto
81449.5 59225 lineto
81541.4 59187.1 lineto
81611.8 59116.8 lineto
81650 59024.9 lineto
81650 58925.5 lineto
81650 58474.5 lineto
81650 58375.1 lineto
81629.2 58325 lineto
81650 58274.9 lineto
81650 58175.5 lineto
81650 58062.5 lineto
81587.5 58000 lineto
81275 58000 lineto
81275 58237.5 lineto
81275 58412.5 lineto
81275 58650 lineto
81587.5 58650 lineto
81650 58587.5 lineto
81650 58474.5 lineto
81650 58925.5 lineto
81650 58812.5 lineto
81587.5 58750 lineto
81275 58750 lineto
81275 58757.9 lineto
81175 58757.9 lineto
81175 58750 lineto
81167.1 58750 lineto
81167.1 58650 lineto
81175 58650 lineto
81175 58412.5 lineto
81175 58237.5 lineto
81175 58000 lineto
81167.1 58000 lineto
81167.1 57900 lineto
81175 57900 lineto
81175 57892.1 lineto
81275 57892.1 lineto
81275 57900 lineto
81587.5 57900 lineto
81650 57837.5 lineto
81650 57760 lineto
84100 57760 lineto
84218.6 57736.4 lineto
84319.2 57669.2 lineto
86319.2 55669.2 lineto
86319.2 55669.2 lineto
86319.2 55669.2 lineto
86386.4 55568.6 lineto
86386.4 55568.6 lineto
86405.3 55473.6 lineto
86410 55450 lineto
86410 55450 lineto
86410 55450 lineto
86410 55225 lineto
86424.5 55225 lineto
86516.4 55187.1 lineto
86586.8 55116.8 lineto
86625 55024.9 lineto
86625 54925.5 lineto
86625 54375.5 lineto
86587.1 54283.6 lineto
86516.8 54213.2 lineto
86424.9 54175 lineto
86325.5 54175 lineto
85775.5 54175 lineto
85683.6 54212.9 lineto
85613.2 54283.2 lineto
85575 54375.1 lineto
85575 54462 lineto
85560.6 54427.2 lineto
85467.8 54402.9 lineto
85397.1 54473.6 lineto
85397.1 54332.2 lineto
85372.8 54239.4 lineto
85175.8 54170.1 lineto
84967.2 54181.4 lineto
84827.2 54239.4 lineto
84802.9 54332.2 lineto
85100 54629.3 lineto
85397.1 54332.2 lineto
85397.1 54473.6 lineto
85170.7 54700 lineto
85467.8 54997.1 lineto
85560.6 54972.8 lineto
85575 54931.9 lineto
85575 55024.5 lineto
85612.9 55116.4 lineto
85683.2 55186.8 lineto
85775.1 55225 lineto
85790 55225 lineto
85790 55321.6 lineto
85397.1 55714.5 lineto
85397.1 55067.8 lineto
85100 54770.7 lineto
84802.9 55067.8 lineto
84827.2 55160.6 lineto
85024.2 55229.9 lineto
85232.8 55218.6 lineto
85372.8 55160.6 lineto
85397.1 55067.8 lineto
85397.1 55714.5 lineto
83971.6 57140 lineto
81084.3 57140 lineto
81224.2 57000 lineto
81424.5 57000 lineto
81516.4 56962.1 lineto
81586.8 56891.8 lineto
81625 56799.9 lineto
81625 56700.5 lineto
81625 56350.5 lineto
81587.1 56258.6 lineto
81528.6 56200 lineto
81586.8 56141.8 lineto
81625 56049.9 lineto
81625 55950.5 lineto
81625 55600.5 lineto
81587.1 55508.6 lineto
81516.8 55438.2 lineto
81424.9 55400 lineto
81400 55400 lineto
81400 55225 lineto
81424.5 55225 lineto
81516.4 55187.1 lineto
81586.8 55116.8 lineto
81625 55024.9 lineto
81625 54925.5 lineto
81625 54375.5 lineto
81587.1 54283.6 lineto
81516.8 54213.2 lineto
81424.9 54175 lineto
81325.5 54175 lineto
80775.5 54175 lineto
80683.6 54212.9 lineto
80613.2 54283.2 lineto
80575 54375.1 lineto
80575 54474.5 lineto
80575 54474.7 lineto
80545.3 54403 lineto
80397.8 54255.2 lineto
80204.9 54175.1 lineto
79996 54174.9 lineto
79803 54254.7 lineto
79655.2 54402.2 lineto
79600 54535.2 lineto
79545.3 54403 lineto
79397.8 54255.2 lineto
79204.9 54175.1 lineto
78996 54174.9 lineto
78803 54254.7 lineto
78655.2 54402.2 lineto
78600 54535.2 lineto
78545.3 54403 lineto
78397.8 54255.2 lineto
78204.9 54175.1 lineto
77996 54174.9 lineto
77803 54254.7 lineto
77655.2 54402.2 lineto
77600 54535.2 lineto
77545.3 54403 lineto
77397.8 54255.2 lineto
77204.9 54175.1 lineto
76996 54174.9 lineto
76803 54254.7 lineto
76655.2 54402.2 lineto
76604 54525.4 lineto
76541.4 54462.9 lineto
76449.5 54425 lineto
76337.5 54425 lineto
76275 54487.5 lineto
76275 54900 lineto
76282.9 54900 lineto
76282.9 55000 lineto
76275 55000 lineto
76275 55412.5 lineto
76337.5 55475 lineto
76449.5 55475 lineto
76541.4 55437.1 lineto
76611.8 55366.8 lineto
76650 55274.9 lineto
76650 55175.5 lineto
76650 55062.5 lineto
76587.5 55000 lineto
76650 55000 lineto
76650 54985.7 lineto
76654.7 54997 lineto
76800 55142.6 lineto
76800 55400 lineto
76775.5 55400 lineto
76683.6 55437.9 lineto
76650 55471.4 lineto
76613.2 55508.2 lineto
76575 55600.1 lineto
76575 55699.5 lineto
76575 56049.5 lineto
76612.9 56141.4 lineto
76671.4 56200 lineto
76613.2 56258.2 lineto
76575 56350.1 lineto
76575 56449.5 lineto
76575 56486.6 lineto
76160 56071.6 lineto
76160 55427.5 lineto
76175 55412.5 lineto
76175 55000 lineto
76167.1 55000 lineto
76167.1 54900 lineto
76175 54900 lineto
76175 54487.5 lineto
76160 54472.5 lineto
76160 54200 lineto
76136.4 54081.4 lineto
76136.4 54081.4 lineto
76109.5 54041.1 lineto
76082 54000 lineto
82225.7 54000 lineto
82647.2 54421.5 lineto
82575.1 54595.1 lineto
82574.9 54804 lineto
82654.7 54997 lineto
82802.2 55144.8 lineto
82995.1 55224.9 lineto
83204 55225.1 lineto
83397 55145.3 lineto
83544.8 54997.8 lineto
83600 54864.8 lineto
83654.7 54997 lineto
83802.2 55144.8 lineto
83995.1 55224.9 lineto
84204 55225.1 lineto
84397 55145.3 lineto
84544.8 54997.8 lineto
84597.4 54871.2 lineto
84639.4 54972.8 lineto
84732.2 54997.1 lineto
85029.3 54700 lineto
84732.2 54402.9 lineto
84639.4 54427.2 lineto
84600.8 54537.1 lineto
84545.3 54403 lineto
84400 54257.4 lineto
84400 53950 lineto
84377.2 53835.2 lineto
84312.1 53737.9 lineto
84312.1 53737.9 lineto
83812.1 53237.9 lineto
83714.8 53172.8 lineto
83600 53150 lineto
68600 53150 lineto
68485.2 53172.8 lineto
68387.9 53237.9 lineto
67887.9 53737.9 lineto
66637.9 54987.9 lineto
66572.8 55085.2 lineto
66550 55200 lineto
66550 55950 lineto
66572.8 56064.8 lineto
66637.9 56162.1 lineto
66887.9 56412.1 lineto
66887.9 56412.1 lineto
66985.2 56477.2 lineto
67100 56500 lineto
67157.7 56500 lineto
67302.2 56644.8 lineto
67435.2 56700 lineto
67303 56754.7 lineto
67157.4 56900 lineto
67100 56900 lineto
66985.2 56922.8 lineto
66887.9 56987.9 lineto
66137.9 57737.9 lineto
66129.5 57750.4 lineto
66129.5 52979.5 lineto
94570.5 52979.5 lineto
94570.5 64920.5 lineto
poly1
100 setlinewidth
newpath
94570.5 64920.5 moveto
94129.9 64920.5 lineto
94129.9 60775.8 lineto
94118.6 60567.2 lineto
94060.6 60427.2 lineto
93967.8 60402.9 lineto
93897.1 60473.6 lineto
93897.1 60332.2 lineto
93872.8 60239.4 lineto
93675.8 60170.1 lineto
93467.2 60181.4 lineto
93385.1 60215.4 lineto
93385.1 57504.6 lineto
93385.1 56337.2 lineto
93050.8 56337.2 lineto
93050.8 56004.8 lineto
93194.5 56004.8 lineto
93194.5 54836.8 lineto
88005.5 54836.8 lineto
88005.5 55586.8 lineto
87149.2 55586.8 lineto
87149.2 56754.8 lineto
87283.5 56754.8 lineto
87283.5 57504.6 lineto
89416.5 57504.6 lineto
89416.5 56754.8 lineto
90314.9 56754.8 lineto
90314.9 57504.6 lineto
93385.1 57504.6 lineto
93385.1 60215.4 lineto
93327.2 60239.4 lineto
93302.9 60332.2 lineto
93600 60629.3 lineto
93897.1 60332.2 lineto
93897.1 60473.6 lineto
93670.7 60700 lineto
93967.8 60997.1 lineto
94060.6 60972.8 lineto
94129.9 60775.8 lineto
94129.9 64920.5 lineto
66129.5 64920.5 lineto
66129.5 63399.6 lineto
66137.9 63412.1 lineto
66887.9 64162.1 lineto
66887.9 64162.1 lineto
66985.2 64227.2 lineto
67100 64250 lineto
67100 64250 lineto
71600 64250 lineto
71600 64250 lineto
71714.8 64227.2 lineto
71714.8 64227.2 lineto
71812.1 64162.1 lineto
73412.3 62562 lineto
73483 62562 lineto
73483 62616.5 lineto
73520.9 62708.4 lineto
73551 62738.5 lineto
73551 62951 lineto
73573.8 63065.8 lineto
73638.9 63163.1 lineto
73800 63324.3 lineto
73800 64200 lineto
73822.8 64314.8 lineto
73887.9 64412.1 lineto
74137.9 64662.1 lineto
74137.9 64662.1 lineto
74235.2 64727.2 lineto
74350 64750 lineto
75850 64750 lineto
75850 64750 lineto
75964.8 64727.2 lineto
75964.8 64727.2 lineto
76062.1 64662.1 lineto
76312.1 64412.1 lineto
76312.1 64412.1 lineto
76377.2 64314.8 lineto
76400 64200 lineto
76400 64200 lineto
76400 64142.3 lineto
76544.8 63997.8 lineto
76624.9 63804.9 lineto
76625.1 63596 lineto
76545.3 63403 lineto
76402.6 63260 lineto
77123.1 63260 lineto
77072.8 63335.2 lineto
77050 63450 lineto
77050 64200 lineto
77072.8 64314.8 lineto
77137.9 64412.1 lineto
77387.9 64662.1 lineto
77387.9 64662.1 lineto
77485.2 64727.2 lineto
77600 64750 lineto
78850 64750 lineto
78850 64750 lineto
78964.8 64727.2 lineto
78964.8 64727.2 lineto
79062.1 64662.1 lineto
79312.1 64412.1 lineto
79312.1 64412.1 lineto
79377.2 64314.8 lineto
79400 64200 lineto
79400 64200 lineto
79400 64142.3 lineto
79544.8 63997.8 lineto
79575 63925.2 lineto
79575 64024.5 lineto
79612.9 64116.4 lineto
79683.2 64186.8 lineto
79775.1 64225 lineto
79874.5 64225 lineto
79950.8 64225 lineto
80387.9 64662.1 lineto
80387.9 64662.1 lineto
80485.2 64727.2 lineto
80600 64750 lineto
86850 64750 lineto
86850 64750 lineto
86964.8 64727.2 lineto
86964.8 64727.2 lineto
87062.1 64662.1 lineto
87562.1 64162.1 lineto
87562.1 64162.1 lineto
87627.2 64064.8 lineto
87650 63950 lineto
87650 63950 lineto
87650 62950 lineto
87627.2 62835.2 lineto
87562.1 62737.9 lineto
86312.1 61487.9 lineto
86214.8 61422.8 lineto
86100 61400 lineto
85724.3 61400 lineto
85525 61200.7 lineto
85525 61193.9 lineto
85541.4 61187.1 lineto
85600 61128.6 lineto
85658.2 61186.8 lineto
85750.1 61225 lineto
85849.5 61225 lineto
86199.5 61225 lineto
86291.4 61187.1 lineto
86361.8 61116.8 lineto
86400 61024.9 lineto
86400 61010 lineto
87471.6 61010 lineto
88380.8 61919.2 lineto
88481.4 61986.4 lineto
88600 62010 lineto
93075 62010 lineto
93075 62024.5 lineto
93112.9 62116.4 lineto
93183.2 62186.8 lineto
93275.1 62225 lineto
93374.5 62225 lineto
93924.5 62225 lineto
94016.4 62187.1 lineto
94086.8 62116.8 lineto
94125 62024.9 lineto
94125 61925.5 lineto
94125 61375.5 lineto
94087.1 61283.6 lineto
94016.8 61213.2 lineto
93924.9 61175 lineto
93838 61175 lineto
93872.8 61160.6 lineto
93897.1 61067.8 lineto
93600 60770.7 lineto
93529.3 60841.4 lineto
93529.3 60700 lineto
93232.2 60402.9 lineto
93139.4 60427.2 lineto
93070.1 60624.2 lineto
93081.4 60832.8 lineto
93139.4 60972.8 lineto
93232.2 60997.1 lineto
93529.3 60700 lineto
93529.3 60841.4 lineto
93302.9 61067.8 lineto
93327.2 61160.6 lineto
93368.1 61175 lineto
93275.5 61175 lineto
93183.6 61212.9 lineto
93113.2 61283.2 lineto
93075 61375.1 lineto
93075 61390 lineto
88728.4 61390 lineto
87819.2 60480.8 lineto
87718.6 60413.6 lineto
87600 60390 lineto
86400 60390 lineto
86400 60375.5 lineto
86362.1 60283.6 lineto
86291.8 60213.2 lineto
86260.1 60200 lineto
86291.4 60187.1 lineto
86361.8 60116.8 lineto
86400 60024.9 lineto
86400 59925.5 lineto
86400 59474.5 lineto
86400 59375.1 lineto
86361.8 59283.2 lineto
86291.4 59212.9 lineto
86199.5 59175 lineto
86087.5 59175 lineto
86025 59237.5 lineto
86025 59650 lineto
86337.5 59650 lineto
86400 59587.5 lineto
86400 59474.5 lineto
86400 59925.5 lineto
86400 59812.5 lineto
86337.5 59750 lineto
86025 59750 lineto
86025 59757.9 lineto
85925 59757.9 lineto
85925 59750 lineto
85917.1 59750 lineto
85917.1 59650 lineto
85925 59650 lineto
85925 59237.5 lineto
85862.5 59175 lineto
85750.5 59175 lineto
85658.6 59212.9 lineto
85600 59271.4 lineto
85541.8 59213.2 lineto
85449.9 59175 lineto
85350.5 59175 lineto
85000.5 59175 lineto
84908.6 59212.9 lineto
84838.2 59283.2 lineto
84800 59375.1 lineto
84800 59474.5 lineto
84800 60024.5 lineto
84837.9 60116.4 lineto
84908.2 60186.8 lineto
84925 60193.8 lineto
84925 60206.1 lineto
84908.6 60212.9 lineto
84838.2 60283.2 lineto
84800 60375.1 lineto
84800 60474.5 lineto
84800 61024.5 lineto
84837.9 61116.4 lineto
84908.2 61186.8 lineto
84925 61193.8 lineto
84925 61325 lineto
84947.8 61439.8 lineto
85012.9 61537.1 lineto
85387.9 61912.1 lineto
85387.9 61912.1 lineto
85485.2 61977.2 lineto
85600 62000 lineto
85975.7 62000 lineto
87050 63074.3 lineto
87050 63825.7 lineto
86725.7 64150 lineto
86553.6 64150 lineto
86586.8 64116.8 lineto
86625 64024.9 lineto
86625 63925.5 lineto
86625 63474.5 lineto
86625 63375.1 lineto
86586.8 63283.2 lineto
86516.4 63212.9 lineto
86424.5 63175 lineto
86212.5 63175 lineto
86150 63237.5 lineto
86150 63650 lineto
86562.5 63650 lineto
86625 63587.5 lineto
86625 63474.5 lineto
86625 63925.5 lineto
86625 63812.5 lineto
86562.5 63750 lineto
86150 63750 lineto
86150 63757.9 lineto
86050 63757.9 lineto
86050 63750 lineto
86042.1 63750 lineto
86042.1 63650 lineto
86050 63650 lineto
86050 63237.5 lineto
85987.5 63175 lineto
85775.5 63175 lineto
85683.6 63212.9 lineto
85613.2 63283.2 lineto
85575 63375.1 lineto
85575 63474.5 lineto
85575 63474.7 lineto
85545.3 63403 lineto
85397.8 63255.2 lineto
85204.9 63175.1 lineto
84996 63174.9 lineto
84803 63254.7 lineto
84655.2 63402.2 lineto
84600 63535.2 lineto
84545.3 63403 lineto
84410 63267.4 lineto
84410 62700 lineto
84386.4 62581.4 lineto
84386.4 62581.4 lineto
84359.5 62541.1 lineto
84319.2 62480.8 lineto
84319.2 62480.8 lineto
84069.2 62230.8 lineto
83968.6 62163.6 lineto
83850 62140 lineto
81650 62140 lineto
80478.4 62140 lineto
80133.2 61794.8 lineto
80150.1 61777.9 lineto
80188.4 61762.1 lineto
80228 61722.6 lineto
80267.2 61761.8 lineto
80305.9 61777.9 lineto
80328 61800 lineto
80352.5 61800 lineto
80355.9 61798.6 lineto
80359.1 61800 lineto
80458.5 61800 lineto
80608.5 61800 lineto
80700.4 61762.1 lineto
80770.8 61691.8 lineto
80809 61599.9 lineto
80809 61500.5 lineto
80809 61010 lineto
80850 61010 lineto
80968.6 60986.4 lineto
81069.2 60919.2 lineto
81319.2 60669.2 lineto
81319.2 60669.2 lineto
81319.2 60669.2 lineto
81359.5 60608.9 lineto
81386.4 60568.6 lineto
81386.4 60568.6 lineto
81410 60450 lineto
81410 59450 lineto
81386.4 59331.4 lineto
81319.2 59230.8 lineto
81275 59186.6 lineto
81275 59162.5 lineto
81337.5 59225 lineto
81449.5 59225 lineto
81541.4 59187.1 lineto
81611.8 59116.8 lineto
81650 59024.9 lineto
81650 58925.5 lineto
81650 58474.5 lineto
81650 58375.1 lineto
81629.2 58325 lineto
81650 58274.9 lineto
81650 58175.5 lineto
81650 58062.5 lineto
81587.5 58000 lineto
81275 58000 lineto
81275 58237.5 lineto
81275 58412.5 lineto
81275 58650 lineto
81587.5 58650 lineto
81650 58587.5 lineto
81650 58474.5 lineto
81650 58925.5 lineto
81650 58812.5 lineto
81587.5 58750 lineto
81275 58750 lineto
81275 58757.9 lineto
81175 58757.9 lineto
81175 58750 lineto
81167.1 58750 lineto
81167.1 58650 lineto
81175 58650 lineto
81175 58412.5 lineto
81175 58237.5 lineto
81175 58000 lineto
81167.1 58000 lineto
81167.1 57900 lineto
81175 57900 lineto
81175 57892.1 lineto
81275 57892.1 lineto
81275 57900 lineto
81587.5 57900 lineto
81650 57837.5 lineto
81650 57760 lineto
84100 57760 lineto
84218.6 57736.4 lineto
84319.2 57669.2 lineto
86319.2 55669.2 lineto
86319.2 55669.2 lineto
86319.2 55669.2 lineto
86386.4 55568.6 lineto
86386.4 55568.6 lineto
86405.3 55473.6 lineto
86410 55450 lineto
86410 55450 lineto
86410 55450 lineto
86410 55225 lineto
86424.5 55225 lineto
86516.4 55187.1 lineto
86586.8 55116.8 lineto
86625 55024.9 lineto
86625 54925.5 lineto
86625 54375.5 lineto
86587.1 54283.6 lineto
86516.8 54213.2 lineto
86424.9 54175 lineto
86325.5 54175 lineto
85775.5 54175 lineto
85683.6 54212.9 lineto
85613.2 54283.2 lineto
85575 54375.1 lineto
85575 54462 lineto
85560.6 54427.2 lineto
85467.8 54402.9 lineto
85397.1 54473.6 lineto
85397.1 54332.2 lineto
85372.8 54239.4 lineto
85175.8 54170.1 lineto
84967.2 54181.4 lineto
84827.2 54239.4 lineto
84802.9 54332.2 lineto
85100 54629.3 lineto
85397.1 54332.2 lineto
85397.1 54473.6 lineto
85170.7 54700 lineto
85467.8 54997.1 lineto
85560.6 54972.8 lineto
85575 54931.9 lineto
85575 55024.5 lineto
85612.9 55116.4 lineto
85683.2 55186.8 lineto
85775.1 55225 lineto
85790 55225 lineto
85790 55321.6 lineto
85397.1 55714.5 lineto
85397.1 55067.8 lineto
85100 54770.7 lineto
84802.9 55067.8 lineto
84827.2 55160.6 lineto
85024.2 55229.9 lineto
85232.8 55218.6 lineto
85372.8 55160.6 lineto
85397.1 55067.8 lineto
85397.1 55714.5 lineto
83971.6 57140 lineto
81084.3 57140 lineto
81224.2 57000 lineto
81424.5 57000 lineto
81516.4 56962.1 lineto
81586.8 56891.8 lineto
81625 56799.9 lineto
81625 56700.5 lineto
81625 56350.5 lineto
81587.1 56258.6 lineto
81528.6 56200 lineto
81586.8 56141.8 lineto
81625 56049.9 lineto
81625 55950.5 lineto
81625 55600.5 lineto
81587.1 55508.6 lineto
81516.8 55438.2 lineto
81424.9 55400 lineto
81400 55400 lineto
81400 55225 lineto
81424.5 55225 lineto
81516.4 55187.1 lineto
81586.8 55116.8 lineto
81625 55024.9 lineto
81625 54925.5 lineto
81625 54375.5 lineto
81587.1 54283.6 lineto
81516.8 54213.2 lineto
81424.9 54175 lineto
81325.5 54175 lineto
80775.5 54175 lineto
80683.6 54212.9 lineto
80613.2 54283.2 lineto
80575 54375.1 lineto
80575 54474.5 lineto
80575 54474.7 lineto
80545.3 54403 lineto
80397.8 54255.2 lineto
80204.9 54175.1 lineto
79996 54174.9 lineto
79803 54254.7 lineto
79655.2 54402.2 lineto
79600 54535.2 lineto
79545.3 54403 lineto
79397.8 54255.2 lineto
79204.9 54175.1 lineto
78996 54174.9 lineto
78803 54254.7 lineto
78655.2 54402.2 lineto
78600 54535.2 lineto
78545.3 54403 lineto
78397.8 54255.2 lineto
78204.9 54175.1 lineto
77996 54174.9 lineto
77803 54254.7 lineto
77655.2 54402.2 lineto
77600 54535.2 lineto
77545.3 54403 lineto
77397.8 54255.2 lineto
77204.9 54175.1 lineto
76996 54174.9 lineto
76803 54254.7 lineto
76655.2 54402.2 lineto
76604 54525.4 lineto
76541.4 54462.9 lineto
76449.5 54425 lineto
76337.5 54425 lineto
76275 54487.5 lineto
76275 54900 lineto
76282.9 54900 lineto
76282.9 55000 lineto
76275 55000 lineto
76275 55412.5 lineto
76337.5 55475 lineto
76449.5 55475 lineto
76541.4 55437.1 lineto
76611.8 55366.8 lineto
76650 55274.9 lineto
76650 55175.5 lineto
76650 55062.5 lineto
76587.5 55000 lineto
76650 55000 lineto
76650 54985.7 lineto
76654.7 54997 lineto
76800 55142.6 lineto
76800 55400 lineto
76775.5 55400 lineto
76683.6 55437.9 lineto
76650 55471.4 lineto
76613.2 55508.2 lineto
76575 55600.1 lineto
76575 55699.5 lineto
76575 56049.5 lineto
76612.9 56141.4 lineto
76671.4 56200 lineto
76613.2 56258.2 lineto
76575 56350.1 lineto
76575 56449.5 lineto
76575 56486.6 lineto
76160 56071.6 lineto
76160 55427.5 lineto
76175 55412.5 lineto
76175 55000 lineto
76167.1 55000 lineto
76167.1 54900 lineto
76175 54900 lineto
76175 54487.5 lineto
76160 54472.5 lineto
76160 54200 lineto
76136.4 54081.4 lineto
76136.4 54081.4 lineto
76109.5 54041.1 lineto
76082 54000 lineto
82225.7 54000 lineto
82647.2 54421.5 lineto
82575.1 54595.1 lineto
82574.9 54804 lineto
82654.7 54997 lineto
82802.2 55144.8 lineto
82995.1 55224.9 lineto
83204 55225.1 lineto
83397 55145.3 lineto
83544.8 54997.8 lineto
83600 54864.8 lineto
83654.7 54997 lineto
83802.2 55144.8 lineto
83995.1 55224.9 lineto
84204 55225.1 lineto
84397 55145.3 lineto
84544.8 54997.8 lineto
84597.4 54871.2 lineto
84639.4 54972.8 lineto
84732.2 54997.1 lineto
85029.3 54700 lineto
84732.2 54402.9 lineto
84639.4 54427.2 lineto
84600.8 54537.1 lineto
84545.3 54403 lineto
84400 54257.4 lineto
84400 53950 lineto
84377.2 53835.2 lineto
84312.1 53737.9 lineto
84312.1 53737.9 lineto
83812.1 53237.9 lineto
83714.8 53172.8 lineto
83600 53150 lineto
68600 53150 lineto
68485.2 53172.8 lineto
68387.9 53237.9 lineto
67887.9 53737.9 lineto
66637.9 54987.9 lineto
66572.8 55085.2 lineto
66550 55200 lineto
66550 55950 lineto
66572.8 56064.8 lineto
66637.9 56162.1 lineto
66887.9 56412.1 lineto
66887.9 56412.1 lineto
66985.2 56477.2 lineto
67100 56500 lineto
67157.7 56500 lineto
67302.2 56644.8 lineto
67435.2 56700 lineto
67303 56754.7 lineto
67157.4 56900 lineto
67100 56900 lineto
66985.2 56922.8 lineto
66887.9 56987.9 lineto
66137.9 57737.9 lineto
66129.5 57750.4 lineto
66129.5 52979.5 lineto
94570.5 52979.5 lineto
94570.5 64920.5 lineto
poly0
1 1 1 setrgbcolor
59.0551 setlinewidth
86100 63700 39.3701 cir1
85100 63700 39.3701 cir1
84100 63700 39.3701 cir1
83100 63700 39.3701 cir1
82100 63700 39.3701 cir1
81100 63700 39.3701 cir1
67600 59200 39.3701 cir1
67600 58200 39.3701 cir1
67600 57200 39.3701 cir1
67600 56200 39.3701 cir1
67600 55200 39.3701 cir1
81100 54700 39.3701 cir1
80100 54700 39.3701 cir1
79100 54700 39.3701 cir1
78100 54700 39.3701 cir1
77100 54700 39.3701 cir1
86100 54700 39.3701 cir1
85100 54700 39.3701 cir1
84100 54700 39.3701 cir1
83100 54700 39.3701 cir1
80100 63700 39.3701 cir1
79100 63700 39.3701 cir1
78100 63700 39.3701 cir1
75100 63700 39.3701 cir1
76100 63700 39.3701 cir1
93600 61700 39.3701 cir1
93600 60700 39.3701 cir1
67600 62700 39.3701 cir1
67600 61700 39.3701 cir1
67600 60700 39.3701 cir1
70850 55200 39.3701 cir1
71850 55200 39.3701 cir1
0 0 0 setrgbcolor
showpage
grestore
%%EOF
