%!PS-Adobe-3.0
%%Creator: PCBNEW
%%CreationDate: Tue Sep 16 11:16:58 2014
%%Title: /home/zako/Documentos/FabLAB/2014/ACUE/hardware/proto-F_SilkS.ps
%%Pages: 1
%%PageOrder: Ascend
%%BoundingBox: 0 0 842 1191
%%DocumentMedia: A3 842 1191 0 () ()
%%Orientation: Landscape
%%EndComments
%%BeginProlog
/line { newpath moveto lineto stroke } bind def
/cir0 { newpath 0 360 arc stroke } bind def
/cir1 { newpath 0 360 arc gsave fill grestore stroke } bind def
/cir2 { newpath 0 360 arc gsave fill grestore stroke } bind def
/arc0 { newpath arc stroke } bind def
/arc1 { newpath 4 index 4 index moveto arc closepath gsave fill
    grestore stroke } bind def
/arc2 { newpath 4 index 4 index moveto arc closepath gsave fill
    grestore stroke } bind def
/poly0 { stroke } bind def
/poly1 { closepath gsave fill grestore stroke } bind def
/poly2 { closepath gsave fill grestore stroke } bind def
/rect0 { rectstroke } bind def
/rect1 { rectfill } bind def
/rect2 { rectfill } bind def
/linemode0 { 0 setlinecap 0 setlinejoin 0 setlinewidth } bind def
/linemode1 { 1 setlinecap 1 setlinejoin } bind def
/dashedline { [200] 100 setdash } bind def
/solidline { [] 0 setdash } bind def
/phantomshow { moveto
    /KicadFont findfont 0.000001 scalefont setfont
    show } bind def
/textshow { gsave
    findfont exch scalefont setfont concat 1 scale 0 0 moveto show
    } bind def
/reencodefont {
  findfont dup length dict begin
  { 1 index /FID ne
    { def }
    { pop pop } ifelse
  } forall
  /Encoding ISOLatin1Encoding def
  currentdict
  end } bind def
/KicadFont /Helvetica reencodefont definefont pop
/KicadFont-Bold /Helvetica-Bold reencodefont definefont pop
/KicadFont-Oblique /Helvetica-Oblique reencodefont definefont pop
/KicadFont-BoldOblique /Helvetica-BoldOblique reencodefont definefont pop
%%EndProlog
%%Page: 1 1
%%BeginPageSetup
gsave
0.0072 0.0072 scale
linemode1
116930 0 translate 90 rotate
177.165 setlinewidth
%%EndPageSetup
0 0 0 setrgbcolor
0 0 0 setrgbcolor
150 setlinewidth
newpath
60682 64765 moveto
62782 64765 lineto
stroke
0 0 0 setrgbcolor
newpath
62782 64765 moveto
62782 61165 lineto
stroke
0 0 0 setrgbcolor
newpath
62782 61165 moveto
60682 61165 lineto
stroke
0 0 0 setrgbcolor
newpath
60682 61165 moveto
60682 64765 lineto
stroke
0 0 0 setrgbcolor
117 setlinewidth
96532 52315 150 cir0
0 0 0 setrgbcolor
newpath
97882 52315 moveto
96682 52315 lineto
stroke
0 0 0 setrgbcolor
newpath
96682 52315 moveto
96682 54115 lineto
stroke
0 0 0 setrgbcolor
newpath
96682 54115 moveto
97882 54115 lineto
stroke
0 0 0 setrgbcolor
newpath
99082 54115 moveto
100282 54115 lineto
stroke
0 0 0 setrgbcolor
newpath
100282 54115 moveto
100282 52315 lineto
stroke
0 0 0 setrgbcolor
newpath
100282 52315 moveto
99082 52315 lineto
stroke
0 0 0 setrgbcolor
56332 64915 150 cir0
0 0 0 setrgbcolor
newpath
56332 63565 moveto
56332 64765 lineto
stroke
0 0 0 setrgbcolor
newpath
56332 64765 moveto
58132 64765 lineto
stroke
0 0 0 setrgbcolor
newpath
58132 64765 moveto
58132 63565 lineto
stroke
0 0 0 setrgbcolor
newpath
58132 62365 moveto
58132 61165 lineto
stroke
0 0 0 setrgbcolor
newpath
58132 61165 moveto
56332 61165 lineto
stroke
0 0 0 setrgbcolor
newpath
56332 61165 moveto
56332 62365 lineto
stroke
0 0 0 setrgbcolor
53332 64915 150 cir0
0 0 0 setrgbcolor
newpath
53332 63565 moveto
53332 64765 lineto
stroke
0 0 0 setrgbcolor
newpath
53332 64765 moveto
55132 64765 lineto
stroke
0 0 0 setrgbcolor
newpath
55132 64765 moveto
55132 63565 lineto
stroke
0 0 0 setrgbcolor
newpath
55132 62365 moveto
55132 61165 lineto
stroke
0 0 0 setrgbcolor
newpath
55132 61165 moveto
53332 61165 lineto
stroke
0 0 0 setrgbcolor
newpath
53332 61165 moveto
53332 62365 lineto
stroke
0 0 0 setrgbcolor
65332 64165 150 cir0
0 0 0 setrgbcolor
newpath
65332 62815 moveto
65332 64015 lineto
stroke
0 0 0 setrgbcolor
newpath
65332 64015 moveto
67132 64015 lineto
stroke
0 0 0 setrgbcolor
newpath
67132 64015 moveto
67132 62815 lineto
stroke
0 0 0 setrgbcolor
newpath
67132 61615 moveto
67132 60415 lineto
stroke
0 0 0 setrgbcolor
newpath
67132 60415 moveto
65332 60415 lineto
stroke
0 0 0 setrgbcolor
newpath
65332 60415 moveto
65332 61615 lineto
stroke
0 0 0 setrgbcolor
65332 68665 150 cir0
0 0 0 setrgbcolor
newpath
65332 67315 moveto
65332 68515 lineto
stroke
0 0 0 setrgbcolor
newpath
65332 68515 moveto
67132 68515 lineto
stroke
0 0 0 setrgbcolor
newpath
67132 68515 moveto
67132 67315 lineto
stroke
0 0 0 setrgbcolor
newpath
67132 66115 moveto
67132 64915 lineto
stroke
0 0 0 setrgbcolor
newpath
67132 64915 moveto
65332 64915 lineto
stroke
0 0 0 setrgbcolor
newpath
65332 64915 moveto
65332 66115 lineto
stroke
0 0 0 setrgbcolor
68932 59365 150 cir0
0 0 0 setrgbcolor
newpath
67582 59365 moveto
68782 59365 lineto
stroke
0 0 0 setrgbcolor
newpath
68782 59365 moveto
68782 57565 lineto
stroke
0 0 0 setrgbcolor
newpath
68782 57565 moveto
67582 57565 lineto
stroke
0 0 0 setrgbcolor
newpath
66382 57565 moveto
65182 57565 lineto
stroke
0 0 0 setrgbcolor
newpath
65182 57565 moveto
65182 59365 lineto
stroke
0 0 0 setrgbcolor
newpath
65182 59365 moveto
66382 59365 lineto
stroke
0 0 0 setrgbcolor
69082 64165 150 cir0
0 0 0 setrgbcolor
newpath
69082 62815 moveto
69082 64015 lineto
stroke
0 0 0 setrgbcolor
newpath
69082 64015 moveto
70882 64015 lineto
stroke
0 0 0 setrgbcolor
newpath
70882 64015 moveto
70882 62815 lineto
stroke
0 0 0 setrgbcolor
newpath
70882 61615 moveto
70882 60415 lineto
stroke
0 0 0 setrgbcolor
newpath
70882 60415 moveto
69082 60415 lineto
stroke
0 0 0 setrgbcolor
newpath
69082 60415 moveto
69082 61615 lineto
stroke
0 0 0 setrgbcolor
86182 62365 150 cir0
0 0 0 setrgbcolor
newpath
84832 62365 moveto
86032 62365 lineto
stroke
0 0 0 setrgbcolor
newpath
86032 62365 moveto
86032 60565 lineto
stroke
0 0 0 setrgbcolor
newpath
86032 60565 moveto
84832 60565 lineto
stroke
0 0 0 setrgbcolor
newpath
83632 60565 moveto
82432 60565 lineto
stroke
0 0 0 setrgbcolor
newpath
82432 60565 moveto
82432 62365 lineto
stroke
0 0 0 setrgbcolor
newpath
82432 62365 moveto
83632 62365 lineto
stroke
0 0 0 setrgbcolor
86182 60115 150 cir0
0 0 0 setrgbcolor
newpath
84832 60115 moveto
86032 60115 lineto
stroke
0 0 0 setrgbcolor
newpath
86032 60115 moveto
86032 58315 lineto
stroke
0 0 0 setrgbcolor
newpath
86032 58315 moveto
84832 58315 lineto
stroke
0 0 0 setrgbcolor
newpath
83632 58315 moveto
82432 58315 lineto
stroke
0 0 0 setrgbcolor
newpath
82432 58315 moveto
82432 60115 lineto
stroke
0 0 0 setrgbcolor
newpath
82432 60115 moveto
83632 60115 lineto
stroke
0 0 0 setrgbcolor
72082 68665 150 cir0
0 0 0 setrgbcolor
newpath
72082 67315 moveto
72082 68515 lineto
stroke
0 0 0 setrgbcolor
newpath
72082 68515 moveto
73882 68515 lineto
stroke
0 0 0 setrgbcolor
newpath
73882 68515 moveto
73882 67315 lineto
stroke
0 0 0 setrgbcolor
newpath
73882 66115 moveto
73882 64915 lineto
stroke
0 0 0 setrgbcolor
newpath
73882 64915 moveto
72082 64915 lineto
stroke
0 0 0 setrgbcolor
newpath
72082 64915 moveto
72082 66115 lineto
stroke
0 0 0 setrgbcolor
84082 68665 150 cir0
0 0 0 setrgbcolor
newpath
84082 67315 moveto
84082 68515 lineto
stroke
0 0 0 setrgbcolor
newpath
84082 68515 moveto
85882 68515 lineto
stroke
0 0 0 setrgbcolor
newpath
85882 68515 moveto
85882 67315 lineto
stroke
0 0 0 setrgbcolor
newpath
85882 66115 moveto
85882 64915 lineto
stroke
0 0 0 setrgbcolor
newpath
85882 64915 moveto
84082 64915 lineto
stroke
0 0 0 setrgbcolor
newpath
84082 64915 moveto
84082 66115 lineto
stroke
0 0 0 setrgbcolor
81082 68665 150 cir0
0 0 0 setrgbcolor
newpath
81082 67315 moveto
81082 68515 lineto
stroke
0 0 0 setrgbcolor
newpath
81082 68515 moveto
82882 68515 lineto
stroke
0 0 0 setrgbcolor
newpath
82882 68515 moveto
82882 67315 lineto
stroke
0 0 0 setrgbcolor
newpath
82882 66115 moveto
82882 64915 lineto
stroke
0 0 0 setrgbcolor
newpath
82882 64915 moveto
81082 64915 lineto
stroke
0 0 0 setrgbcolor
newpath
81082 64915 moveto
81082 66115 lineto
stroke
0 0 0 setrgbcolor
96532 55315 150 cir0
0 0 0 setrgbcolor
newpath
97882 55315 moveto
96682 55315 lineto
stroke
0 0 0 setrgbcolor
newpath
96682 55315 moveto
96682 57115 lineto
stroke
0 0 0 setrgbcolor
newpath
96682 57115 moveto
97882 57115 lineto
stroke
0 0 0 setrgbcolor
newpath
99082 57115 moveto
100282 57115 lineto
stroke
0 0 0 setrgbcolor
newpath
100282 57115 moveto
100282 55315 lineto
stroke
0 0 0 setrgbcolor
newpath
100282 55315 moveto
99082 55315 lineto
stroke
0 0 0 setrgbcolor
360 setlinewidth
newpath
101482 45715 moveto
101482 42715 lineto
stroke
0 0 0 setrgbcolor
newpath
101482 42715 moveto
83482 42715 lineto
stroke
0 0 0 setrgbcolor
newpath
83482 42715 moveto
83482 45715 lineto
stroke
0 0 0 setrgbcolor
newpath
83482 45715 moveto
101482 45715 lineto
stroke
0 0 0 setrgbcolor
newpath
98482 45715 moveto
98482 42715 lineto
stroke
0 0 0 setrgbcolor
newpath
45982 56215 moveto
42982 56215 lineto
stroke
0 0 0 setrgbcolor
newpath
42982 56215 moveto
42982 71215 lineto
stroke
0 0 0 setrgbcolor
newpath
42982 71215 moveto
45982 71215 lineto
stroke
0 0 0 setrgbcolor
newpath
45982 71215 moveto
45982 56215 lineto
stroke
0 0 0 setrgbcolor
newpath
45982 59215 moveto
42982 59215 lineto
stroke
0 0 0 setrgbcolor
newpath
86482 72715 moveto
86482 69715 lineto
stroke
0 0 0 setrgbcolor
newpath
86482 69715 moveto
71482 69715 lineto
stroke
0 0 0 setrgbcolor
newpath
71482 69715 moveto
71482 72715 lineto
stroke
0 0 0 setrgbcolor
newpath
71482 72715 moveto
86482 72715 lineto
stroke
0 0 0 setrgbcolor
newpath
83482 72715 moveto
83482 69715 lineto
stroke
0 0 0 setrgbcolor
newpath
101482 69715 moveto
101482 69715 lineto
stroke
0 0 0 setrgbcolor
newpath
101482 72715 moveto
101482 69715 lineto
stroke
0 0 0 setrgbcolor
newpath
101482 69715 moveto
101482 69715 lineto
stroke
0 0 0 setrgbcolor
newpath
101482 69715 moveto
89482 69715 lineto
stroke
0 0 0 setrgbcolor
newpath
89482 69715 moveto
89482 72715 lineto
stroke
0 0 0 setrgbcolor
newpath
89482 72715 moveto
101482 72715 lineto
stroke
0 0 0 setrgbcolor
newpath
98482 72715 moveto
98482 69715 lineto
stroke
0 0 0 setrgbcolor
newpath
83482 45715 moveto
83482 42715 lineto
stroke
0 0 0 setrgbcolor
newpath
83482 42715 moveto
74482 42715 lineto
stroke
0 0 0 setrgbcolor
newpath
74482 42715 moveto
74482 45715 lineto
stroke
0 0 0 setrgbcolor
newpath
74482 45715 moveto
83482 45715 lineto
stroke
0 0 0 setrgbcolor
newpath
80482 42715 moveto
80482 45715 lineto
stroke
0 0 0 setrgbcolor
newpath
68482 45715 moveto
68482 42715 lineto
stroke
0 0 0 setrgbcolor
newpath
68482 42715 moveto
62482 42715 lineto
stroke
0 0 0 setrgbcolor
newpath
62482 42715 moveto
62482 45715 lineto
stroke
0 0 0 setrgbcolor
newpath
62482 45715 moveto
68482 45715 lineto
stroke
0 0 0 setrgbcolor
newpath
123982 48715 moveto
120982 48715 lineto
stroke
0 0 0 setrgbcolor
newpath
120982 48715 moveto
120982 54715 lineto
stroke
0 0 0 setrgbcolor
newpath
120982 54715 moveto
123982 54715 lineto
stroke
0 0 0 setrgbcolor
newpath
123982 54715 moveto
123982 48715 lineto
stroke
0 0 0 setrgbcolor
300 setlinewidth
newpath
40732 45715 moveto
48232 45715 lineto
stroke
0 0 0 setrgbcolor
newpath
40732 54715 moveto
48232 54715 lineto
stroke
0 0 0 setrgbcolor
newpath
42982 54715 moveto
42982 45715 lineto
stroke
0 0 0 setrgbcolor
newpath
40732 45715 moveto
40732 54715 lineto
stroke
0 0 0 setrgbcolor
newpath
48232 54715 moveto
48232 45715 lineto
stroke
0 0 0 setrgbcolor
newpath
58732 71215 moveto
52732 71215 lineto
stroke
0 0 0 setrgbcolor
newpath
58732 65965 moveto
52732 65965 lineto
stroke
0 0 0 setrgbcolor
newpath
52732 73465 moveto
58732 73465 lineto
stroke
0 0 0 setrgbcolor
newpath
52732 73465 moveto
52732 65965 lineto
stroke
0 0 0 setrgbcolor
newpath
58732 73465 moveto
58732 65965 lineto
stroke
0 0 0 setrgbcolor
240 setlinewidth
newpath
81607 52090 moveto
80107 53515 lineto
stroke
0 0 0 setrgbcolor
newpath
80107 52090 moveto
83857 52090 lineto
stroke
0 0 0 setrgbcolor
newpath
83857 52090 moveto
83857 55840 lineto
stroke
0 0 0 setrgbcolor
newpath
83857 55840 moveto
80107 55840 lineto
stroke
0 0 0 setrgbcolor
newpath
80107 55840 moveto
80107 52090 lineto
stroke
0 0 0 setrgbcolor
117 setlinewidth
52882 55765 150 cir0
0 0 0 setrgbcolor
newpath
52882 57115 moveto
52882 55915 lineto
stroke
0 0 0 setrgbcolor
newpath
52882 55915 moveto
51082 55915 lineto
stroke
0 0 0 setrgbcolor
newpath
51082 55915 moveto
51082 57115 lineto
stroke
0 0 0 setrgbcolor
newpath
51082 58315 moveto
51082 59515 lineto
stroke
0 0 0 setrgbcolor
newpath
51082 59515 moveto
52882 59515 lineto
stroke
0 0 0 setrgbcolor
newpath
52882 59515 moveto
52882 58315 lineto
stroke
0 0 0 setrgbcolor
75082 52165 150 cir0
0 0 0 setrgbcolor
newpath
75082 50815 moveto
75082 52015 lineto
stroke
0 0 0 setrgbcolor
newpath
75082 52015 moveto
76882 52015 lineto
stroke
0 0 0 setrgbcolor
newpath
76882 52015 moveto
76882 50815 lineto
stroke
0 0 0 setrgbcolor
newpath
76882 49615 moveto
76882 48415 lineto
stroke
0 0 0 setrgbcolor
newpath
76882 48415 moveto
75082 48415 lineto
stroke
0 0 0 setrgbcolor
newpath
75082 48415 moveto
75082 49615 lineto
stroke
0 0 0 setrgbcolor
77332 52165 150 cir0
0 0 0 setrgbcolor
newpath
77332 50815 moveto
77332 52015 lineto
stroke
0 0 0 setrgbcolor
newpath
77332 52015 moveto
79132 52015 lineto
stroke
0 0 0 setrgbcolor
newpath
79132 52015 moveto
79132 50815 lineto
stroke
0 0 0 setrgbcolor
newpath
79132 49615 moveto
79132 48415 lineto
stroke
0 0 0 setrgbcolor
newpath
79132 48415 moveto
77332 48415 lineto
stroke
0 0 0 setrgbcolor
newpath
77332 48415 moveto
77332 49615 lineto
stroke
0 0 0 setrgbcolor
48532 68815 150 cir0
0 0 0 setrgbcolor
newpath
49882 68815 moveto
48682 68815 lineto
stroke
0 0 0 setrgbcolor
newpath
48682 68815 moveto
48682 70615 lineto
stroke
0 0 0 setrgbcolor
newpath
48682 70615 moveto
49882 70615 lineto
stroke
0 0 0 setrgbcolor
newpath
51082 70615 moveto
52282 70615 lineto
stroke
0 0 0 setrgbcolor
newpath
52282 70615 moveto
52282 68815 lineto
stroke
0 0 0 setrgbcolor
newpath
52282 68815 moveto
51082 68815 lineto
stroke
0 0 0 setrgbcolor
67282 69565 150 cir0
0 0 0 setrgbcolor
newpath
68632 69565 moveto
67432 69565 lineto
stroke
0 0 0 setrgbcolor
newpath
67432 69565 moveto
67432 71365 lineto
stroke
0 0 0 setrgbcolor
newpath
67432 71365 moveto
68632 71365 lineto
stroke
0 0 0 setrgbcolor
newpath
69832 71365 moveto
71032 71365 lineto
stroke
0 0 0 setrgbcolor
newpath
71032 71365 moveto
71032 69565 lineto
stroke
0 0 0 setrgbcolor
newpath
71032 69565 moveto
69832 69565 lineto
stroke
0 0 0 setrgbcolor
46282 65815 150 cir0
0 0 0 setrgbcolor
newpath
47632 65815 moveto
46432 65815 lineto
stroke
0 0 0 setrgbcolor
newpath
46432 65815 moveto
46432 67615 lineto
stroke
0 0 0 setrgbcolor
newpath
46432 67615 moveto
47632 67615 lineto
stroke
0 0 0 setrgbcolor
newpath
48832 67615 moveto
50032 67615 lineto
stroke
0 0 0 setrgbcolor
newpath
50032 67615 moveto
50032 65815 lineto
stroke
0 0 0 setrgbcolor
newpath
50032 65815 moveto
48832 65815 lineto
stroke
0 0 0 setrgbcolor
50632 55765 150 cir0
0 0 0 setrgbcolor
newpath
50632 57115 moveto
50632 55915 lineto
stroke
0 0 0 setrgbcolor
newpath
50632 55915 moveto
48832 55915 lineto
stroke
0 0 0 setrgbcolor
newpath
48832 55915 moveto
48832 57115 lineto
stroke
0 0 0 setrgbcolor
newpath
48832 58315 moveto
48832 59515 lineto
stroke
0 0 0 setrgbcolor
newpath
48832 59515 moveto
50632 59515 lineto
stroke
0 0 0 setrgbcolor
newpath
50632 59515 moveto
50632 58315 lineto
stroke
0 0 0 setrgbcolor
58739.5 52699.7 149.999 cir0
0 0 0 setrgbcolor
newpath
59694.1 53654.3 moveto
58845.6 52805.8 lineto
stroke
0 0 0 setrgbcolor
newpath
58845.6 52805.8 moveto
57572.8 54078.6 lineto
stroke
0 0 0 setrgbcolor
newpath
57572.8 54078.6 moveto
58421.3 54927.1 lineto
stroke
0 0 0 setrgbcolor
newpath
59269.8 55775.7 moveto
60118.4 56624.2 lineto
stroke
0 0 0 setrgbcolor
newpath
60118.4 56624.2 moveto
61391.1 55351.4 lineto
stroke
0 0 0 setrgbcolor
newpath
61391.1 55351.4 moveto
60542.6 54502.9 lineto
stroke
0 0 0 setrgbcolor
177.165 setlinewidth
67582 52915 300 cir0
0 0 0 setrgbcolor
294 setlinewidth
newpath
68374 49414 moveto
68233 49414 lineto
stroke
0 0 0 setrgbcolor
newpath
62731 49414 moveto
62590 49414 lineto
stroke
0 0 0 setrgbcolor
newpath
62590 49414 moveto
62590 54016 lineto
stroke
0 0 0 setrgbcolor
newpath
68374 54016 moveto
68233 54016 lineto
stroke
0 0 0 setrgbcolor
newpath
62731 54016 moveto
62590 54016 lineto
stroke
0 0 0 setrgbcolor
newpath
68374 49414 moveto
68374 54016 lineto
stroke
0 0 0 setrgbcolor
177.165 setlinewidth
newpath
71482 52615 moveto
71482 52315 lineto
stroke
0 0 0 setrgbcolor
newpath
69982 52315 moveto
72982 52315 lineto
stroke
0 0 0 setrgbcolor
newpath
69982 51415 moveto
72982 51415 lineto
stroke
0 0 0 setrgbcolor
newpath
72982 51415 moveto
72982 52015 lineto
stroke
0 0 0 setrgbcolor
newpath
72982 52015 moveto
69982 52015 lineto
stroke
0 0 0 setrgbcolor
newpath
69982 52015 moveto
69982 51415 lineto
stroke
0 0 0 setrgbcolor
newpath
71482 51115 moveto
72982 51115 lineto
stroke
0 0 0 setrgbcolor
newpath
71482 50815 moveto
71482 51115 lineto
stroke
0 0 0 setrgbcolor
newpath
71482 51115 moveto
69982 51115 lineto
stroke
0 0 0 setrgbcolor
newpath
71482 52615 moveto
71482 52915 lineto
stroke
0 0 0 setrgbcolor
newpath
71482 50515 moveto
71482 50815 lineto
stroke
0 0 0 setrgbcolor
newpath
79882 60415 moveto
79582 60115 lineto
stroke
0 0 0 setrgbcolor
newpath
79582 60115 moveto
75082 60115 lineto
stroke
0 0 0 setrgbcolor
newpath
75082 60115 moveto
75082 60415 lineto
stroke
0 0 0 setrgbcolor
newpath
79882 64015 moveto
79882 64315 lineto
stroke
0 0 0 setrgbcolor
newpath
79882 64315 moveto
75082 64315 lineto
stroke
0 0 0 setrgbcolor
newpath
75082 64315 moveto
75082 64015 lineto
stroke
0 0 0 setrgbcolor
150 setlinewidth
0 0 0 setrgbcolor
(U2) 60232 65965 phantomshow
0 0 0 setrgbcolor
newpath
59660.5 66411.4 moveto
59660.5 65804.3 lineto
59696.2 65732.9 lineto
59732 65697.1 lineto
59803.4 65661.4 lineto
59946.2 65661.4 lineto
60017.7 65697.1 lineto
60053.4 65732.9 lineto
60089.1 65804.3 lineto
60089.1 66411.4 lineto
stroke
newpath
60410.5 66340 moveto
60446.2 66375.7 lineto
60517.7 66411.4 lineto
60696.2 66411.4 lineto
60767.7 66375.7 lineto
60803.4 66340 lineto
60839.1 66268.6 lineto
60839.1 66197.1 lineto
60803.4 66090 lineto
60374.8 65661.4 lineto
60839.1 65661.4 lineto
stroke
0 0 0 setrgbcolor
0 0 0 setrgbcolor
(OPA340NA) 61732 62965 phantomshow
0 0 0 setrgbcolor
newpath
61285.5 60411.4 moveto
61285.5 60554.3 lineto
61321.2 60625.7 lineto
61392.7 60697.1 lineto
61535.5 60732.9 lineto
61785.5 60732.9 lineto
61928.4 60697.1 lineto
61999.8 60625.7 lineto
62035.5 60554.3 lineto
62035.5 60411.4 lineto
61999.8 60340 lineto
61928.4 60268.6 lineto
61785.5 60232.9 lineto
61535.5 60232.9 lineto
61392.7 60268.6 lineto
61321.2 60340 lineto
61285.5 60411.4 lineto
stroke
newpath
62035.5 61054.3 moveto
61285.5 61054.3 lineto
61285.5 61340 lineto
61321.2 61411.4 lineto
61357 61447.1 lineto
61428.4 61482.9 lineto
61535.5 61482.9 lineto
61607 61447.1 lineto
61642.7 61411.4 lineto
61678.4 61340 lineto
61678.4 61054.3 lineto
stroke
newpath
61821.2 61768.6 moveto
61821.2 62125.7 lineto
stroke
newpath
62035.5 61697.1 moveto
61285.5 61947.1 lineto
62035.5 62197.1 lineto
stroke
newpath
61285.5 62375.7 moveto
61285.5 62840 lineto
61571.2 62590 lineto
61571.2 62697.1 lineto
61607 62768.6 lineto
61642.7 62804.3 lineto
61714.1 62840 lineto
61892.7 62840 lineto
61964.1 62804.3 lineto
61999.8 62768.6 lineto
62035.5 62697.1 lineto
62035.5 62482.9 lineto
61999.8 62411.4 lineto
61964.1 62375.7 lineto
stroke
newpath
61535.5 63482.9 moveto
62035.5 63482.9 lineto
stroke
newpath
61249.8 63304.3 moveto
61785.5 63125.7 lineto
61785.5 63590 lineto
stroke
newpath
61285.5 64018.6 moveto
61285.5 64090 lineto
61321.2 64161.4 lineto
61357 64197.1 lineto
61428.4 64232.9 lineto
61571.2 64268.6 lineto
61749.8 64268.6 lineto
61892.7 64232.9 lineto
61964.1 64197.1 lineto
61999.8 64161.4 lineto
62035.5 64090 lineto
62035.5 64018.6 lineto
61999.8 63947.1 lineto
61964.1 63911.4 lineto
61892.7 63875.7 lineto
61749.8 63840 lineto
61571.2 63840 lineto
61428.4 63875.7 lineto
61357 63911.4 lineto
61321.2 63947.1 lineto
61285.5 64018.6 lineto
stroke
newpath
62035.5 64590 moveto
61285.5 64590 lineto
62035.5 65018.6 lineto
61285.5 65018.6 lineto
stroke
newpath
61821.2 65340 moveto
61821.2 65697.1 lineto
stroke
newpath
62035.5 65268.6 moveto
61285.5 65518.6 lineto
62035.5 65768.6 lineto
stroke
0 0 0 setrgbcolor
129 setlinewidth
0 0 0 setrgbcolor
(R2) 98482 53590 phantomshow
0 0 0 setrgbcolor
newpath
98383.5 53350.8 moveto
98186.5 53632.2 lineto
stroke
newpath
98045.7 53350.8 moveto
98045.7 53941.8 lineto
98270.9 53941.8 lineto
98327.2 53913.6 lineto
98355.3 53885.5 lineto
98383.5 53829.2 lineto
98383.5 53744.8 lineto
98355.3 53688.5 lineto
98327.2 53660.4 lineto
98270.9 53632.2 lineto
98045.7 53632.2 lineto
stroke
newpath
98608.6 53885.5 moveto
98636.7 53913.6 lineto
98693 53941.8 lineto
98833.7 53941.8 lineto
98890 53913.6 lineto
98918.2 53885.5 lineto
98946.3 53829.2 lineto
98946.3 53772.9 lineto
98918.2 53688.5 lineto
98580.5 53350.8 lineto
98946.3 53350.8 lineto
stroke
0 0 0 setrgbcolor
0 0 0 setrgbcolor
(1K) 98482 52765 phantomshow
0 0 0 setrgbcolor
newpath
98355.3 52525.8 moveto
98017.6 52525.8 lineto
stroke
newpath
98186.5 52525.8 moveto
98186.5 53116.8 lineto
98130.2 53032.4 lineto
98073.9 52976.1 lineto
98017.6 52947.9 lineto
stroke
newpath
98608.6 52525.8 moveto
98608.6 53116.8 lineto
stroke
newpath
98946.3 52525.8 moveto
98693 52863.5 lineto
stroke
newpath
98946.3 53116.8 moveto
98608.6 52779.1 lineto
stroke
0 0 0 setrgbcolor
0 0 0 setrgbcolor
(C4) 57607 62965 phantomshow
0 0 0 setrgbcolor
newpath
57789.9 62866.5 moveto
57818 62838.4 lineto
57846.2 62753.9 lineto
57846.2 62697.6 lineto
57818 62613.2 lineto
57761.7 62556.9 lineto
57705.5 62528.8 lineto
57592.9 62500.6 lineto
57508.5 62500.6 lineto
57395.9 62528.8 lineto
57339.6 62556.9 lineto
57283.3 62613.2 lineto
57255.2 62697.6 lineto
57255.2 62753.9 lineto
57283.3 62838.4 lineto
57311.5 62866.5 lineto
stroke
newpath
57452.2 63373.1 moveto
57846.2 63373.1 lineto
stroke
newpath
57227 63232.4 moveto
57649.2 63091.6 lineto
57649.2 63457.5 lineto
stroke
0 0 0 setrgbcolor
0 0 0 setrgbcolor
(100n) 56782 62965 phantomshow
0 0 0 setrgbcolor
newpath
57021.2 62303.6 moveto
57021.2 61965.9 lineto
stroke
newpath
57021.2 62134.8 moveto
56430.2 62134.8 lineto
56514.6 62078.5 lineto
56570.9 62022.2 lineto
56599 61965.9 lineto
stroke
newpath
56430.2 62669.5 moveto
56430.2 62725.8 lineto
56458.3 62782.1 lineto
56486.5 62810.2 lineto
56542.7 62838.4 lineto
56655.3 62866.5 lineto
56796 62866.5 lineto
56908.6 62838.4 lineto
56964.9 62810.2 lineto
56993 62782.1 lineto
57021.2 62725.8 lineto
57021.2 62669.5 lineto
56993 62613.2 lineto
56964.9 62585.1 lineto
56908.6 62556.9 lineto
56796 62528.8 lineto
56655.3 62528.8 lineto
56542.7 62556.9 lineto
56486.5 62585.1 lineto
56458.3 62613.2 lineto
56430.2 62669.5 lineto
stroke
newpath
56430.2 63232.4 moveto
56430.2 63288.6 lineto
56458.3 63344.9 lineto
56486.5 63373.1 lineto
56542.7 63401.2 lineto
56655.3 63429.4 lineto
56796 63429.4 lineto
56908.6 63401.2 lineto
56964.9 63373.1 lineto
56993 63344.9 lineto
57021.2 63288.6 lineto
57021.2 63232.4 lineto
56993 63176.1 lineto
56964.9 63147.9 lineto
56908.6 63119.8 lineto
56796 63091.6 lineto
56655.3 63091.6 lineto
56542.7 63119.8 lineto
56486.5 63147.9 lineto
56458.3 63176.1 lineto
56430.2 63232.4 lineto
stroke
newpath
56627.2 63682.6 moveto
57021.2 63682.6 lineto
stroke
newpath
56683.5 63682.6 moveto
56655.3 63710.8 lineto
56627.2 63767.1 lineto
56627.2 63851.5 lineto
56655.3 63907.8 lineto
56711.6 63935.9 lineto
57021.2 63935.9 lineto
stroke
0 0 0 setrgbcolor
0 0 0 setrgbcolor
(R9) 54607 62965 phantomshow
0 0 0 setrgbcolor
newpath
54846.2 62866.5 moveto
54564.7 62669.5 lineto
stroke
newpath
54846.2 62528.8 moveto
54255.2 62528.8 lineto
54255.2 62753.9 lineto
54283.3 62810.2 lineto
54311.5 62838.4 lineto
54367.7 62866.5 lineto
54452.2 62866.5 lineto
54508.5 62838.4 lineto
54536.6 62810.2 lineto
54564.7 62753.9 lineto
54564.7 62528.8 lineto
stroke
newpath
54846.2 63147.9 moveto
54846.2 63260.5 lineto
54818 63316.8 lineto
54789.9 63344.9 lineto
54705.5 63401.2 lineto
54592.9 63429.4 lineto
54367.7 63429.4 lineto
54311.5 63401.2 lineto
54283.3 63373.1 lineto
54255.2 63316.8 lineto
54255.2 63204.2 lineto
54283.3 63147.9 lineto
54311.5 63119.8 lineto
54367.7 63091.6 lineto
54508.5 63091.6 lineto
54564.7 63119.8 lineto
54592.9 63147.9 lineto
54621 63204.2 lineto
54621 63316.8 lineto
54592.9 63373.1 lineto
54564.7 63401.2 lineto
54508.5 63429.4 lineto
stroke
0 0 0 setrgbcolor
0 0 0 setrgbcolor
(100K) 53782 62965 phantomshow
0 0 0 setrgbcolor
newpath
54021.2 62275.5 moveto
54021.2 61937.8 lineto
stroke
newpath
54021.2 62106.6 moveto
53430.2 62106.6 lineto
53514.6 62050.4 lineto
53570.9 61994.1 lineto
53599 61937.8 lineto
stroke
newpath
53430.2 62641.4 moveto
53430.2 62697.6 lineto
53458.3 62753.9 lineto
53486.5 62782.1 lineto
53542.7 62810.2 lineto
53655.3 62838.4 lineto
53796 62838.4 lineto
53908.6 62810.2 lineto
53964.9 62782.1 lineto
53993 62753.9 lineto
54021.2 62697.6 lineto
54021.2 62641.4 lineto
53993 62585.1 lineto
53964.9 62556.9 lineto
53908.6 62528.8 lineto
53796 62500.6 lineto
53655.3 62500.6 lineto
53542.7 62528.8 lineto
53486.5 62556.9 lineto
53458.3 62585.1 lineto
53430.2 62641.4 lineto
stroke
newpath
53430.2 63204.2 moveto
53430.2 63260.5 lineto
53458.3 63316.8 lineto
53486.5 63344.9 lineto
53542.7 63373.1 lineto
53655.3 63401.2 lineto
53796 63401.2 lineto
53908.6 63373.1 lineto
53964.9 63344.9 lineto
53993 63316.8 lineto
54021.2 63260.5 lineto
54021.2 63204.2 lineto
53993 63147.9 lineto
53964.9 63119.8 lineto
53908.6 63091.6 lineto
53796 63063.5 lineto
53655.3 63063.5 lineto
53542.7 63091.6 lineto
53486.5 63119.8 lineto
53458.3 63147.9 lineto
53430.2 63204.2 lineto
stroke
newpath
54021.2 63654.5 moveto
53430.2 63654.5 lineto
stroke
newpath
54021.2 63992.2 moveto
53683.5 63738.9 lineto
stroke
newpath
53430.2 63992.2 moveto
53767.9 63654.5 lineto
stroke
0 0 0 setrgbcolor
0 0 0 setrgbcolor
(R8) 66607 62215 phantomshow
0 0 0 setrgbcolor
newpath
66846.2 62116.5 moveto
66564.7 61919.5 lineto
stroke
newpath
66846.2 61778.8 moveto
66255.2 61778.8 lineto
66255.2 62003.9 lineto
66283.3 62060.2 lineto
66311.5 62088.4 lineto
66367.7 62116.5 lineto
66452.2 62116.5 lineto
66508.5 62088.4 lineto
66536.6 62060.2 lineto
66564.7 62003.9 lineto
66564.7 61778.8 lineto
stroke
newpath
66508.5 62454.2 moveto
66480.3 62397.9 lineto
66452.2 62369.8 lineto
66395.9 62341.6 lineto
66367.7 62341.6 lineto
66311.5 62369.8 lineto
66283.3 62397.9 lineto
66255.2 62454.2 lineto
66255.2 62566.8 lineto
66283.3 62623.1 lineto
66311.5 62651.2 lineto
66367.7 62679.4 lineto
66395.9 62679.4 lineto
66452.2 62651.2 lineto
66480.3 62623.1 lineto
66508.5 62566.8 lineto
66508.5 62454.2 lineto
66536.6 62397.9 lineto
66564.7 62369.8 lineto
66621 62341.6 lineto
66733.6 62341.6 lineto
66789.9 62369.8 lineto
66818 62397.9 lineto
66846.2 62454.2 lineto
66846.2 62566.8 lineto
66818 62623.1 lineto
66789.9 62651.2 lineto
66733.6 62679.4 lineto
66621 62679.4 lineto
66564.7 62651.2 lineto
66536.6 62623.1 lineto
66508.5 62566.8 lineto
stroke
0 0 0 setrgbcolor
0 0 0 setrgbcolor
(1K) 65782 62215 phantomshow
0 0 0 setrgbcolor
newpath
66021.2 62088.4 moveto
66021.2 61750.6 lineto
stroke
newpath
66021.2 61919.5 moveto
65430.2 61919.5 lineto
65514.6 61863.2 lineto
65570.9 61806.9 lineto
65599 61750.6 lineto
stroke
newpath
66021.2 62341.6 moveto
65430.2 62341.6 lineto
stroke
newpath
66021.2 62679.4 moveto
65683.5 62426.1 lineto
stroke
newpath
65430.2 62679.4 moveto
65767.9 62341.6 lineto
stroke
0 0 0 setrgbcolor
0 0 0 setrgbcolor
(R7) 66607 66715 phantomshow
0 0 0 setrgbcolor
newpath
66846.2 66616.5 moveto
66564.7 66419.5 lineto
stroke
newpath
66846.2 66278.8 moveto
66255.2 66278.8 lineto
66255.2 66503.9 lineto
66283.3 66560.2 lineto
66311.5 66588.4 lineto
66367.7 66616.5 lineto
66452.2 66616.5 lineto
66508.5 66588.4 lineto
66536.6 66560.2 lineto
66564.7 66503.9 lineto
66564.7 66278.8 lineto
stroke
newpath
66255.2 66813.5 moveto
66255.2 67207.5 lineto
66846.2 66954.2 lineto
stroke
0 0 0 setrgbcolor
0 0 0 setrgbcolor
(1K) 65782 66715 phantomshow
0 0 0 setrgbcolor
newpath
66021.2 66588.4 moveto
66021.2 66250.6 lineto
stroke
newpath
66021.2 66419.5 moveto
65430.2 66419.5 lineto
65514.6 66363.2 lineto
65570.9 66306.9 lineto
65599 66250.6 lineto
stroke
newpath
66021.2 66841.6 moveto
65430.2 66841.6 lineto
stroke
newpath
66021.2 67179.4 moveto
65683.5 66926.1 lineto
stroke
newpath
65430.2 67179.4 moveto
65767.9 66841.6 lineto
stroke
0 0 0 setrgbcolor
0 0 0 setrgbcolor
(R6) 66982 58090 phantomshow
0 0 0 setrgbcolor
newpath
66883.5 57850.8 moveto
66686.5 58132.2 lineto
stroke
newpath
66545.7 57850.8 moveto
66545.7 58441.8 lineto
66770.9 58441.8 lineto
66827.2 58413.6 lineto
66855.3 58385.5 lineto
66883.5 58329.2 lineto
66883.5 58244.8 lineto
66855.3 58188.5 lineto
66827.2 58160.4 lineto
66770.9 58132.2 lineto
66545.7 58132.2 lineto
stroke
newpath
67390 58441.8 moveto
67277.5 58441.8 lineto
67221.2 58413.6 lineto
67193 58385.5 lineto
67136.7 58301.1 lineto
67108.6 58188.5 lineto
67108.6 57963.4 lineto
67136.7 57907.1 lineto
67164.9 57878.9 lineto
67221.2 57850.8 lineto
67333.7 57850.8 lineto
67390 57878.9 lineto
67418.2 57907.1 lineto
67446.3 57963.4 lineto
67446.3 58104.1 lineto
67418.2 58160.4 lineto
67390 58188.5 lineto
67333.7 58216.6 lineto
67221.2 58216.6 lineto
67164.9 58188.5 lineto
67136.7 58160.4 lineto
67108.6 58104.1 lineto
stroke
0 0 0 setrgbcolor
0 0 0 setrgbcolor
(10K) 66982 58915 phantomshow
0 0 0 setrgbcolor
newpath
66573.9 58675.8 moveto
66236.2 58675.8 lineto
stroke
newpath
66405 58675.8 moveto
66405 59266.8 lineto
66348.7 59182.4 lineto
66292.5 59126.1 lineto
66236.2 59097.9 lineto
stroke
newpath
66939.7 59266.8 moveto
66996 59266.8 lineto
67052.3 59238.6 lineto
67080.5 59210.5 lineto
67108.6 59154.2 lineto
67136.7 59041.6 lineto
67136.7 58900.9 lineto
67108.6 58788.4 lineto
67080.5 58732.1 lineto
67052.3 58703.9 lineto
66996 58675.8 lineto
66939.7 58675.8 lineto
66883.5 58703.9 lineto
66855.3 58732.1 lineto
66827.2 58788.4 lineto
66799 58900.9 lineto
66799 59041.6 lineto
66827.2 59154.2 lineto
66855.3 59210.5 lineto
66883.5 59238.6 lineto
66939.7 59266.8 lineto
stroke
newpath
67390 58675.8 moveto
67390 59266.8 lineto
stroke
newpath
67727.7 58675.8 moveto
67474.5 59013.5 lineto
stroke
newpath
67727.7 59266.8 moveto
67390 58929.1 lineto
stroke
0 0 0 setrgbcolor
0 0 0 setrgbcolor
(C1) 70357 62215 phantomshow
0 0 0 setrgbcolor
newpath
70539.9 62116.5 moveto
70568 62088.4 lineto
70596.2 62003.9 lineto
70596.2 61947.6 lineto
70568 61863.2 lineto
70511.7 61806.9 lineto
70455.5 61778.8 lineto
70342.9 61750.6 lineto
70258.5 61750.6 lineto
70145.9 61778.8 lineto
70089.6 61806.9 lineto
70033.3 61863.2 lineto
70005.2 61947.6 lineto
70005.2 62003.9 lineto
70033.3 62088.4 lineto
70061.5 62116.5 lineto
stroke
newpath
70596.2 62679.4 moveto
70596.2 62341.6 lineto
stroke
newpath
70596.2 62510.5 moveto
70005.2 62510.5 lineto
70089.6 62454.2 lineto
70145.9 62397.9 lineto
70174 62341.6 lineto
stroke
0 0 0 setrgbcolor
0 0 0 setrgbcolor
(0.1uF) 69532 62215 phantomshow
0 0 0 setrgbcolor
newpath
69180.2 61244.1 moveto
69180.2 61300.4 lineto
69208.3 61356.6 lineto
69236.5 61384.8 lineto
69292.7 61412.9 lineto
69405.3 61441.1 lineto
69546 61441.1 lineto
69658.6 61412.9 lineto
69714.9 61384.8 lineto
69743 61356.6 lineto
69771.2 61300.4 lineto
69771.2 61244.1 lineto
69743 61187.8 lineto
69714.9 61159.6 lineto
69658.6 61131.5 lineto
69546 61103.4 lineto
69405.3 61103.4 lineto
69292.7 61131.5 lineto
69236.5 61159.6 lineto
69208.3 61187.8 lineto
69180.2 61244.1 lineto
stroke
newpath
69714.9 61694.4 moveto
69743 61722.5 lineto
69771.2 61694.4 lineto
69743 61666.2 lineto
69714.9 61694.4 lineto
69771.2 61694.4 lineto
stroke
newpath
69771.2 62285.4 moveto
69771.2 61947.6 lineto
stroke
newpath
69771.2 62116.5 moveto
69180.2 62116.5 lineto
69264.6 62060.2 lineto
69320.9 62003.9 lineto
69349 61947.6 lineto
stroke
newpath
69377.2 62791.9 moveto
69771.2 62791.9 lineto
stroke
newpath
69377.2 62538.6 moveto
69686.7 62538.6 lineto
69743 62566.8 lineto
69771.2 62623.1 lineto
69771.2 62707.5 lineto
69743 62763.8 lineto
69714.9 62791.9 lineto
stroke
newpath
69461.6 63270.4 moveto
69461.6 63073.4 lineto
stroke
newpath
69771.2 63073.4 moveto
69180.2 63073.4 lineto
69180.2 63354.8 lineto
stroke
0 0 0 setrgbcolor
0 0 0 setrgbcolor
(C3) 84232 61090 phantomshow
0 0 0 setrgbcolor
newpath
84133.5 60907.1 moveto
84105.3 60878.9 lineto
84020.9 60850.8 lineto
83964.6 60850.8 lineto
83880.2 60878.9 lineto
83823.9 60935.2 lineto
83795.7 60991.5 lineto
83767.6 61104.1 lineto
83767.6 61188.5 lineto
83795.7 61301.1 lineto
83823.9 61357.4 lineto
83880.2 61413.6 lineto
83964.6 61441.8 lineto
84020.9 61441.8 lineto
84105.3 61413.6 lineto
84133.5 61385.5 lineto
stroke
newpath
84330.5 61441.8 moveto
84696.3 61441.8 lineto
84499.3 61216.6 lineto
84583.7 61216.6 lineto
84640 61188.5 lineto
84668.2 61160.4 lineto
84696.3 61104.1 lineto
84696.3 60963.4 lineto
84668.2 60907.1 lineto
84640 60878.9 lineto
84583.7 60850.8 lineto
84414.9 60850.8 lineto
84358.6 60878.9 lineto
84330.5 60907.1 lineto
stroke
0 0 0 setrgbcolor
0 0 0 setrgbcolor
(1uF) 84232 61915 phantomshow
0 0 0 setrgbcolor
newpath
83880.2 61675.8 moveto
83542.5 61675.8 lineto
stroke
newpath
83711.3 61675.8 moveto
83711.3 62266.8 lineto
83655 62182.4 lineto
83598.7 62126.1 lineto
83542.5 62097.9 lineto
stroke
newpath
84386.7 62069.8 moveto
84386.7 61675.8 lineto
stroke
newpath
84133.5 62069.8 moveto
84133.5 61760.2 lineto
84161.6 61703.9 lineto
84217.9 61675.8 lineto
84302.3 61675.8 lineto
84358.6 61703.9 lineto
84386.7 61732.1 lineto
stroke
newpath
84865.2 61985.4 moveto
84668.2 61985.4 lineto
stroke
newpath
84668.2 61675.8 moveto
84668.2 62266.8 lineto
84949.6 62266.8 lineto
stroke
0 0 0 setrgbcolor
0 0 0 setrgbcolor
(C2) 84232 58840 phantomshow
0 0 0 setrgbcolor
newpath
84133.5 58657.1 moveto
84105.3 58628.9 lineto
84020.9 58600.8 lineto
83964.6 58600.8 lineto
83880.2 58628.9 lineto
83823.9 58685.2 lineto
83795.7 58741.5 lineto
83767.6 58854.1 lineto
83767.6 58938.5 lineto
83795.7 59051.1 lineto
83823.9 59107.4 lineto
83880.2 59163.6 lineto
83964.6 59191.8 lineto
84020.9 59191.8 lineto
84105.3 59163.6 lineto
84133.5 59135.5 lineto
stroke
newpath
84358.6 59135.5 moveto
84386.7 59163.6 lineto
84443 59191.8 lineto
84583.7 59191.8 lineto
84640 59163.6 lineto
84668.2 59135.5 lineto
84696.3 59079.2 lineto
84696.3 59022.9 lineto
84668.2 58938.5 lineto
84330.5 58600.8 lineto
84696.3 58600.8 lineto
stroke
0 0 0 setrgbcolor
0 0 0 setrgbcolor
(0.1uF) 84232 59665 phantomshow
0 0 0 setrgbcolor
newpath
83261 60016.8 moveto
83317.3 60016.8 lineto
83373.6 59988.6 lineto
83401.7 59960.5 lineto
83429.9 59904.2 lineto
83458 59791.6 lineto
83458 59650.9 lineto
83429.9 59538.4 lineto
83401.7 59482.1 lineto
83373.6 59453.9 lineto
83317.3 59425.8 lineto
83261 59425.8 lineto
83204.7 59453.9 lineto
83176.6 59482.1 lineto
83148.5 59538.4 lineto
83120.3 59650.9 lineto
83120.3 59791.6 lineto
83148.5 59904.2 lineto
83176.6 59960.5 lineto
83204.7 59988.6 lineto
83261 60016.8 lineto
stroke
newpath
83711.3 59482.1 moveto
83739.5 59453.9 lineto
83711.3 59425.8 lineto
83683.2 59453.9 lineto
83711.3 59482.1 lineto
83711.3 59425.8 lineto
stroke
newpath
84302.3 59425.8 moveto
83964.6 59425.8 lineto
stroke
newpath
84133.5 59425.8 moveto
84133.5 60016.8 lineto
84077.2 59932.4 lineto
84020.9 59876.1 lineto
83964.6 59847.9 lineto
stroke
newpath
84808.9 59819.8 moveto
84808.9 59425.8 lineto
stroke
newpath
84555.6 59819.8 moveto
84555.6 59510.2 lineto
84583.7 59453.9 lineto
84640 59425.8 lineto
84724.5 59425.8 lineto
84780.7 59453.9 lineto
84808.9 59482.1 lineto
stroke
newpath
85287.3 59735.4 moveto
85090.3 59735.4 lineto
stroke
newpath
85090.3 59425.8 moveto
85090.3 60016.8 lineto
85371.7 60016.8 lineto
stroke
0 0 0 setrgbcolor
0 0 0 setrgbcolor
(R5) 73357 66715 phantomshow
0 0 0 setrgbcolor
newpath
73596.2 66616.5 moveto
73314.7 66419.5 lineto
stroke
newpath
73596.2 66278.8 moveto
73005.2 66278.8 lineto
73005.2 66503.9 lineto
73033.3 66560.2 lineto
73061.5 66588.4 lineto
73117.7 66616.5 lineto
73202.2 66616.5 lineto
73258.5 66588.4 lineto
73286.6 66560.2 lineto
73314.7 66503.9 lineto
73314.7 66278.8 lineto
stroke
newpath
73005.2 67151.2 moveto
73005.2 66869.8 lineto
73286.6 66841.6 lineto
73258.5 66869.8 lineto
73230.3 66926.1 lineto
73230.3 67066.8 lineto
73258.5 67123.1 lineto
73286.6 67151.2 lineto
73342.9 67179.4 lineto
73483.6 67179.4 lineto
73539.9 67151.2 lineto
73568 67123.1 lineto
73596.2 67066.8 lineto
73596.2 66926.1 lineto
73568 66869.8 lineto
73539.9 66841.6 lineto
stroke
0 0 0 setrgbcolor
0 0 0 setrgbcolor
(R) 72532 66715 phantomshow
0 0 0 setrgbcolor
newpath
72771.2 66897.9 moveto
72489.7 66700.9 lineto
stroke
newpath
72771.2 66560.2 moveto
72180.2 66560.2 lineto
72180.2 66785.4 lineto
72208.3 66841.6 lineto
72236.5 66869.8 lineto
72292.7 66897.9 lineto
72377.2 66897.9 lineto
72433.5 66869.8 lineto
72461.6 66841.6 lineto
72489.7 66785.4 lineto
72489.7 66560.2 lineto
stroke
0 0 0 setrgbcolor
0 0 0 setrgbcolor
(R4) 85357 66715 phantomshow
0 0 0 setrgbcolor
newpath
85596.2 66616.5 moveto
85314.7 66419.5 lineto
stroke
newpath
85596.2 66278.8 moveto
85005.2 66278.8 lineto
85005.2 66503.9 lineto
85033.3 66560.2 lineto
85061.5 66588.4 lineto
85117.7 66616.5 lineto
85202.2 66616.5 lineto
85258.5 66588.4 lineto
85286.6 66560.2 lineto
85314.7 66503.9 lineto
85314.7 66278.8 lineto
stroke
newpath
85202.2 67123.1 moveto
85596.2 67123.1 lineto
stroke
newpath
84977 66982.4 moveto
85399.2 66841.6 lineto
85399.2 67207.5 lineto
stroke
0 0 0 setrgbcolor
0 0 0 setrgbcolor
(R) 84532 66715 phantomshow
0 0 0 setrgbcolor
newpath
84771.2 66897.9 moveto
84489.7 66700.9 lineto
stroke
newpath
84771.2 66560.2 moveto
84180.2 66560.2 lineto
84180.2 66785.4 lineto
84208.3 66841.6 lineto
84236.5 66869.8 lineto
84292.7 66897.9 lineto
84377.2 66897.9 lineto
84433.5 66869.8 lineto
84461.6 66841.6 lineto
84489.7 66785.4 lineto
84489.7 66560.2 lineto
stroke
0 0 0 setrgbcolor
0 0 0 setrgbcolor
(R3) 82357 66715 phantomshow
0 0 0 setrgbcolor
newpath
82596.2 66616.5 moveto
82314.7 66419.5 lineto
stroke
newpath
82596.2 66278.8 moveto
82005.2 66278.8 lineto
82005.2 66503.9 lineto
82033.3 66560.2 lineto
82061.5 66588.4 lineto
82117.7 66616.5 lineto
82202.2 66616.5 lineto
82258.5 66588.4 lineto
82286.6 66560.2 lineto
82314.7 66503.9 lineto
82314.7 66278.8 lineto
stroke
newpath
82005.2 66813.5 moveto
82005.2 67179.4 lineto
82230.3 66982.4 lineto
82230.3 67066.8 lineto
82258.5 67123.1 lineto
82286.6 67151.2 lineto
82342.9 67179.4 lineto
82483.6 67179.4 lineto
82539.9 67151.2 lineto
82568 67123.1 lineto
82596.2 67066.8 lineto
82596.2 66897.9 lineto
82568 66841.6 lineto
82539.9 66813.5 lineto
stroke
0 0 0 setrgbcolor
0 0 0 setrgbcolor
(R) 81532 66715 phantomshow
0 0 0 setrgbcolor
newpath
81771.2 66897.9 moveto
81489.7 66700.9 lineto
stroke
newpath
81771.2 66560.2 moveto
81180.2 66560.2 lineto
81180.2 66785.4 lineto
81208.3 66841.6 lineto
81236.5 66869.8 lineto
81292.7 66897.9 lineto
81377.2 66897.9 lineto
81433.5 66869.8 lineto
81461.6 66841.6 lineto
81489.7 66785.4 lineto
81489.7 66560.2 lineto
stroke
0 0 0 setrgbcolor
0 0 0 setrgbcolor
(R1) 98482 56590 phantomshow
0 0 0 setrgbcolor
newpath
98383.5 56350.8 moveto
98186.5 56632.2 lineto
stroke
newpath
98045.7 56350.8 moveto
98045.7 56941.8 lineto
98270.9 56941.8 lineto
98327.2 56913.6 lineto
98355.3 56885.5 lineto
98383.5 56829.2 lineto
98383.5 56744.8 lineto
98355.3 56688.5 lineto
98327.2 56660.4 lineto
98270.9 56632.2 lineto
98045.7 56632.2 lineto
stroke
newpath
98946.3 56350.8 moveto
98608.6 56350.8 lineto
stroke
newpath
98777.5 56350.8 moveto
98777.5 56941.8 lineto
98721.2 56857.4 lineto
98664.9 56801.1 lineto
98608.6 56772.9 lineto
stroke
0 0 0 setrgbcolor
0 0 0 setrgbcolor
(1K) 98482 55765 phantomshow
0 0 0 setrgbcolor
newpath
98355.3 55525.8 moveto
98017.6 55525.8 lineto
stroke
newpath
98186.5 55525.8 moveto
98186.5 56116.8 lineto
98130.2 56032.4 lineto
98073.9 55976.1 lineto
98017.6 55947.9 lineto
stroke
newpath
98608.6 55525.8 moveto
98608.6 56116.8 lineto
stroke
newpath
98946.3 55525.8 moveto
98693 55863.5 lineto
stroke
newpath
98946.3 56116.8 moveto
98608.6 55779.1 lineto
stroke
0 0 0 setrgbcolor
360 setlinewidth
0 0 0 setrgbcolor
(P6) 84982 47215 phantomshow
321 setlinewidth
0 0 0 setrgbcolor
newpath
84034.2 46388.1 moveto
84034.2 48431.1 lineto
84523.4 48431.1 lineto
84645.7 48333.8 lineto
84706.8 48236.5 lineto
84768 48041.9 lineto
84768 47750.1 lineto
84706.8 47555.5 lineto
84645.7 47458.2 lineto
84523.4 47360.9 lineto
84034.2 47360.9 lineto
stroke
newpath
85868.5 48431.1 moveto
85624 48431.1 lineto
85501.7 48333.8 lineto
85440.5 48236.5 lineto
85318.2 47944.6 lineto
85257.1 47555.5 lineto
85257.1 46777.2 lineto
85318.2 46582.6 lineto
85379.4 46485.4 lineto
85501.7 46388.1 lineto
85746.2 46388.1 lineto
85868.5 46485.4 lineto
85929.7 46582.6 lineto
85990.8 46777.2 lineto
85990.8 47263.6 lineto
85929.7 47458.2 lineto
85868.5 47555.5 lineto
85746.2 47652.8 lineto
85501.7 47652.8 lineto
85379.4 47555.5 lineto
85318.2 47458.2 lineto
85257.1 47263.6 lineto
stroke
360 setlinewidth
0 0 0 setrgbcolor
300 setlinewidth
0 0 0 setrgbcolor
(SERIAL) 98482 47215 phantomshow
0 0 0 setrgbcolor
newpath
95710.5 46572.1 moveto
95882 46486.4 lineto
96167.7 46486.4 lineto
96282 46572.1 lineto
96339.1 46657.9 lineto
96396.2 46829.3 lineto
96396.2 47000.7 lineto
96339.1 47172.1 lineto
96282 47257.9 lineto
96167.7 47343.6 lineto
95939.1 47429.3 lineto
95824.8 47515 lineto
95767.7 47600.7 lineto
95710.5 47772.1 lineto
95710.5 47943.6 lineto
95767.7 48115 lineto
95824.8 48200.7 lineto
95939.1 48286.4 lineto
96224.8 48286.4 lineto
96396.2 48200.7 lineto
stroke
newpath
96910.5 47429.3 moveto
97310.5 47429.3 lineto
stroke
newpath
97482 46486.4 moveto
96910.5 46486.4 lineto
96910.5 48286.4 lineto
97482 48286.4 lineto
stroke
newpath
98682 46486.4 moveto
98282 47343.6 lineto
stroke
newpath
97996.2 46486.4 moveto
97996.2 48286.4 lineto
98453.4 48286.4 lineto
98567.7 48200.7 lineto
98624.8 48115 lineto
98682 47943.6 lineto
98682 47686.4 lineto
98624.8 47515 lineto
98567.7 47429.3 lineto
98453.4 47343.6 lineto
97996.2 47343.6 lineto
stroke
newpath
99196.2 46486.4 moveto
99196.2 48286.4 lineto
stroke
newpath
99710.5 47000.7 moveto
100282 47000.7 lineto
stroke
newpath
99596.2 46486.4 moveto
99996.2 48286.4 lineto
100396 46486.4 lineto
stroke
newpath
101368 46486.4 moveto
100796 46486.4 lineto
100796 48286.4 lineto
stroke
0 0 0 setrgbcolor
360 setlinewidth
0 0 0 setrgbcolor
(P2) 41482 64465 phantomshow
321 setlinewidth
0 0 0 setrgbcolor
newpath
42308.9 63517.3 moveto
40265.9 63517.3 lineto
40265.9 64006.4 lineto
40363.2 64128.7 lineto
40460.5 64189.9 lineto
40655 64251 lineto
40946.9 64251 lineto
41141.5 64189.9 lineto
41238.7 64128.7 lineto
41336 64006.4 lineto
41336 63517.3 lineto
stroke
newpath
40460.5 64740.1 moveto
40363.2 64801.3 lineto
40265.9 64923.6 lineto
40265.9 65229.3 lineto
40363.2 65351.6 lineto
40460.5 65412.7 lineto
40655 65473.9 lineto
40849.6 65473.9 lineto
41141.5 65412.7 lineto
42308.9 64679 lineto
42308.9 65473.9 lineto
stroke
360 setlinewidth
0 0 0 setrgbcolor
0 0 0 setrgbcolor
(P4) 78232 68215 phantomshow
321 setlinewidth
0 0 0 setrgbcolor
newpath
77284.2 67388.1 moveto
77284.2 69431.1 lineto
77773.4 69431.1 lineto
77895.7 69333.8 lineto
77956.8 69236.5 lineto
78018 69041.9 lineto
78018 68750.1 lineto
77956.8 68555.5 lineto
77895.7 68458.2 lineto
77773.4 68360.9 lineto
77284.2 68360.9 lineto
stroke
newpath
79118.5 68750.1 moveto
79118.5 67388.1 lineto
stroke
newpath
78812.8 69528.4 moveto
78507.1 68069.1 lineto
79302 68069.1 lineto
stroke
360 setlinewidth
0 0 0 setrgbcolor
0 0 0 setrgbcolor
(P5) 95482 68215 phantomshow
321 setlinewidth
0 0 0 setrgbcolor
newpath
94534.2 67385.6 moveto
94534.2 69434.6 lineto
95023.4 69434.6 lineto
95145.7 69337.1 lineto
95206.8 69239.5 lineto
95268 69044.4 lineto
95268 68751.6 lineto
95206.8 68556.5 lineto
95145.7 68458.9 lineto
95023.4 68361.4 lineto
94534.2 68361.4 lineto
stroke
newpath
96429.7 69434.6 moveto
95818.2 69434.6 lineto
95757.1 68458.9 lineto
95818.2 68556.5 lineto
95940.5 68654.1 lineto
96246.2 68654.1 lineto
96368.5 68556.5 lineto
96429.7 68458.9 lineto
96490.8 68263.8 lineto
96490.8 67775.9 lineto
96429.7 67580.8 lineto
96368.5 67483.2 lineto
96246.2 67385.6 lineto
95940.5 67385.6 lineto
95818.2 67483.2 lineto
95757.1 67580.8 lineto
stroke
360 setlinewidth
0 0 0 setrgbcolor
0 0 0 setrgbcolor
(K2) 75982 47215 phantomshow
318 setlinewidth
0 0 0 setrgbcolor
newpath
75043.1 46358.9 moveto
75043.1 48473.9 lineto
stroke
newpath
75770 46358.9 moveto
75224.8 47567.5 lineto
stroke
newpath
75770 48473.9 moveto
75043.1 47265.4 lineto
stroke
newpath
76254.5 48272.5 moveto
76315.1 48373.2 lineto
76436.2 48473.9 lineto
76739.1 48473.9 lineto
76860.2 48373.2 lineto
76920.8 48272.5 lineto
76981.4 48071.1 lineto
76981.4 47869.6 lineto
76920.8 47567.5 lineto
76194 46358.9 lineto
76981.4 46358.9 lineto
stroke
360 setlinewidth
0 0 0 setrgbcolor
0 0 0 setrgbcolor
(P3) 65482 41215 phantomshow
321 setlinewidth
0 0 0 setrgbcolor
newpath
64534.2 40388.1 moveto
64534.2 42431.1 lineto
65023.4 42431.1 lineto
65145.7 42333.8 lineto
65206.8 42236.5 lineto
65268 42041.9 lineto
65268 41750.1 lineto
65206.8 41555.5 lineto
65145.7 41458.2 lineto
65023.4 41360.9 lineto
64534.2 41360.9 lineto
stroke
newpath
65696 42431.1 moveto
66490.8 42431.1 lineto
66062.8 41652.8 lineto
66246.2 41652.8 lineto
66368.5 41555.5 lineto
66429.7 41458.2 lineto
66490.8 41263.6 lineto
66490.8 40777.2 lineto
66429.7 40582.6 lineto
66368.5 40485.4 lineto
66246.2 40388.1 lineto
65879.4 40388.1 lineto
65757.1 40485.4 lineto
65696 40582.6 lineto
stroke
360 setlinewidth
0 0 0 setrgbcolor
0 0 0 setrgbcolor
(P7) 119482 51715 phantomshow
321 setlinewidth
0 0 0 setrgbcolor
newpath
120309 50767.3 moveto
118266 50767.3 lineto
118266 51256.4 lineto
118363 51378.7 lineto
118460 51439.9 lineto
118655 51501 lineto
118947 51501 lineto
119141 51439.9 lineto
119239 51378.7 lineto
119336 51256.4 lineto
119336 50767.3 lineto
stroke
newpath
118266 51929 moveto
118266 52785 lineto
120309 52234.7 lineto
stroke
360 setlinewidth
0 0 0 setrgbcolor
105 setlinewidth
0 0 0 setrgbcolor
(K1) 39982 46465 phantomshow
0 0 0 setrgbcolor
newpath
40467.7 45579.3 moveto
39267.7 45579.3 lineto
stroke
newpath
40467.7 46265 moveto
39782 45750.7 lineto
stroke
newpath
39267.7 46265 moveto
39953.4 45579.3 lineto
stroke
newpath
40467.7 47407.9 moveto
40467.7 46722.1 lineto
stroke
newpath
40467.7 47065 moveto
39267.7 47065 lineto
39439.1 46950.7 lineto
39553.4 46836.4 lineto
39610.5 46722.1 lineto
stroke
0 0 0 setrgbcolor
0 0 0 setrgbcolor
(HRM) 48982 50215 phantomshow
0 0 0 setrgbcolor
newpath
49467.7 48586.4 moveto
48267.7 48586.4 lineto
stroke
newpath
48839.1 48586.4 moveto
48839.1 49272.1 lineto
stroke
newpath
49467.7 49272.1 moveto
48267.7 49272.1 lineto
stroke
newpath
49467.7 50529.3 moveto
48896.2 50129.3 lineto
stroke
newpath
49467.7 49843.6 moveto
48267.7 49843.6 lineto
48267.7 50300.7 lineto
48324.8 50415 lineto
48382 50472.1 lineto
48496.2 50529.3 lineto
48667.7 50529.3 lineto
48782 50472.1 lineto
48839.1 50415 lineto
48896.2 50300.7 lineto
48896.2 49843.6 lineto
stroke
newpath
49467.7 51043.6 moveto
48267.7 51043.6 lineto
49124.8 51443.6 lineto
48267.7 51843.6 lineto
49467.7 51843.6 lineto
stroke
0 0 0 setrgbcolor
0 0 0 setrgbcolor
(P1) 60232 68215 phantomshow
0 0 0 setrgbcolor
newpath
59346.2 67729.3 moveto
59346.2 68929.3 lineto
59803.4 68929.3 lineto
59917.7 68872.1 lineto
59974.8 68815 lineto
60032 68700.7 lineto
60032 68529.3 lineto
59974.8 68415 lineto
59917.7 68357.9 lineto
59803.4 68300.7 lineto
59346.2 68300.7 lineto
stroke
newpath
61174.8 67729.3 moveto
60489.1 67729.3 lineto
stroke
newpath
60832 67729.3 moveto
60832 68929.3 lineto
60717.7 68757.9 lineto
60603.4 68643.6 lineto
60489.1 68586.4 lineto
stroke
0 0 0 setrgbcolor
0 0 0 setrgbcolor
(GSR) 55732 74215 phantomshow
0 0 0 setrgbcolor
newpath
54874.8 74872.1 moveto
54760.5 74929.3 lineto
54589.1 74929.3 lineto
54417.7 74872.1 lineto
54303.4 74757.9 lineto
54246.2 74643.6 lineto
54189.1 74415 lineto
54189.1 74243.6 lineto
54246.2 74015 lineto
54303.4 73900.7 lineto
54417.7 73786.4 lineto
54589.1 73729.3 lineto
54703.4 73729.3 lineto
54874.8 73786.4 lineto
54932 73843.6 lineto
54932 74243.6 lineto
54703.4 74243.6 lineto
stroke
newpath
55389.1 73786.4 moveto
55560.5 73729.3 lineto
55846.2 73729.3 lineto
55960.5 73786.4 lineto
56017.7 73843.6 lineto
56074.8 73957.9 lineto
56074.8 74072.1 lineto
56017.7 74186.4 lineto
55960.5 74243.6 lineto
55846.2 74300.7 lineto
55617.7 74357.9 lineto
55503.4 74415 lineto
55446.2 74472.1 lineto
55389.1 74586.4 lineto
55389.1 74700.7 lineto
55446.2 74815 lineto
55503.4 74872.1 lineto
55617.7 74929.3 lineto
55903.4 74929.3 lineto
56074.8 74872.1 lineto
stroke
newpath
57274.8 73729.3 moveto
56874.8 74300.7 lineto
stroke
newpath
56589.1 73729.3 moveto
56589.1 74929.3 lineto
57046.2 74929.3 lineto
57160.5 74872.1 lineto
57217.7 74815 lineto
57274.8 74700.7 lineto
57274.8 74529.3 lineto
57217.7 74415 lineto
57160.5 74357.9 lineto
57046.2 74300.7 lineto
56589.1 74300.7 lineto
stroke
0 0 0 setrgbcolor
180 setlinewidth
0 0 0 setrgbcolor
(U1) 78982 53965 phantomshow
0 0 0 setrgbcolor
newpath
78081.4 54668.6 moveto
78081.4 53711.7 lineto
78137.7 53599.1 lineto
78194 53542.9 lineto
78306.5 53486.6 lineto
78531.7 53486.6 lineto
78644.2 53542.9 lineto
78700.5 53599.1 lineto
78756.8 53711.7 lineto
78756.8 54668.6 lineto
stroke
newpath
79938.8 53486.6 moveto
79263.4 53486.6 lineto
stroke
newpath
79601.1 53486.6 moveto
79601.1 54668.6 lineto
79488.5 54499.7 lineto
79376 54387.1 lineto
79263.4 54330.9 lineto
stroke
0 0 0 setrgbcolor
150 setlinewidth
0 0 0 setrgbcolor
(ADR3530) 84982 53965 phantomshow
0 0 0 setrgbcolor
newpath
85122.7 50250.1 moveto
85122.7 50813 lineto
stroke
newpath
85460.4 50137.6 moveto
84278.4 50531.6 lineto
85460.4 50925.6 lineto
stroke
newpath
85460.4 51319.6 moveto
84278.4 51319.6 lineto
84278.4 51601 lineto
84334.7 51769.9 lineto
84447.2 51882.4 lineto
84559.8 51938.7 lineto
84785 51995 lineto
84953.8 51995 lineto
85179 51938.7 lineto
85291.5 51882.4 lineto
85404.1 51769.9 lineto
85460.4 51601 lineto
85460.4 51319.6 lineto
stroke
newpath
85460.4 53177 moveto
84897.5 52783 lineto
stroke
newpath
85460.4 52501.6 moveto
84278.4 52501.6 lineto
84278.4 52951.9 lineto
84334.7 53064.4 lineto
84391 53120.7 lineto
84503.5 53177 lineto
84672.4 53177 lineto
84785 53120.7 lineto
84841.2 53064.4 lineto
84897.5 52951.9 lineto
84897.5 52501.6 lineto
stroke
newpath
84278.4 53571 moveto
84278.4 54302.7 lineto
84728.7 53908.7 lineto
84728.7 54077.6 lineto
84785 54190.1 lineto
84841.2 54246.4 lineto
84953.8 54302.7 lineto
85235.2 54302.7 lineto
85347.8 54246.4 lineto
85404.1 54190.1 lineto
85460.4 54077.6 lineto
85460.4 53739.9 lineto
85404.1 53627.3 lineto
85347.8 53571 lineto
stroke
newpath
84278.4 55372.1 moveto
84278.4 54809.3 lineto
84841.2 54753 lineto
84785 54809.3 lineto
84728.7 54921.9 lineto
84728.7 55203.3 lineto
84785 55315.9 lineto
84841.2 55372.1 lineto
84953.8 55428.4 lineto
85235.2 55428.4 lineto
85347.8 55372.1 lineto
85404.1 55315.9 lineto
85460.4 55203.3 lineto
85460.4 54921.9 lineto
85404.1 54809.3 lineto
85347.8 54753 lineto
stroke
newpath
84278.4 55822.4 moveto
84278.4 56554.1 lineto
84728.7 56160.1 lineto
84728.7 56329 lineto
84785 56441.6 lineto
84841.2 56497.9 lineto
84953.8 56554.1 lineto
85235.2 56554.1 lineto
85347.8 56497.9 lineto
85404.1 56441.6 lineto
85460.4 56329 lineto
85460.4 55991.3 lineto
85404.1 55878.7 lineto
85347.8 55822.4 lineto
stroke
newpath
84278.4 57285.9 moveto
84278.4 57398.4 lineto
84334.7 57511 lineto
84391 57567.3 lineto
84503.5 57623.6 lineto
84728.7 57679.9 lineto
85010.1 57679.9 lineto
85235.2 57623.6 lineto
85347.8 57567.3 lineto
85404.1 57511 lineto
85460.4 57398.4 lineto
85460.4 57285.9 lineto
85404.1 57173.3 lineto
85347.8 57117 lineto
85235.2 57060.7 lineto
85010.1 57004.4 lineto
84728.7 57004.4 lineto
84503.5 57060.7 lineto
84391 57117 lineto
84334.7 57173.3 lineto
84278.4 57285.9 lineto
stroke
0 0 0 setrgbcolor
129 setlinewidth
0 0 0 setrgbcolor
(R10) 51607 57715 phantomshow
0 0 0 setrgbcolor
newpath
51846.2 57335.1 moveto
51564.7 57138.1 lineto
stroke
newpath
51846.2 56997.4 moveto
51255.2 56997.4 lineto
51255.2 57222.5 lineto
51283.3 57278.8 lineto
51311.5 57306.9 lineto
51367.7 57335.1 lineto
51452.2 57335.1 lineto
51508.5 57306.9 lineto
51536.6 57278.8 lineto
51564.7 57222.5 lineto
51564.7 56997.4 lineto
stroke
newpath
51846.2 57897.9 moveto
51846.2 57560.2 lineto
stroke
newpath
51846.2 57729.1 moveto
51255.2 57729.1 lineto
51339.6 57672.8 lineto
51395.9 57616.5 lineto
51424 57560.2 lineto
stroke
newpath
51255.2 58263.8 moveto
51255.2 58320.1 lineto
51283.3 58376.4 lineto
51311.5 58404.5 lineto
51367.7 58432.6 lineto
51480.3 58460.8 lineto
51621 58460.8 lineto
51733.6 58432.6 lineto
51789.9 58404.5 lineto
51818 58376.4 lineto
51846.2 58320.1 lineto
51846.2 58263.8 lineto
51818 58207.5 lineto
51789.9 58179.4 lineto
51733.6 58151.2 lineto
51621 58123.1 lineto
51480.3 58123.1 lineto
51367.7 58151.2 lineto
51311.5 58179.4 lineto
51283.3 58207.5 lineto
51255.2 58263.8 lineto
stroke
0 0 0 setrgbcolor
0 0 0 setrgbcolor
(0) 52432 57715 phantomshow
0 0 0 setrgbcolor
newpath
52080.2 57686.9 moveto
52080.2 57743.1 lineto
52108.3 57799.4 lineto
52136.5 57827.6 lineto
52192.7 57855.7 lineto
52305.3 57883.9 lineto
52446 57883.9 lineto
52558.6 57855.7 lineto
52614.9 57827.6 lineto
52643 57799.4 lineto
52671.2 57743.1 lineto
52671.2 57686.9 lineto
52643 57630.6 lineto
52614.9 57602.4 lineto
52558.6 57574.3 lineto
52446 57546.1 lineto
52305.3 57546.1 lineto
52192.7 57574.3 lineto
52136.5 57602.4 lineto
52108.3 57630.6 lineto
52080.2 57686.9 lineto
stroke
0 0 0 setrgbcolor
0 0 0 setrgbcolor
(R11) 76357 50215 phantomshow
0 0 0 setrgbcolor
newpath
76596.2 49835.1 moveto
76314.7 49638.1 lineto
stroke
newpath
76596.2 49497.4 moveto
76005.2 49497.4 lineto
76005.2 49722.5 lineto
76033.3 49778.8 lineto
76061.5 49806.9 lineto
76117.7 49835.1 lineto
76202.2 49835.1 lineto
76258.5 49806.9 lineto
76286.6 49778.8 lineto
76314.7 49722.5 lineto
76314.7 49497.4 lineto
stroke
newpath
76596.2 50397.9 moveto
76596.2 50060.2 lineto
stroke
newpath
76596.2 50229.1 moveto
76005.2 50229.1 lineto
76089.6 50172.8 lineto
76145.9 50116.5 lineto
76174 50060.2 lineto
stroke
newpath
76596.2 50960.8 moveto
76596.2 50623.1 lineto
stroke
newpath
76596.2 50791.9 moveto
76005.2 50791.9 lineto
76089.6 50735.6 lineto
76145.9 50679.4 lineto
76174 50623.1 lineto
stroke
0 0 0 setrgbcolor
0 0 0 setrgbcolor
(0) 75532 50215 phantomshow
0 0 0 setrgbcolor
newpath
75180.2 50186.9 moveto
75180.2 50243.1 lineto
75208.3 50299.4 lineto
75236.5 50327.6 lineto
75292.7 50355.7 lineto
75405.3 50383.9 lineto
75546 50383.9 lineto
75658.6 50355.7 lineto
75714.9 50327.6 lineto
75743 50299.4 lineto
75771.2 50243.1 lineto
75771.2 50186.9 lineto
75743 50130.6 lineto
75714.9 50102.4 lineto
75658.6 50074.3 lineto
75546 50046.1 lineto
75405.3 50046.1 lineto
75292.7 50074.3 lineto
75236.5 50102.4 lineto
75208.3 50130.6 lineto
75180.2 50186.9 lineto
stroke
0 0 0 setrgbcolor
0 0 0 setrgbcolor
(R12) 78607 50215 phantomshow
0 0 0 setrgbcolor
newpath
78846.2 49835.1 moveto
78564.7 49638.1 lineto
stroke
newpath
78846.2 49497.4 moveto
78255.2 49497.4 lineto
78255.2 49722.5 lineto
78283.3 49778.8 lineto
78311.5 49806.9 lineto
78367.7 49835.1 lineto
78452.2 49835.1 lineto
78508.5 49806.9 lineto
78536.6 49778.8 lineto
78564.7 49722.5 lineto
78564.7 49497.4 lineto
stroke
newpath
78846.2 50397.9 moveto
78846.2 50060.2 lineto
stroke
newpath
78846.2 50229.1 moveto
78255.2 50229.1 lineto
78339.6 50172.8 lineto
78395.9 50116.5 lineto
78424 50060.2 lineto
stroke
newpath
78311.5 50623.1 moveto
78283.3 50651.2 lineto
78255.2 50707.5 lineto
78255.2 50848.2 lineto
78283.3 50904.5 lineto
78311.5 50932.6 lineto
78367.7 50960.8 lineto
78424 50960.8 lineto
78508.5 50932.6 lineto
78846.2 50594.9 lineto
78846.2 50960.8 lineto
stroke
0 0 0 setrgbcolor
0 0 0 setrgbcolor
(0) 77782 50215 phantomshow
0 0 0 setrgbcolor
newpath
77430.2 50186.9 moveto
77430.2 50243.1 lineto
77458.3 50299.4 lineto
77486.5 50327.6 lineto
77542.7 50355.7 lineto
77655.3 50383.9 lineto
77796 50383.9 lineto
77908.6 50355.7 lineto
77964.9 50327.6 lineto
77993 50299.4 lineto
78021.2 50243.1 lineto
78021.2 50186.9 lineto
77993 50130.6 lineto
77964.9 50102.4 lineto
77908.6 50074.3 lineto
77796 50046.1 lineto
77655.3 50046.1 lineto
77542.7 50074.3 lineto
77486.5 50102.4 lineto
77458.3 50130.6 lineto
77430.2 50186.9 lineto
stroke
0 0 0 setrgbcolor
0 0 0 setrgbcolor
(R) 50482 70090 phantomshow
0 0 0 setrgbcolor
newpath
50664.9 69850.8 moveto
50467.9 70132.2 lineto
stroke
newpath
50327.2 69850.8 moveto
50327.2 70441.8 lineto
50552.3 70441.8 lineto
50608.6 70413.6 lineto
50636.7 70385.5 lineto
50664.9 70329.2 lineto
50664.9 70244.8 lineto
50636.7 70188.5 lineto
50608.6 70160.4 lineto
50552.3 70132.2 lineto
50327.2 70132.2 lineto
stroke
0 0 0 setrgbcolor
0 0 0 setrgbcolor
(0) 50482 69265 phantomshow
0 0 0 setrgbcolor
newpath
50453.8 69616.8 moveto
50510.1 69616.8 lineto
50566.4 69588.6 lineto
50594.5 69560.5 lineto
50622.7 69504.2 lineto
50650.8 69391.6 lineto
50650.8 69250.9 lineto
50622.7 69138.4 lineto
50594.5 69082.1 lineto
50566.4 69053.9 lineto
50510.1 69025.8 lineto
50453.8 69025.8 lineto
50397.5 69053.9 lineto
50369.4 69082.1 lineto
50341.2 69138.4 lineto
50313.1 69250.9 lineto
50313.1 69391.6 lineto
50341.2 69504.2 lineto
50369.4 69560.5 lineto
50397.5 69588.6 lineto
50453.8 69616.8 lineto
stroke
0 0 0 setrgbcolor
0 0 0 setrgbcolor
(R) 69232 70840 phantomshow
0 0 0 setrgbcolor
newpath
69414.9 70600.8 moveto
69217.9 70882.2 lineto
stroke
newpath
69077.2 70600.8 moveto
69077.2 71191.8 lineto
69302.3 71191.8 lineto
69358.6 71163.6 lineto
69386.7 71135.5 lineto
69414.9 71079.2 lineto
69414.9 70994.8 lineto
69386.7 70938.5 lineto
69358.6 70910.4 lineto
69302.3 70882.2 lineto
69077.2 70882.2 lineto
stroke
0 0 0 setrgbcolor
0 0 0 setrgbcolor
(0) 69232 70015 phantomshow
0 0 0 setrgbcolor
newpath
69203.8 70366.8 moveto
69260.1 70366.8 lineto
69316.4 70338.6 lineto
69344.5 70310.5 lineto
69372.7 70254.2 lineto
69400.8 70141.6 lineto
69400.8 70000.9 lineto
69372.7 69888.4 lineto
69344.5 69832.1 lineto
69316.4 69803.9 lineto
69260.1 69775.8 lineto
69203.8 69775.8 lineto
69147.5 69803.9 lineto
69119.4 69832.1 lineto
69091.2 69888.4 lineto
69063.1 70000.9 lineto
69063.1 70141.6 lineto
69091.2 70254.2 lineto
69119.4 70310.5 lineto
69147.5 70338.6 lineto
69203.8 70366.8 lineto
stroke
0 0 0 setrgbcolor
0 0 0 setrgbcolor
(R) 48232 67090 phantomshow
0 0 0 setrgbcolor
newpath
48414.9 66850.8 moveto
48217.9 67132.2 lineto
stroke
newpath
48077.2 66850.8 moveto
48077.2 67441.8 lineto
48302.3 67441.8 lineto
48358.6 67413.6 lineto
48386.7 67385.5 lineto
48414.9 67329.2 lineto
48414.9 67244.8 lineto
48386.7 67188.5 lineto
48358.6 67160.4 lineto
48302.3 67132.2 lineto
48077.2 67132.2 lineto
stroke
0 0 0 setrgbcolor
0 0 0 setrgbcolor
(0) 48232 66265 phantomshow
0 0 0 setrgbcolor
newpath
48203.8 66616.8 moveto
48260.1 66616.8 lineto
48316.4 66588.6 lineto
48344.5 66560.5 lineto
48372.7 66504.2 lineto
48400.8 66391.6 lineto
48400.8 66250.9 lineto
48372.7 66138.4 lineto
48344.5 66082.1 lineto
48316.4 66053.9 lineto
48260.1 66025.8 lineto
48203.8 66025.8 lineto
48147.5 66053.9 lineto
48119.4 66082.1 lineto
48091.2 66138.4 lineto
48063.1 66250.9 lineto
48063.1 66391.6 lineto
48091.2 66504.2 lineto
48119.4 66560.5 lineto
48147.5 66588.6 lineto
48203.8 66616.8 lineto
stroke
0 0 0 setrgbcolor
0 0 0 setrgbcolor
(R) 49357 57715 phantomshow
0 0 0 setrgbcolor
newpath
49596.2 57897.9 moveto
49314.7 57700.9 lineto
stroke
newpath
49596.2 57560.2 moveto
49005.2 57560.2 lineto
49005.2 57785.4 lineto
49033.3 57841.6 lineto
49061.5 57869.8 lineto
49117.7 57897.9 lineto
49202.2 57897.9 lineto
49258.5 57869.8 lineto
49286.6 57841.6 lineto
49314.7 57785.4 lineto
49314.7 57560.2 lineto
stroke
0 0 0 setrgbcolor
0 0 0 setrgbcolor
(0) 50182 57715 phantomshow
0 0 0 setrgbcolor
newpath
49830.2 57686.9 moveto
49830.2 57743.1 lineto
49858.3 57799.4 lineto
49886.5 57827.6 lineto
49942.7 57855.7 lineto
50055.3 57883.9 lineto
50196 57883.9 lineto
50308.6 57855.7 lineto
50364.9 57827.6 lineto
50393 57799.4 lineto
50421.2 57743.1 lineto
50421.2 57686.9 lineto
50393 57630.6 lineto
50364.9 57602.4 lineto
50308.6 57574.3 lineto
50196 57546.1 lineto
50055.3 57546.1 lineto
49942.7 57574.3 lineto
49886.5 57602.4 lineto
49858.3 57630.6 lineto
49830.2 57686.9 lineto
stroke
0 0 0 setrgbcolor
0 0 0 setrgbcolor
(R) 59216.8 54980.2 phantomshow
0 0 0 setrgbcolor
newpath
59515.3 54940.4 moveto
59177 55000.1 lineto
stroke
newpath
59276.5 54701.6 moveto
58858.6 55119.5 lineto
59017.8 55278.7 lineto
59077.5 55298.6 lineto
59117.3 55298.6 lineto
59177 55278.7 lineto
59236.7 55219 lineto
59256.6 55159.3 lineto
59256.6 55119.5 lineto
59236.7 55059.8 lineto
59077.5 54900.6 lineto
stroke
0 0 0 setrgbcolor
0 0 0 setrgbcolor
(0) 59800.2 54396.8 phantomshow
0 0 0 setrgbcolor
newpath
59531.5 54625.7 moveto
59571.3 54665.5 lineto
59631 54685.4 lineto
59670.8 54685.4 lineto
59730.5 54665.5 lineto
59830 54605.8 lineto
59929.5 54506.3 lineto
59989.2 54406.8 lineto
60009.1 54347.1 lineto
60009.1 54307.3 lineto
59989.2 54247.6 lineto
59949.4 54207.8 lineto
59889.7 54187.9 lineto
59849.9 54187.9 lineto
59790.2 54207.8 lineto
59690.7 54267.5 lineto
59591.2 54367 lineto
59531.5 54466.5 lineto
59511.6 54526.2 lineto
59511.6 54566 lineto
59531.5 54625.7 lineto
stroke
0 0 0 setrgbcolor
236.22 setlinewidth
0 0 0 setrgbcolor
(U3) 60982 51715 phantomshow
0 0 0 setrgbcolor
newpath
60082.1 52418 moveto
60082.1 51461.9 lineto
60138.3 51349.4 lineto
60194.6 51293.2 lineto
60307 51236.9 lineto
60532 51236.9 lineto
60644.5 51293.2 lineto
60700.7 51349.4 lineto
60757 51461.9 lineto
60757 52418 lineto
stroke
newpath
61206.9 52418 moveto
61938.1 52418 lineto
61544.4 51968.1 lineto
61713.1 51968.1 lineto
61825.6 51911.9 lineto
61881.8 51855.6 lineto
61938.1 51743.1 lineto
61938.1 51461.9 lineto
61881.8 51349.4 lineto
61825.6 51293.2 lineto
61713.1 51236.9 lineto
61375.7 51236.9 lineto
61263.2 51293.2 lineto
61206.9 51349.4 lineto
stroke
0 0 0 setrgbcolor
118.11 setlinewidth
0 0 0 setrgbcolor
(DS1337S+) 65482 46465 phantomshow
0 0 0 setrgbcolor
newpath
62391.4 46130.4 moveto
62391.4 46957.1 lineto
62588.3 46957.1 lineto
62706.4 46917.8 lineto
62785.1 46839 lineto
62824.5 46760.3 lineto
62863.8 46602.8 lineto
62863.8 46484.7 lineto
62824.5 46327.2 lineto
62785.1 46248.5 lineto
62706.4 46169.7 lineto
62588.3 46130.4 lineto
62391.4 46130.4 lineto
stroke
newpath
63178.8 46169.7 moveto
63296.9 46130.4 lineto
63493.8 46130.4 lineto
63572.5 46169.7 lineto
63611.9 46209.1 lineto
63651.2 46287.8 lineto
63651.2 46366.6 lineto
63611.9 46445.3 lineto
63572.5 46484.7 lineto
63493.8 46524.1 lineto
63336.3 46563.4 lineto
63257.5 46602.8 lineto
63218.2 46642.2 lineto
63178.8 46720.9 lineto
63178.8 46799.6 lineto
63218.2 46878.4 lineto
63257.5 46917.8 lineto
63336.3 46957.1 lineto
63533.1 46957.1 lineto
63651.2 46917.8 lineto
stroke
newpath
64438.7 46130.4 moveto
63966.2 46130.4 lineto
stroke
newpath
64202.4 46130.4 moveto
64202.4 46957.1 lineto
64123.7 46839 lineto
64045 46760.3 lineto
63966.2 46720.9 lineto
stroke
newpath
64714.2 46957.1 moveto
65226.1 46957.1 lineto
64950.5 46642.2 lineto
65068.6 46642.2 lineto
65147.3 46602.8 lineto
65186.7 46563.4 lineto
65226.1 46484.7 lineto
65226.1 46287.8 lineto
65186.7 46209.1 lineto
65147.3 46169.7 lineto
65068.6 46130.4 lineto
64832.4 46130.4 lineto
64753.6 46169.7 lineto
64714.2 46209.1 lineto
stroke
newpath
65501.6 46957.1 moveto
66013.5 46957.1 lineto
65737.9 46642.2 lineto
65856 46642.2 lineto
65934.7 46602.8 lineto
65974.1 46563.4 lineto
66013.5 46484.7 lineto
66013.5 46287.8 lineto
65974.1 46209.1 lineto
65934.7 46169.7 lineto
65856 46130.4 lineto
65619.8 46130.4 lineto
65541 46169.7 lineto
65501.6 46209.1 lineto
stroke
newpath
66289 46957.1 moveto
66840.2 46957.1 lineto
66485.9 46130.4 lineto
stroke
newpath
67115.8 46169.7 moveto
67233.9 46130.4 lineto
67430.8 46130.4 lineto
67509.5 46169.7 lineto
67548.9 46209.1 lineto
67588.3 46287.8 lineto
67588.3 46366.6 lineto
67548.9 46445.3 lineto
67509.5 46484.7 lineto
67430.8 46524.1 lineto
67273.3 46563.4 lineto
67194.6 46602.8 lineto
67155.2 46642.2 lineto
67115.8 46720.9 lineto
67115.8 46799.6 lineto
67155.2 46878.4 lineto
67194.6 46917.8 lineto
67273.3 46957.1 lineto
67470.1 46957.1 lineto
67588.3 46917.8 lineto
stroke
newpath
67942.6 46445.3 moveto
68572.5 46445.3 lineto
stroke
newpath
68257.6 46130.4 moveto
68257.6 46760.3 lineto
stroke
0 0 0 setrgbcolor
177.165 setlinewidth
0 0 0 setrgbcolor
(X1) 71482 56215 phantomshow
0 0 0 setrgbcolor
newpath
70525.8 56918 moveto
71313.2 55736.9 lineto
stroke
newpath
71313.2 56918 moveto
70525.8 55736.9 lineto
stroke
newpath
72381.8 55736.9 moveto
71706.9 55736.9 lineto
stroke
newpath
72044.4 55736.9 moveto
72044.4 56918 lineto
71931.9 56749.3 lineto
71819.4 56636.8 lineto
71706.9 56580.6 lineto
stroke
0 0 0 setrgbcolor
0 0 0 setrgbcolor
(32.768KHz) 73732 51715 phantomshow
0 0 0 setrgbcolor
newpath
73239.8 48486.7 moveto
73239.8 48998.5 lineto
73554.8 48722.9 lineto
73554.8 48841 lineto
73594.2 48919.7 lineto
73633.5 48959.1 lineto
73712.3 48998.5 lineto
73909.1 48998.5 lineto
73987.9 48959.1 lineto
74027.2 48919.7 lineto
74066.6 48841 lineto
74066.6 48604.8 lineto
74027.2 48526 lineto
73987.9 48486.7 lineto
stroke
newpath
73318.6 49313.4 moveto
73279.2 49352.8 lineto
73239.8 49431.5 lineto
73239.8 49628.4 lineto
73279.2 49707.1 lineto
73318.6 49746.5 lineto
73397.3 49785.9 lineto
73476.1 49785.9 lineto
73594.2 49746.5 lineto
74066.6 49274.1 lineto
74066.6 49785.9 lineto
stroke
newpath
73987.9 50140.2 moveto
74027.2 50179.6 lineto
74066.6 50140.2 lineto
74027.2 50100.8 lineto
73987.9 50140.2 lineto
74066.6 50140.2 lineto
stroke
newpath
73239.8 50455.2 moveto
73239.8 51006.3 lineto
74066.6 50652 lineto
stroke
newpath
73239.8 51675.6 moveto
73239.8 51518.1 lineto
73279.2 51439.4 lineto
73318.6 51400 lineto
73436.7 51321.3 lineto
73594.2 51281.9 lineto
73909.1 51281.9 lineto
73987.9 51321.3 lineto
74027.2 51360.7 lineto
74066.6 51439.4 lineto
74066.6 51596.9 lineto
74027.2 51675.6 lineto
73987.9 51715 lineto
73909.1 51754.4 lineto
73712.3 51754.4 lineto
73633.5 51715 lineto
73594.2 51675.6 lineto
73554.8 51596.9 lineto
73554.8 51439.4 lineto
73594.2 51360.7 lineto
73633.5 51321.3 lineto
73712.3 51281.9 lineto
stroke
newpath
73594.2 52226.8 moveto
73554.8 52148.1 lineto
73515.4 52108.7 lineto
73436.7 52069.3 lineto
73397.3 52069.3 lineto
73318.6 52108.7 lineto
73279.2 52148.1 lineto
73239.8 52226.8 lineto
73239.8 52384.3 lineto
73279.2 52463 lineto
73318.6 52502.4 lineto
73397.3 52541.8 lineto
73436.7 52541.8 lineto
73515.4 52502.4 lineto
73554.8 52463 lineto
73594.2 52384.3 lineto
73594.2 52226.8 lineto
73633.5 52148.1 lineto
73672.9 52108.7 lineto
73751.6 52069.3 lineto
73909.1 52069.3 lineto
73987.9 52108.7 lineto
74027.2 52148.1 lineto
74066.6 52226.8 lineto
74066.6 52384.3 lineto
74027.2 52463 lineto
73987.9 52502.4 lineto
73909.1 52541.8 lineto
73751.6 52541.8 lineto
73672.9 52502.4 lineto
73633.5 52463 lineto
73594.2 52384.3 lineto
stroke
newpath
74066.6 52896.1 moveto
73239.8 52896.1 lineto
stroke
newpath
74066.6 53368.5 moveto
73594.2 53014.2 lineto
stroke
newpath
73239.8 53368.5 moveto
73712.3 52896.1 lineto
stroke
newpath
74066.6 53722.9 moveto
73239.8 53722.9 lineto
stroke
newpath
73633.5 53722.9 moveto
73633.5 54195.3 lineto
stroke
newpath
74066.6 54195.3 moveto
73239.8 54195.3 lineto
stroke
newpath
73515.4 54510.3 moveto
73515.4 54943.3 lineto
74066.6 54510.3 lineto
74066.6 54943.3 lineto
stroke
0 0 0 setrgbcolor
0 0 0 setrgbcolor
(L1) 77482 65215 phantomshow
0 0 0 setrgbcolor
newpath
77285.1 64736.9 moveto
76722.7 64736.9 lineto
76722.7 65918 lineto
stroke
newpath
78297.5 64736.9 moveto
77622.6 64736.9 lineto
stroke
newpath
77960 64736.9 moveto
77960 65918 lineto
77847.5 65749.3 lineto
77735.1 65636.8 lineto
77622.6 65580.6 lineto
stroke
0 0 0 setrgbcolor
0 0 0 setrgbcolor
(RGB_LED) 77482 59215 phantomshow
0 0 0 setrgbcolor
newpath
74613.6 58736.9 moveto
74219.9 59299.4 lineto
stroke
newpath
73938.7 58736.9 moveto
73938.7 59918 lineto
74388.6 59918 lineto
74501.1 59861.8 lineto
74557.3 59805.6 lineto
74613.6 59693.1 lineto
74613.6 59524.3 lineto
74557.3 59411.9 lineto
74501.1 59355.6 lineto
74388.6 59299.4 lineto
73938.7 59299.4 lineto
stroke
newpath
75738.4 59861.8 moveto
75625.9 59918 lineto
75457.2 59918 lineto
75288.5 59861.8 lineto
75176 59749.3 lineto
75119.8 59636.8 lineto
75063.5 59411.9 lineto
75063.5 59243.1 lineto
75119.8 59018.1 lineto
75176 58905.7 lineto
75288.5 58793.2 lineto
75457.2 58736.9 lineto
75569.7 58736.9 lineto
75738.4 58793.2 lineto
75794.7 58849.4 lineto
75794.7 59243.1 lineto
75569.7 59243.1 lineto
stroke
newpath
76694.6 59355.6 moveto
76863.3 59299.4 lineto
76919.5 59243.1 lineto
76975.8 59130.6 lineto
76975.8 58961.9 lineto
76919.5 58849.4 lineto
76863.3 58793.2 lineto
76750.8 58736.9 lineto
76300.9 58736.9 lineto
76300.9 59918 lineto
76694.6 59918 lineto
76807 59861.8 lineto
76863.3 59805.6 lineto
76919.5 59693.1 lineto
76919.5 59580.6 lineto
76863.3 59468.1 lineto
76807 59411.9 lineto
76694.6 59355.6 lineto
76300.9 59355.6 lineto
stroke
newpath
77200.7 58624.4 moveto
78100.6 58624.4 lineto
stroke
newpath
78944.3 58736.9 moveto
78381.8 58736.9 lineto
78381.8 59918 lineto
stroke
newpath
79338 59355.6 moveto
79731.7 59355.6 lineto
stroke
newpath
79900.4 58736.9 moveto
79338 58736.9 lineto
79338 59918 lineto
79900.4 59918 lineto
stroke
newpath
80406.6 58736.9 moveto
80406.6 59918 lineto
80687.8 59918 lineto
80856.5 59861.8 lineto
80969 59749.3 lineto
81025.3 59636.8 lineto
81081.5 59411.9 lineto
81081.5 59243.1 lineto
81025.3 59018.1 lineto
80969 58905.7 lineto
80856.5 58793.2 lineto
80687.8 58736.9 lineto
80406.6 58736.9 lineto
stroke
showpage
grestore
%%EOF
