PCBNEW-LibModule-V1  09/15/2014 11:56:40
#encoding utf-8
Units mm
$INDEX
USBMICRO
$EndINDEX
#
# URL: http://kicadcloud.com/pcbModule/30
#
$MODULE USBMICRO
Po 0 0 0 15 510B3E1E 00000000 ~~
Li USBMICRO
Sc 0
AR USBMICRO
Op 0 0 0
T0 0 -5.99948 1.524 1.524 0 0.3048 N V 21 N "USBMICRO"
T1 -2.90068 -8.45058 1.524 1.524 0 0.3048 N V 21 N "VAL**"
DS 3.79984 1.45034 5.15112 1.45034 0.09906 24
DS -3.79984 1.45034 -5.10032 1.45034 0.09906 24
DS 1.75006 -2.84988 2.14884 -2.84988 0.09906 24
DS -2.14884 -2.84988 -1.75006 -2.84988 0.09906 24
DS -3.79984 1.19888 -3.79984 2.99974 0.09906 24
DS -3.79984 2.99974 3.79984 2.99974 0.09906 24
DS 3.79984 2.99974 3.79984 1.19888 0.09906 24
DS -3.79984 1.45034 3.79984 1.45034 0.09906 24
$PAD
Sh "" R 1.6002 1.39954 0 0 0
Dr 0 0 0
At SMD N 00888000
Ne 0 ""
Po 3.2004 -2.3495
$EndPAD
$PAD
Sh "" R 1.80086 1.89992 0 0 0
Dr 0 0 0
At SMD N 00888000
Ne 0 ""
Po 4.0005 0
$EndPAD
$PAD
Sh "" R 1.80086 1.89992 0 0 0
Dr 0 0 0
At SMD N 00888000
Ne 0 ""
Po -4.0005 0
$EndPAD
$PAD
Sh "" R 1.89992 1.89992 0 0 0
Dr 0 0 0
At SMD N 00888000
Ne 0 ""
Po 1.19888 0
$EndPAD
$PAD
Sh "" R 1.89992 1.89992 0 0 0
Dr 0 0 0
At SMD N 00888000
Ne 0 ""
Po -1.19888 0
$EndPAD
$PAD
Sh "" R 1.6002 1.39954 0 0 0
Dr 0 0 0
At SMD N 00888000
Ne 0 ""
Po -3.2004 -2.3495
$EndPAD
$PAD
Sh "1" R 0.39878 1.34874 0 0 0
Dr 0 0 0
At SMD N 00888000
Ne 0 ""
Po -1.30048 -2.67462
.LocalClearance 0.2032
$EndPAD
$PAD
Sh "2" R 0.39878 1.34874 0 0 0
Dr 0 0 0
At SMD N 00888000
Ne 0 ""
Po -0.65024 -2.67462
.LocalClearance 0.2032
$EndPAD
$PAD
Sh "3" R 0.39878 1.34874 0 0 0
Dr 0 0 0
At SMD N 00888000
Ne 0 ""
Po 0 -2.67462
.LocalClearance 0.2032
$EndPAD
$PAD
Sh "4" R 0.39878 1.34874 0 0 0
Dr 0 0 0
At SMD N 00888000
Ne 0 ""
Po 0.65024 -2.67462
.LocalClearance 0.2032
$EndPAD
$PAD
Sh "5" R 0.39878 1.34874 0 0 0
Dr 0 0 0
At SMD N 00888000
Ne 0 ""
Po 1.30048 -2.67462
.LocalClearance 0.2032
$EndPAD
$EndMODULE USBMICRO
$EndLIBRARY
